03_verif/simulation.log
[TIME: 76000] [Random] - FAIL: Expect: 2789cb6bcc4e4e4, DUT: e1c5b78262533521 
[TIME: 86000] [Random] - FAIL: Expect: 2135536282b7c5e1, DUT: fdf4b25c58563b12 
[TIME: 96000] [Random] - FAIL: Expect: 123b56585cb2f4fd, DUT: eec09e9e76631e10 
[TIME: 106000] [Random] - FAIL: Expect: 101e63769e9ec0ee, DUT: ce81786f63221d06 
[TIME: 116000] [Random] - FAIL: Expect: 61d22636f7881ce, DUT: f7d1bba89e776e4f 
[TIME: 126000] [Random] - FAIL: Expect: 4f6e779ea8bbd1f7, DUT: e3e29484661f1f09 
[TIME: 136000] [Random] - FAIL: Expect: 91f1f668494e2e3, DUT: f3edcac9c59c4b33 
[TIME: 146000] [Random] - FAIL: Expect: 334b9cc9c5caedf3, DUT: efa9786d5d473924 
[TIME: 156000] [Random] - FAIL: Expect: 2439475d6d78a9ef, DUT: eac2b3ad9d545423 
[TIME: 166000] [Random] - FAIL: Expect: 2354549dadb3c2ea, DUT: f6d7d5cfaf892e05 
[TIME: 176000] [Random] - FAIL: Expect: 52e89afcfd5d7f6, DUT: efcf9d9a773f2a0b 
[TIME: 186000] [Random] - FAIL: Expect: b2a3f779a9dcfef, DUT: fbe8ddc2af8c5302 
[TIME: 196000] [Random] - FAIL: Expect: 2538cc2afdde8fb, DUT: f5f3e5c864615921 
[TIME: 206000] [Random] - FAIL: Expect: 21596164c8e5f3f5, DUT: cabd907e62584510 
[TIME: 216000] [Random] - FAIL: Expect: 104558627e90bdca, DUT: fce7736c603d370e 
[TIME: 226000] [Random] - FAIL: Expect: e373d606c73e7fc, DUT: d7b66747403a331c 
[TIME: 236000] [Random] - FAIL: Expect: 1c333a404767b6d7, DUT: f4e4958467533c28 
[TIME: 246000] [Random] - FAIL: Expect: 283c53678495e4f4, DUT: ecdc958a7f645b3d 
[TIME: 256000] [Random] - FAIL: Expect: 3d5b647f8a95dcec, DUT: d4c6bd7946341b04 
[TIME: 266000] [Random] - FAIL: Expect: 41b344679bdc6d4, DUT: f0de71635f530402 
[TIME: 276000] [Random] - FAIL: Expect: 204535f6371def0, DUT: fcf8d28061615723 
[TIME: 286000] [Random] - FAIL: Expect: 2357616180d2f8fc, DUT: edd4bdbc7e7b6431 
[TIME: 296000] [Random] - FAIL: Expect: 31647b7ebcbdd4ed, DUT: e9dbcbcb4e422414 
[TIME: 306000] [Random] - FAIL: Expect: 1424424ecbcbdbe9, DUT: f9d7d67a3f390700 
[TIME: 316000] [Random] - FAIL: Expect: 7393f7ad6d7f9, DUT: d2ae7c7676422b27 
[TIME: 326000] [Random] - FAIL: Expect: 272b4276767caed2, DUT: e4dca279590f0906 
[TIME: 336000] [Random] - FAIL: Expect: 6090f5979a2dce4, DUT: f7eaafac8d898010 
[TIME: 346000] [Random] - FAIL: Expect: 1080898dacafeaf7, DUT: f7cac6ab785a544c 
[TIME: 356000] [Random] - FAIL: Expect: 4c545a78abc6caf7, DUT: c971312a29141110 
[TIME: 366000] [Random] - FAIL: Expect: 101114292a3171c9, DUT: e6d98d8c86826e6e 
[TIME: 376000] [Random] - FAIL: Expect: 6e6e82868c8dd9e6, DUT: d6b8b28d6e696554 
[TIME: 386000] [Random] - FAIL: Expect: 5465696e8db2b8d6, DUT: aaa99964574e4340 
[TIME: 396000] [Random] - FAIL: Expect: 40434e576499a9aa, DUT: f6e7e4d78653220e 
[TIME: 406000] [Random] - FAIL: Expect: e225386d7e4e7f6, DUT: f8f3c9965b494009 
[TIME: 416000] [Random] - FAIL: Expect: 940495b96c9f3f8, DUT: dedd82806d3b1b10 
[TIME: 426000] [Random] - FAIL: Expect: 101b3b6d8082ddde, DUT: d3b8b49f9c7a490a 
[TIME: 436000] [Random] - FAIL: Expect: a497a9c9fb4b8d3, DUT: e9dc8c83655f561f 
[TIME: 446000] [Random] - FAIL: Expect: 1f565f65838cdce9, DUT: edd8c568673c2319 
[TIME: 456000] [Random] - FAIL: Expect: 19233c6768c5d8ed, DUT: bf93844743231b01 
[TIME: 466000] [Random] - FAIL: Expect: 11b2343478493bf, DUT: f3e8a99a796a4e2f 
[TIME: 476000] [Random] - FAIL: Expect: 2f4e6a799aa9e8f3, DUT: f1a9918066615529 
[TIME: 486000] [Random] - FAIL: Expect: 295561668091a9f1, DUT: e7e2d1ce9b864c04 
[TIME: 496000] [Random] - FAIL: Expect: 44c869bced1e2e7, DUT: d198847e6d373120 
[TIME: 506000] [Random] - FAIL: Expect: 2031376d7e8498d1, DUT: d7cfc8c2ac4d200b 
[TIME: 516000] [Random] - FAIL: Expect: b204dacc2c8cfd7, DUT: dedcc6bab4ab1403 
[TIME: 526000] [Random] - FAIL: Expect: 314abb4bac6dcde, DUT: c5ab914e492c1607 
[TIME: 536000] [Random] - FAIL: Expect: 7162c494e91abc5, DUT: fcec989680492416 
[TIME: 546000] [Random] - FAIL: Expect: 162449809698ecfc, DUT: c3c0b48d723c1f15 
[TIME: 556000] [Random] - FAIL: Expect: 151f3c728db4c0c3, DUT: eacba49185745644 
[TIME: 566000] [Random] - FAIL: Expect: 4456749185a4cbea, DUT: fabb979271411405 
[TIME: 576000] [Random] - FAIL: Expect: 51441719297bbfa, DUT: e1dfddc2bc907f5a 
[TIME: 586000] [Random] - FAIL: Expect: 5a7f90bcc2dddfe1, DUT: e4d1b2ac847d6008 
[TIME: 596000] [Random] - FAIL: Expect: 8607d84acb2d1e4, DUT: e6a98984794b1708 
[TIME: 606000] [Random] - FAIL: Expect: 8174b798489a9e6, DUT: f0d4ac8f5b564c07 
[TIME: 616000] [Random] - FAIL: Expect: 74c565b8facd4f0, DUT: eecbadab81380e0c 
[TIME: 626000] [Random] - FAIL: Expect: c0e3881abadcbee, DUT: e9cdbeb38462451f 
[TIME: 636000] [Random] - FAIL: Expect: 1f456284b3becde9, DUT: fae6dea76e622220 
[TIME: 646000] [Random] - FAIL: Expect: 2022626ea7dee6fa, DUT: d6b9a5a39c85715b 
[TIME: 656000] [Random] - FAIL: Expect: 5b71859ca3a5b9d6, DUT: da8678716e656559 
[TIME: 666000] [Random] - FAIL: Expect: 5965656e717886da, DUT: cb776c585037240f 
[TIME: 676000] [Random] - FAIL: Expect: f243750586c77cb, DUT: ecdbd9a28b665e37 
[TIME: 686000] [Random] - FAIL: Expect: 375e668ba2d9dbec, DUT: da897a6c5e553c01 
[TIME: 696000] [Random] - FAIL: Expect: 13c555e6c7a89da, DUT: dacc9b90634e1f12 
[TIME: 706000] [Random] - FAIL: Expect: 121f4e63909bccda, DUT: ecc5c2a894917332 
[TIME: 716000] [Random] - FAIL: Expect: 32739194a8c2c5ec, DUT: ada95c581d110803 
[TIME: 726000] [Random] - FAIL: Expect: 308111d585ca9ad, DUT: f0b88b5e271a1504 
[TIME: 736000] [Random] - FAIL: Expect: 4151a275e8bb8f0, DUT: cdc0be5846300e09 
[TIME: 746000] [Random] - FAIL: Expect: 90e304658bec0cd, DUT: f2decdc29a874a1f 
[TIME: 756000] [Random] - FAIL: Expect: 1f4a879ac2cddef2, DUT: ffeabf99883e3c17 
[TIME: 766000] [Random] - FAIL: Expect: 173c3e8899bfeaff, DUT: ffdcd88a8a6e5028 
[TIME: 776000] [Random] - FAIL: Expect: 28506e8a8ad8dcff, DUT: b59b935c5a593c1f 
[TIME: 786000] [Random] - FAIL: Expect: 1f3c595a5c939bb5, DUT: f8ceccc8b1685d25 
[TIME: 796000] [Random] - FAIL: Expect: 255d68c8b1cccef8, DUT: b1b08e876b682106 
[TIME: 806000] [Random] - FAIL: Expect: 621686b878eb0b1, DUT: ffded9d2c25f3822 
[TIME: 816000] [Random] - FAIL: Expect: 22385fc2d2d9deff, DUT: c29a6d402b171507 
[TIME: 826000] [Random] - FAIL: Expect: 715172b406d9ac2, DUT: fe7e7e6960403d03 
[TIME: 836000] [Random] - FAIL: Expect: 33d4060697e7efe, DUT: f6dbc6c5887d6d3e 
[TIME: 846000] [Random] - FAIL: Expect: 3e6d7d88c5c6dbf6, DUT: ffee9a683013130e 
[TIME: 856000] [Random] - FAIL: Expect: e131330689aeeff, DUT: d1c69b575247412d 
[TIME: 866000] [Random] - FAIL: Expect: 2d414752579bc6d1, DUT: d67f3f372d1c130b 
[TIME: 876000] [Random] - FAIL: Expect: b131c2d373f7fd6, DUT: d7ccbea888612e12 
[TIME: 886000] [Random] - FAIL: Expect: 122e6188a8beccd7, DUT: f1e5c6c2a59b3915 
[TIME: 896000] [Random] - FAIL: Expect: 15399ba5c2c6e5f1, DUT: e4807f7a7573241b 
[TIME: 906000] [Random] - FAIL: Expect: 1b2473757a7f80e4, DUT: eeecc0796c603332 
[TIME: 916000] [Random] - FAIL: Expect: 3233606c79c0ecee, DUT: d9d15b5a574f4b40 
[TIME: 926000] [Random] - FAIL: Expect: 404b4f575a5bd1d9, DUT: cfcebbb9ad6c4305 
[TIME: 936000] [Random] - FAIL: Expect: 5436cadb9bbcecf, DUT: fde4cbb0aba9a357 
[TIME: 946000] [Random] - FAIL: Expect: 57a3a9abb0cbe4fd, DUT: dcdcdab2a2957d5e 
[TIME: 956000] [Random] - FAIL: Expect: 5e7d95a2b2dadcdc, DUT: f4ac5f552d120b09 
[TIME: 966000] [Random] - FAIL: Expect: 90b122d555facf4, DUT: ce7b675a54332e06 
[TIME: 976000] [Random] - FAIL: Expect: 62e33545a677bce, DUT: eee0bc625d2a1f0f 
[TIME: 986000] [Random] - FAIL: Expect: f1f2a5d62bce0ee, DUT: f8d8d2d1c7b1a899 
[TIME: 996000] [Random] - FAIL: Expect: 99a8b1c7d1d2d8f8, DUT: dfcf8c5e433a330a 
[TIME: 1006000] [Random] - FAIL: Expect: a333a435e8ccfdf, DUT: e7c6bf8d816c2c06 
[TIME: 1016000] [Random] - FAIL: Expect: 62c6c818dbfc6e7, DUT: f0908585826b4012 
[TIME: 1026000] [Random] - FAIL: Expect: 12406b82858590f0, DUT: eecac2bcae58430d 
[TIME: 1036000] [Random] - FAIL: Expect: d4358aebcc2caee, DUT: f6d8c0bc7572411f 
[TIME: 1046000] [Random] - FAIL: Expect: 1f417275bcc0d8f6, DUT: dfc9c7b060605d1b 
[TIME: 1056000] [Random] - FAIL: Expect: 1b5d6060b0c7c9df, DUT: 9b6e625c54503317 
[TIME: 1066000] [Random] - FAIL: Expect: 173350545c626e9b, DUT: cfb3a74e453d0702 
[TIME: 1076000] [Random] - FAIL: Expect: 2073d454ea7b3cf, DUT: 00000000 

================================
==========TEST SUMMARY==========
Total test cases:    101    
Passed          :      0    
Failed          :    101    
Pass rate       : 0.00%
================================
- /home/noname/Documents/project_tiny/Ex3/03_verif/SCOREBOARD/scoreboard.sv:168: Verilog $finish
- S i m u l a t i o n   R e p o r t: Verilator 5.024 2024-04-05
- Verilator: $finish at 1us; walltime 0.002 s; speed 0.000 s/s
- Verilator: cpu 0.000 s on 1 threads; alloced 57 MB
