20_doc/my-chapters/my-ref/verify/verify/c3/file_log.txt
# Reading pref.tcl
# //  Questa Intel Starter FPGA Edition-64
# //  Version 2024.3 win64 Sep 10 2024
# //
# // Unpublished work. Copyright 2024 Siemens
# //
# // This material contains trade secrets or otherwise confidential information
# // owned by Siemens Industry Software Inc. or its affiliates (collectively,
# // "SISW"), or its licensors. Access to and use of this information is strictly
# // limited as set forth in the Customer's applicable agreements with SISW.
# //
# // This material may not be copied, distributed, or otherwise disclosed outside
# // of the Customer's facilities without the express written permission of SISW,
# // and may not be used in any way not expressly authorized by SISW.
# //
# Loading project tb
vsim -gui work.tb_ALU8 -voptargs=+acc
# vsim -gui work.tb_ALU8 -voptargs="+acc" 
# Start time: 13:18:59 on Oct 24,2025
# ** Note: (vsim-8009) Loading existing optimized design _opt
# Loading sv_std.std
# Loading work.tb_ALU8(fast)
# Loading work.alu_8bit(fast)
# Loading work.cla_8bit(fast)
# Loading work.cla_4bit(fast)
# ** Warning: (vsim-PLI-3003) [TOFD] - System task or function '$shm_open' is not defined.
#    Time: 0 ps  Iteration: 0  Instance: /tb_ALU8 File: C:/Users/DELL/Downloads/ALU/tb.sv Line: 38
# ** Warning: (vsim-PLI-3003) [TOFD] - System task or function '$shm_probe' is not defined.
#    Time: 0 ps  Iteration: 0  Instance: /tb_ALU8 File: C:/Users/DELL/Downloads/ALU/tb.sv Line: 39
add wave -position insertpoint  \
sim:/tb_ALU8/A \
sim:/tb_ALU8/B \
sim:/tb_ALU8/S1 \
sim:/tb_ALU8/S0 \
sim:/tb_ALU8/Cin \
sim:/tb_ALU8/F \
sim:/tb_ALU8/Cout \
sim:/tb_ALU8/total_tests \
sim:/tb_ALU8/errors \
sim:/tb_ALU8/test_count \
sim:/tb_ALU8/test_pass \
sim:/tb_ALU8/seed
run
# ** Error (suppressible): (vsim-12023) Cannot execute undefined system task/function '$shm_open'
#    Time: 0 ps  Iteration: 0  Process: /tb_ALU8/#INITIAL#32,37 File: C:/Users/DELL/Downloads/ALU/tb.sv Line: 38
# ** Error (suppressible): (vsim-12023) Cannot execute undefined system task/function '$shm_probe'
#    Time: 0 ps  Iteration: 0  Process: /tb_ALU8/#INITIAL#32,37 File: C:/Users/DELL/Downloads/ALU/tb.sv Line: 39
# === TB ALU8 start ===
# 
# ========== STARTING DIRECTED TESTS ==========
# 
# [TIME:   1000] [Direct] A=00 B=00 S1S0=00 Cin=0 | F=00 Cout=0
# => PASS: Expect: 00 (0), DUT: 00 (0)
# ------------------------------------------------------------
# [TIME:   2000] [Direct] A=00 B=00 S1S0=00 Cin=1 | F=01 Cout=0
# => PASS: Expect: 01 (1), DUT: 01 (1)
# ------------------------------------------------------------
# [TIME:   3000] [Direct] A=00 B=00 S1S0=01 Cin=0 | F=00 Cout=0
# => PASS: Expect: 00 (0), DUT: 00 (0)
# ------------------------------------------------------------
# [TIME:   4000] [Direct] A=00 B=00 S1S0=01 Cin=1 | F=01 Cout=0
# => PASS: Expect: 01 (1), DUT: 01 (1)
# ------------------------------------------------------------
# [TIME:   5000] [Direct] A=00 B=00 S1S0=10 Cin=0 | F=ff Cout=0
# => PASS: Expect: ff (255), DUT: ff (255)
# ------------------------------------------------------------
# [TIME:   6000] [Direct] A=00 B=00 S1S0=10 Cin=1 | F=00 Cout=1
# => PASS: Expect: 00 (0), DUT: 00 (0)
# ------------------------------------------------------------
# [TIME:   7000] [Direct] A=00 B=00 S1S0=11 Cin=0 | F=ff Cout=0
# => PASS: Expect: ff (255), DUT: ff (255)
# ------------------------------------------------------------
# [TIME:   8000] [Direct] A=00 B=00 S1S0=11 Cin=1 | F=00 Cout=1
# => PASS: Expect: 00 (0), DUT: 00 (0)
# ------------------------------------------------------------
# [TIME:   9000] [Direct] A=ff B=ff S1S0=00 Cin=0 | F=fe Cout=1
# => PASS: Expect: fe (254), DUT: fe (254)
# ------------------------------------------------------------
# [TIME:  10000] [Direct] A=ff B=ff S1S0=00 Cin=1 | F=ff Cout=1
# => PASS: Expect: ff (255), DUT: ff (255)
# ------------------------------------------------------------
# [TIME:  11000] [Direct] A=ff B=ff S1S0=01 Cin=0 | F=ff Cout=0
# => PASS: Expect: ff (255), DUT: ff (255)
# ------------------------------------------------------------
# [TIME:  12000] [Direct] A=ff B=ff S1S0=01 Cin=1 | F=00 Cout=1
# => PASS: Expect: 00 (0), DUT: 00 (0)
# ------------------------------------------------------------
# [TIME:  13000] [Direct] A=ff B=ff S1S0=10 Cin=0 | F=00 Cout=0
# => PASS: Expect: 00 (0), DUT: 00 (0)
# ------------------------------------------------------------
# [TIME:  14000] [Direct] A=ff B=ff S1S0=10 Cin=1 | F=01 Cout=0
# => PASS: Expect: 01 (1), DUT: 01 (1)
# ------------------------------------------------------------
# [TIME:  15000] [Direct] A=ff B=ff S1S0=11 Cin=0 | F=ff Cout=0
# => PASS: Expect: ff (255), DUT: ff (255)
# ------------------------------------------------------------
# [TIME:  16000] [Direct] A=ff B=ff S1S0=11 Cin=1 | F=00 Cout=1
# => PASS: Expect: 00 (0), DUT: 00 (0)
# ------------------------------------------------------------
# [TIME:  17000] [Direct] A=ff B=01 S1S0=00 Cin=0 | F=00 Cout=1
# => PASS: Expect: 00 (0), DUT: 00 (0)
# ------------------------------------------------------------
# [TIME:  18000] [Direct] A=ff B=01 S1S0=00 Cin=1 | F=01 Cout=1
# => PASS: Expect: 01 (1), DUT: 01 (1)
# ------------------------------------------------------------
# [TIME:  19000] [Direct] A=ff B=01 S1S0=01 Cin=0 | F=ff Cout=0
# => PASS: Expect: ff (255), DUT: ff (255)
# ------------------------------------------------------------
# [TIME:  20000] [Direct] A=ff B=01 S1S0=01 Cin=1 | F=00 Cout=1
# => PASS: Expect: 00 (0), DUT: 00 (0)
# ------------------------------------------------------------
# [TIME:  21000] [Direct] A=ff B=01 S1S0=10 Cin=0 | F=fe Cout=0
# => PASS: Expect: fe (254), DUT: fe (254)
# ------------------------------------------------------------
# [TIME:  22000] [Direct] A=ff B=01 S1S0=10 Cin=1 | F=ff Cout=0
# => PASS: Expect: ff (255), DUT: ff (255)
# ------------------------------------------------------------
# [TIME:  23000] [Direct] A=ff B=01 S1S0=11 Cin=0 | F=fd Cout=1
# => PASS: Expect: fd (253), DUT: fd (253)
# ------------------------------------------------------------
# [TIME:  24000] [Direct] A=ff B=01 S1S0=11 Cin=1 | F=fe Cout=1
# => PASS: Expect: fe (254), DUT: fe (254)
# ------------------------------------------------------------
# [TIME:  25000] [Direct] A=80 B=80 S1S0=00 Cin=0 | F=00 Cout=1
# => PASS: Expect: 00 (0), DUT: 00 (0)
# ------------------------------------------------------------
# [TIME:  26000] [Direct] A=80 B=80 S1S0=00 Cin=1 | F=01 Cout=1
# => PASS: Expect: 01 (1), DUT: 01 (1)
# ------------------------------------------------------------
# [TIME:  27000] [Direct] A=80 B=80 S1S0=01 Cin=0 | F=80 Cout=0
# => PASS: Expect: 80 (128), DUT: 80 (128)
# ------------------------------------------------------------
# [TIME:  28000] [Direct] A=80 B=80 S1S0=01 Cin=1 | F=81 Cout=0
# => PASS: Expect: 81 (129), DUT: 81 (129)
# ------------------------------------------------------------
# [TIME:  29000] [Direct] A=80 B=80 S1S0=10 Cin=0 | F=7f Cout=0
# => PASS: Expect: 7f (127), DUT: 7f (127)
# ------------------------------------------------------------
# [TIME:  30000] [Direct] A=80 B=80 S1S0=10 Cin=1 | F=80 Cout=0
# => PASS: Expect: 80 (128), DUT: 80 (128)
# ------------------------------------------------------------
# [TIME:  31000] [Direct] A=80 B=80 S1S0=11 Cin=0 | F=ff Cout=0
# => PASS: Expect: ff (255), DUT: ff (255)
# ------------------------------------------------------------
# [TIME:  32000] [Direct] A=80 B=80 S1S0=11 Cin=1 | F=00 Cout=1
# => PASS: Expect: 00 (0), DUT: 00 (0)
# ------------------------------------------------------------
# [TIME:  33000] [Direct] A=aa B=55 S1S0=00 Cin=0 | F=ff Cout=0
# => PASS: Expect: ff (255), DUT: ff (255)
# ------------------------------------------------------------
# [TIME:  34000] [Direct] A=aa B=55 S1S0=00 Cin=1 | F=00 Cout=1
# => PASS: Expect: 00 (0), DUT: 00 (0)
# ------------------------------------------------------------
# [TIME:  35000] [Direct] A=aa B=55 S1S0=01 Cin=0 | F=aa Cout=0
# => PASS: Expect: aa (170), DUT: aa (170)
# ------------------------------------------------------------
# [TIME:  36000] [Direct] A=aa B=55 S1S0=01 Cin=1 | F=ab Cout=0
# => PASS: Expect: ab (171), DUT: ab (171)
# ------------------------------------------------------------
# [TIME:  37000] [Direct] A=aa B=55 S1S0=10 Cin=0 | F=aa Cout=0
# => PASS: Expect: aa (170), DUT: aa (170)
# ------------------------------------------------------------
# [TIME:  38000] [Direct] A=aa B=55 S1S0=10 Cin=1 | F=ab Cout=0
# => PASS: Expect: ab (171), DUT: ab (171)
# ------------------------------------------------------------
# [TIME:  39000] [Direct] A=aa B=55 S1S0=11 Cin=0 | F=54 Cout=1
# => PASS: Expect: 54 (84), DUT: 54 (84)
# ------------------------------------------------------------
# [TIME:  40000] [Direct] A=aa B=55 S1S0=11 Cin=1 | F=55 Cout=1
# => PASS: Expect: 55 (85), DUT: 55 (85)
# ------------------------------------------------------------
# [TIME:  41000] [Direct] A=55 B=aa S1S0=00 Cin=0 | F=ff Cout=0
# => PASS: Expect: ff (255), DUT: ff (255)
# ------------------------------------------------------------
# [TIME:  42000] [Direct] A=55 B=aa S1S0=00 Cin=1 | F=00 Cout=1
# => PASS: Expect: 00 (0), DUT: 00 (0)
# ------------------------------------------------------------
# [TIME:  43000] [Direct] A=55 B=aa S1S0=01 Cin=0 | F=55 Cout=0
# => PASS: Expect: 55 (85), DUT: 55 (85)
# ------------------------------------------------------------
# [TIME:  44000] [Direct] A=55 B=aa S1S0=01 Cin=1 | F=56 Cout=0
# => PASS: Expect: 56 (86), DUT: 56 (86)
# ------------------------------------------------------------
# [TIME:  45000] [Direct] A=55 B=aa S1S0=10 Cin=0 | F=55 Cout=0
# => PASS: Expect: 55 (85), DUT: 55 (85)
# ------------------------------------------------------------
# [TIME:  46000] [Direct] A=55 B=aa S1S0=10 Cin=1 | F=56 Cout=0
# => PASS: Expect: 56 (86), DUT: 56 (86)
# ------------------------------------------------------------
# [TIME:  47000] [Direct] A=55 B=aa S1S0=11 Cin=0 | F=aa Cout=0
# => PASS: Expect: aa (170), DUT: aa (170)
# ------------------------------------------------------------
# [TIME:  48000] [Direct] A=55 B=aa S1S0=11 Cin=1 | F=ab Cout=0
# => PASS: Expect: ab (171), DUT: ab (171)
# ------------------------------------------------------------
# [TIME:  49000] [Direct] A=0f B=f0 S1S0=00 Cin=0 | F=ff Cout=0
# => PASS: Expect: ff (255), DUT: ff (255)
# ------------------------------------------------------------
# [TIME:  50000] [Direct] A=0f B=f0 S1S0=00 Cin=1 | F=00 Cout=1
# => PASS: Expect: 00 (0), DUT: 00 (0)
# ------------------------------------------------------------
# [TIME:  51000] [Direct] A=0f B=f0 S1S0=01 Cin=0 | F=0f Cout=0
# => PASS: Expect: 0f (15), DUT: 0f (15)
# ------------------------------------------------------------
# [TIME:  52000] [Direct] A=0f B=f0 S1S0=01 Cin=1 | F=10 Cout=0
# => PASS: Expect: 10 (16), DUT: 10 (16)
# ------------------------------------------------------------
# [TIME:  53000] [Direct] A=0f B=f0 S1S0=10 Cin=0 | F=0f Cout=0
# => PASS: Expect: 0f (15), DUT: 0f (15)
# ------------------------------------------------------------
# [TIME:  54000] [Direct] A=0f B=f0 S1S0=10 Cin=1 | F=10 Cout=0
# => PASS: Expect: 10 (16), DUT: 10 (16)
# ------------------------------------------------------------
# [TIME:  55000] [Direct] A=0f B=f0 S1S0=11 Cin=0 | F=1e Cout=0
# => PASS: Expect: 1e (30), DUT: 1e (30)
# ------------------------------------------------------------
# [TIME:  56000] [Direct] A=0f B=f0 S1S0=11 Cin=1 | F=1f Cout=0
# => PASS: Expect: 1f (31), DUT: 1f (31)
# ------------------------------------------------------------
# 
# ========== ZERO CASE TEST ==========
# 
# [TIME:  57000] [Zero] A=00 B=00 S1S0=00 Cin=0 | F=00 Cout=0
# => PASS: Expect: 00 (0), DUT: 00 (0)
# ------------------------------------------------------------
# 
# ========== STARTING RANDOM TESTS ==========
# 
# [TIME:  59000] [Random] A=07 B=5b S1S0=11 Cin=1 | F=ac Cout=0
# => PASS: Expect: ac (172), DUT: ac (172)
# ------------------------------------------------------------
# [TIME:  61000] [Random] A=46 B=63 S1S0=00 Cin=1 | F=aa Cout=0
# => PASS: Expect: aa (170), DUT: aa (170)
# ------------------------------------------------------------
# [TIME:  63000] [Random] A=07 B=a0 S1S0=00 Cin=0 | F=a7 Cout=0
# => PASS: Expect: a7 (167), DUT: a7 (167)
# ------------------------------------------------------------
# [TIME:  65000] [Random] A=f2 B=ff S1S0=00 Cin=0 | F=f1 Cout=1
# => PASS: Expect: f1 (241), DUT: f1 (241)
# ------------------------------------------------------------
# [TIME:  67000] [Random] A=d3 B=30 S1S0=11 Cin=0 | F=a2 Cout=1
# => PASS: Expect: a2 (162), DUT: a2 (162)
# ------------------------------------------------------------
# [TIME:  69000] [Random] A=b0 B=24 S1S0=00 Cin=1 | F=d5 Cout=0
# => PASS: Expect: d5 (213), DUT: d5 (213)
# ------------------------------------------------------------
# [TIME:  71000] [Random] A=6a B=82 S1S0=10 Cin=1 | F=7e Cout=0
# => PASS: Expect: 7e (126), DUT: 7e (126)
# ------------------------------------------------------------
# [TIME:  73000] [Random] A=48 B=de S1S0=11 Cin=0 | F=69 Cout=0
# => PASS: Expect: 69 (105), DUT: 69 (105)
# ------------------------------------------------------------
# [TIME:  75000] [Random] A=4b B=ab S1S0=00 Cin=1 | F=f7 Cout=0
# => PASS: Expect: f7 (247), DUT: f7 (247)
# ------------------------------------------------------------
# [TIME:  77000] [Random] A=a4 B=81 S1S0=00 Cin=1 | F=26 Cout=1
# => PASS: Expect: 26 (38), DUT: 26 (38)
# ------------------------------------------------------------
# [TIME:  79000] [Random] A=96 B=21 S1S0=00 Cin=0 | F=b7 Cout=0
# => PASS: Expect: b7 (183), DUT: b7 (183)
# ------------------------------------------------------------
# [TIME:  81000] [Random] A=17 B=dc S1S0=01 Cin=1 | F=18 Cout=0
# => PASS: Expect: 18 (24), DUT: 18 (24)
# ------------------------------------------------------------
# [TIME:  83000] [Random] A=fe B=ec S1S0=00 Cin=1 | F=eb Cout=1
# => PASS: Expect: eb (235), DUT: eb (235)
# ------------------------------------------------------------
# [TIME:  85000] [Random] A=d4 B=b2 S1S0=10 Cin=1 | F=4e Cout=0
# => PASS: Expect: 4e (78), DUT: 4e (78)
# ------------------------------------------------------------
# [TIME:  87000] [Random] A=38 B=9f S1S0=11 Cin=1 | F=99 Cout=0
# => PASS: Expect: 99 (153), DUT: 99 (153)
# ------------------------------------------------------------
# [TIME:  89000] [Random] A=6d B=0d S1S0=11 Cin=1 | F=60 Cout=1
# => PASS: Expect: 60 (96), DUT: 60 (96)
# ------------------------------------------------------------
# [TIME:  91000] [Random] A=e6 B=bf S1S0=01 Cin=1 | F=e7 Cout=0
# => PASS: Expect: e7 (231), DUT: e7 (231)
# ------------------------------------------------------------
# [TIME:  93000] [Random] A=15 B=95 S1S0=11 Cin=1 | F=80 Cout=0
# => PASS: Expect: 80 (128), DUT: 80 (128)
# ------------------------------------------------------------
# [TIME:  95000] [Random] A=66 B=9b S1S0=11 Cin=1 | F=cb Cout=0
# => PASS: Expect: cb (203), DUT: cb (203)
# ------------------------------------------------------------
# [TIME:  97000] [Random] A=f3 B=c8 S1S0=10 Cin=1 | F=38 Cout=0
# => PASS: Expect: 38 (56), DUT: 38 (56)
# ------------------------------------------------------------
# [TIME:  99000] [Random] A=6d B=3d S1S0=10 Cin=1 | F=c3 Cout=0
# => PASS: Expect: c3 (195), DUT: c3 (195)
# ------------------------------------------------------------
# [TIME: 101000] [Random] A=3c B=2a S1S0=10 Cin=1 | F=d6 Cout=0
# => PASS: Expect: d6 (214), DUT: d6 (214)
# ------------------------------------------------------------
# [TIME: 103000] [Random] A=05 B=51 S1S0=00 Cin=0 | F=56 Cout=0
# => PASS: Expect: 56 (86), DUT: 56 (86)
# ------------------------------------------------------------
# [TIME: 105000] [Random] A=1c B=bf S1S0=10 Cin=1 | F=41 Cout=0
# => PASS: Expect: 41 (65), DUT: 41 (65)
# ------------------------------------------------------------
# [TIME: 107000] [Random] A=14 B=9c S1S0=01 Cin=0 | F=14 Cout=0
# => PASS: Expect: 14 (20), DUT: 14 (20)
# ------------------------------------------------------------
# [TIME: 109000] [Random] A=9f B=d5 S1S0=11 Cin=1 | F=ca Cout=0
# => PASS: Expect: ca (202), DUT: ca (202)
# ------------------------------------------------------------
# [TIME: 111000] [Random] A=6a B=b4 S1S0=01 Cin=1 | F=6b Cout=0
# => PASS: Expect: 6b (107), DUT: 6b (107)
# ------------------------------------------------------------
# [TIME: 113000] [Random] A=ec B=5c S1S0=00 Cin=1 | F=49 Cout=1
# => PASS: Expect: 49 (73), DUT: 49 (73)
# ------------------------------------------------------------
# [TIME: 115000] [Random] A=e2 B=2c S1S0=01 Cin=0 | F=e2 Cout=0
# => PASS: Expect: e2 (226), DUT: e2 (226)
# ------------------------------------------------------------
# [TIME: 117000] [Random] A=da B=2b S1S0=00 Cin=0 | F=05 Cout=1
# => PASS: Expect: 05 (5), DUT: 05 (5)
# ------------------------------------------------------------
# [TIME: 119000] [Random] A=bb B=42 S1S0=10 Cin=0 | F=bd Cout=0
# => PASS: Expect: bd (189), DUT: bd (189)
# ------------------------------------------------------------
# [TIME: 121000] [Random] A=a1 B=d5 S1S0=10 Cin=0 | F=2a Cout=0
# => PASS: Expect: 2a (42), DUT: 2a (42)
# ------------------------------------------------------------
# [TIME: 123000] [Random] A=f1 B=e9 S1S0=10 Cin=0 | F=16 Cout=0
# => PASS: Expect: 16 (22), DUT: 16 (22)
# ------------------------------------------------------------
# [TIME: 125000] [Random] A=25 B=f9 S1S0=01 Cin=1 | F=26 Cout=0
# => PASS: Expect: 26 (38), DUT: 26 (38)
# ------------------------------------------------------------
# [TIME: 127000] [Random] A=85 B=36 S1S0=01 Cin=0 | F=85 Cout=0
# => PASS: Expect: 85 (133), DUT: 85 (133)
# ------------------------------------------------------------
# [TIME: 129000] [Random] A=26 B=1a S1S0=00 Cin=1 | F=41 Cout=0
# => PASS: Expect: 41 (65), DUT: 41 (65)
# ------------------------------------------------------------
# [TIME: 131000] [Random] A=b8 B=a3 S1S0=10 Cin=1 | F=5d Cout=0
# => PASS: Expect: 5d (93), DUT: 5d (93)
# ------------------------------------------------------------
# [TIME: 133000] [Random] A=7b B=40 S1S0=11 Cin=1 | F=3b Cout=1
# => PASS: Expect: 3b (59), DUT: 3b (59)
# ------------------------------------------------------------
# [TIME: 135000] [Random] A=24 B=a4 S1S0=11 Cin=1 | F=80 Cout=0
# => PASS: Expect: 80 (128), DUT: 80 (128)
# ------------------------------------------------------------
# [TIME: 137000] [Random] A=cd B=65 S1S0=00 Cin=1 | F=33 Cout=1
# => PASS: Expect: 33 (51), DUT: 33 (51)
# ------------------------------------------------------------
# [TIME: 139000] [Random] A=fd B=ef S1S0=01 Cin=0 | F=fd Cout=0
# => PASS: Expect: fd (253), DUT: fd (253)
# ------------------------------------------------------------
# [TIME: 141000] [Random] A=8a B=79 S1S0=11 Cin=1 | F=11 Cout=1
# => PASS: Expect: 11 (17), DUT: 11 (17)
# ------------------------------------------------------------
# [TIME: 143000] [Random] A=1f B=93 S1S0=11 Cin=1 | F=8c Cout=0
# => PASS: Expect: 8c (140), DUT: 8c (140)
# ------------------------------------------------------------
# 
# ============================================
# =============== TEST SUMMARY ===============
# Total test cases : 100
# Passed            : 100
# Failed            : 0
# Pass rate         : 100.00 %
# ============================================
# 
# PASS: All tests succeeded.
# ** Note: $finish    : C:/Users/DELL/Downloads/ALU/tb.sv(210)
#    Time: 143 ns  Iteration: 0  Instance: /tb_ALU8
# 1
# Break in Module tb_ALU8 at C:/Users/DELL/Downloads/ALU/tb.sv line 210
# End time: 13:22:58 on Oct 24,2025, Elapsed time: 0:03:59
# Errors: 2, Warnings: 3
# Closing project C:/Users/DELL/Downloads/ALU/tb.mpf
# reading C:/altera/24.1std/questa_fse/win64/../modelsim.ini
# Loading project testbench
# Compile of tb.sv was successful.
# Compile of cla_32bit.sv was successful.
# Compile of cla_4bit.sv was successful.
# 3 compiles, 0 failed with no errors.
vsim -gui -voptargs=+acc work.tb_cla32
# vsim -gui -voptargs="+acc" work.tb_cla32 
# Start time: 13:23:16 on Oct 24,2025
# ** Note: (vsim-3813) Design is being optimized due to module recompilation...
# ** Warning: (vopt-10908) Some optimizations are turned off because the +acc switch is in effect.
# ** Note: (vsim-12126) Error and warning message counts have been restored: Errors=0, Warnings=1.
# Loading sv_std.std
# Loading work.tb_cla32(fast)
# Loading work.cla_32bit(fast)
# Loading work.cla_4bit(fast)
# ** Warning: (vsim-PLI-3003) [TOFD] - System task or function '$shm_open' is not defined.
#    Time: 0 ps  Iteration: 0  Instance: /tb_cla32 File: C:/Users/DELL/Downloads/CLA/tb.sv Line: 33
# ** Warning: (vsim-PLI-3003) [TOFD] - System task or function '$shm_probe' is not defined.
#    Time: 0 ps  Iteration: 0  Instance: /tb_cla32 File: C:/Users/DELL/Downloads/CLA/tb.sv Line: 34
add wave -position insertpoint  \
sim:/tb_cla32/clk \
sim:/tb_cla32/rst_n \
sim:/tb_cla32/A_tb \
sim:/tb_cla32/B_tb \
sim:/tb_cla32/Cin_tb \
sim:/tb_cla32/Sum_tb \
sim:/tb_cla32/Cout_tb \
sim:/tb_cla32/pass_count \
sim:/tb_cla32/fail_count
run
# ** Error (suppressible): (vsim-12023) Cannot execute undefined system task/function '$shm_open'
#    Time: 0 ps  Iteration: 0  Process: /tb_cla32/#INITIAL#24,28,32 File: C:/Users/DELL/Downloads/CLA/tb.sv Line: 33
# ** Error (suppressible): (vsim-12023) Cannot execute undefined system task/function '$shm_probe'
#    Time: 0 ps  Iteration: 0  Process: /tb_cla32/#INITIAL#24,28,32 File: C:/Users/DELL/Downloads/CLA/tb.sv Line: 34
# === Start run_test (100 samples) ===
# PASS [0] A=0x2e45b278 B=0xd7aeae53 Cin=1 => {Cout,Sum}=0x105f460cc
# PASS [1] A=0x1e3a4d4a B=0x4ba544f7 Cin=1 => {Cout,Sum}=0x069df9242
# PASS [2] A=0xf331e3ec B=0x55820c15 Cin=0 => {Cout,Sum}=0x148b3f001
# PASS [3] A=0xfb325326 B=0x4cd94c49 Cin=0 => {Cout,Sum}=0x1480b9f6f
# PASS [4] A=0x3702698e B=0xc7fc285a Cin=1 => {Cout,Sum}=0x0fefe91e9
# PASS [5] A=0x62976e32 B=0xeac06d4e Cin=1 => {Cout,Sum}=0x14d57db81
# PASS [6] A=0xfee18ffa B=0xf146ff06 Cin=1 => {Cout,Sum}=0x1f0288f01
# PASS [7] A=0x2810d763 B=0x5c5cf190 Cin=0 => {Cout,Sum}=0x0846dc8f3
# PASS [8] A=0xadfb77b4 B=0xb28b1d91 Cin=0 => {Cout,Sum}=0x160869545
# PASS [9] A=0x972bad16 B=0x4d715147 Cin=0 => {Cout,Sum}=0x0e49cfe5d
# PASS [10] A=0x6a6447c7 B=0x4061089a Cin=1 => {Cout,Sum}=0x0aac55062
# PASS [11] A=0x1ed3fd5c B=0x479d63ac Cin=1 => {Cout,Sum}=0x066716109
# PASS [12] A=0x127cfdda B=0xdc4835a6 Cin=1 => {Cout,Sum}=0x0eec53381
run
# PASS [13] A=0xd36abc01 B=0xfd739fae Cin=1 => {Cout,Sum}=0x1d0de5bb0
# PASS [14] A=0x7ea6d539 B=0xa036e7e0 Cin=0 => {Cout,Sum}=0x11eddbd19
# PASS [15] A=0x4c2250fa B=0xbdeeea46 Cin=0 => {Cout,Sum}=0x10a113b40
# PASS [16] A=0xc4f5abf5 B=0x85aa5f9e Cin=1 => {Cout,Sum}=0x14aa00b94
# PASS [17] A=0xccb49ba3 B=0xd6345113 Cin=1 => {Cout,Sum}=0x1a2e8ecb7
# PASS [18] A=0x0044034f B=0x65678842 Cin=0 => {Cout,Sum}=0x065ab8b91
# PASS [19] A=0xddc87bbb B=0x9651ca1c Cin=1 => {Cout,Sum}=0x1741a45d8
# PASS [20] A=0x3c7e2b11 B=0x3ebe8096 Cin=1 => {Cout,Sum}=0x07b3caba8
# PASS [21] A=0x6a6718f3 B=0x537780f0 Cin=0 => {Cout,Sum}=0x0bdde99e3
# PASS [22] A=0xf318a953 B=0xf83d44c9 Cin=1 => {Cout,Sum}=0x1eb55ee1d
# PASS [23] A=0xef3f1399 B=0x3122dfbc Cin=1 => {Cout,Sum}=0x12061f356
# PASS [24] A=0xd95da163 B=0x673fa737 Cin=1 => {Cout,Sum}=0x1409d489b
# PASS [25] A=0x7b764a8b B=0x5702049f Cin=0 => {Cout,Sum}=0x0d2784f2a
# PASS [26] A=0x3009d21c B=0x8e74ce17 Cin=1 => {Cout,Sum}=0x0be7ea034
# PASS [27] A=0xec97d0a3 B=0xba0ed069 Cin=1 => {Cout,Sum}=0x1a6a6a10d
run
# PASS [28] A=0xe25e48b7 B=0x4a60694c Cin=0 => {Cout,Sum}=0x12cbeb203
# PASS [29] A=0xe53f831f B=0xaf6e3c20 Cin=1 => {Cout,Sum}=0x194adbf40
# PASS [30] A=0x9f77105e B=0x9a53f47f Cin=1 => {Cout,Sum}=0x139cb04de
# PASS [31] A=0x1c01e434 B=0xacbd15ab Cin=0 => {Cout,Sum}=0x0c8bef9df
# PASS [32] A=0x474699a8 B=0x67229ee1 Cin=0 => {Cout,Sum}=0x0ae693889
# PASS [33] A=0x2f491fc7 B=0x95884c75 Cin=1 => {Cout,Sum}=0x0c4d16c3d
# PASS [34] A=0x6fe5dbfe B=0x944f7a70 Cin=1 => {Cout,Sum}=0x10435566f
# PASS [35] A=0x8408599e B=0x2ee4ba2e Cin=0 => {Cout,Sum}=0x0b2ed13cc
# PASS [36] A=0x34a784aa B=0xfac0e92b Cin=1 => {Cout,Sum}=0x12f686dd6
# PASS [37] A=0x41b7e325 B=0xd638373e Cin=1 => {Cout,Sum}=0x117f01a64
# PASS [38] A=0xf1272fba B=0x751ec1df Cin=0 => {Cout,Sum}=0x16645f199
# PASS [39] A=0xaa011e37 B=0xc99d5b83 Cin=0 => {Cout,Sum}=0x1739e79ba
# PASS [40] A=0xc33e948f B=0x5c14dd82 Cin=1 => {Cout,Sum}=0x11f537212
# PASS [41] A=0x516f868e B=0x847c6bea Cin=1 => {Cout,Sum}=0x0d5ebf279
# PASS [42] A=0xeb39c12d B=0x76f01e67 Cin=1 => {Cout,Sum}=0x16229df95
run
# PASS [43] A=0xd479a68b B=0x3dc61c18 Cin=1 => {Cout,Sum}=0x1123fc2a4
# PASS [44] A=0xd5d2b645 B=0x8f212132 Cin=0 => {Cout,Sum}=0x164f3d777
# PASS [45] A=0xa5e2e834 B=0xcfee444a Cin=1 => {Cout,Sum}=0x175d12c7f
# PASS [46] A=0x8389e856 B=0x376e5dd3 Cin=1 => {Cout,Sum}=0x0baf8462a
# PASS [47] A=0xfd3f3ef3 B=0xeb070ae0 Cin=1 => {Cout,Sum}=0x1e84649d4
# PASS [48] A=0x0f7d8f40 B=0x77a51fde Cin=1 => {Cout,Sum}=0x08722af1f
# PASS [49] A=0x2190a6e1 B=0x10034d20 Cin=1 => {Cout,Sum}=0x03193f402
# PASS [50] A=0xc8bc8d2c B=0x7bbae260 Cin=0 => {Cout,Sum}=0x144776f8c
# PASS [51] A=0x967814f7 B=0xa8026b4f Cin=0 => {Cout,Sum}=0x13e7a8046
# PASS [52] A=0x276d1da4 B=0xd702e2a9 Cin=1 => {Cout,Sum}=0x0fe70004e
# PASS [53] A=0xd79948e4 B=0x04caebdd Cin=1 => {Cout,Sum}=0x0dc6434c2
# PASS [54] A=0x2ea6ef80 B=0x98dbe133 Cin=0 => {Cout,Sum}=0x0c782d0b3
# PASS [55] A=0xf373300d B=0x9d331f05 Cin=1 => {Cout,Sum}=0x190a64f13
# PASS [56] A=0x5f781556 B=0x4658d568 Cin=0 => {Cout,Sum}=0x0a5d0eabe
# PASS [57] A=0x1a2a333a B=0xcd450e6f Cin=1 => {Cout,Sum}=0x0e76f41aa
run
# PASS [58] A=0x43b2cc8a B=0xd694bf85 Cin=0 => {Cout,Sum}=0x11a478c0f
# PASS [59] A=0x1d79dd18 B=0x3e953ba7 Cin=1 => {Cout,Sum}=0x05c0f18c0
# PASS [60] A=0x31611476 B=0x331adfdf Cin=1 => {Cout,Sum}=0x0647bf456
# PASS [61] A=0x9e2289c3 B=0xfac7c307 Cin=1 => {Cout,Sum}=0x198ea4ccb
# PASS [62] A=0xe8713201 B=0x9b931912 Cin=1 => {Cout,Sum}=0x184044b14
# PASS [63] A=0xe80cad02 B=0x884098d5 Cin=1 => {Cout,Sum}=0x1704d45d8
# PASS [64] A=0xf0f28e7a B=0x11cc5423 Cin=1 => {Cout,Sum}=0x102bee29e
# PASS [65] A=0x5f0a6e91 B=0x86a98116 Cin=1 => {Cout,Sum}=0x0e5b3efa8
# PASS [66] A=0x8ccd86fd B=0xb852c3d7 Cin=0 => {Cout,Sum}=0x145204ad4
# PASS [67] A=0xec3a251b B=0xdb65aeea Cin=1 => {Cout,Sum}=0x1c79fd406
# PASS [68] A=0x84dfb9c6 B=0xd0644208 Cin=0 => {Cout,Sum}=0x15543fbce
# PASS [69] A=0x0fefd91a B=0xdbb16d01 Cin=1 => {Cout,Sum}=0x0eba1461c
# PASS [70] A=0x45dddf13 B=0x662fbac8 Cin=1 => {Cout,Sum}=0x0ac0d99dc
# PASS [71] A=0x011f39fc B=0xec7b8b91 Cin=0 => {Cout,Sum}=0x0ed9ac58d
