03_test/Questasim/tb_Question5.vcd
$date
	Fri Oct 24 23:35:50 2025
$end
$version
	Questa Intel Starter FPGA Edition Version 2024.3
$end
$timescale
	1ps
$end

$scope module tb_Question5 $end
$var reg 8 ! A [7:0] $end
$var reg 8 " B [7:0] $end
$var reg 1 # S1 $end
$var reg 1 $ S0 $end
$var reg 1 % Cin $end
$var reg 8 & F [7:0] $end
$var reg 1 ' Cout $end
$var integer 32 ( total_tests $end
$var integer 32 ) errors $end
$var integer 32 * test_count $end
$var integer 32 + test_pass $end
$var integer 32 , seed $end

$scope function ref_model $end
$upscope $end

$scope task apply_and_check $end
$upscope $end

$scope task run_test $end
$upscope $end

$scope module dut $end
$var reg 8 - F [7:0] $end
$var reg 1 . Cout $end
$var reg 8 / B_comp [7:0] $end
$var reg 1 0 sel_op1 $end
$var reg 8 1 Op1 [7:0] $end
$var reg 8 2 Op2 [7:0] $end

$scope begin OP1_MUX[7] $end
$upscope $end

$scope begin OP1_MUX[6] $end
$upscope $end

$scope begin OP1_MUX[5] $end
$upscope $end

$scope begin OP1_MUX[4] $end
$upscope $end

$scope begin OP1_MUX[3] $end
$upscope $end

$scope begin OP1_MUX[2] $end
$upscope $end

$scope begin OP1_MUX[1] $end
$upscope $end

$scope begin OP1_MUX[0] $end
$upscope $end

$scope module u_adder $end
$var reg 8 3 Sum [7:0] $end
$var reg 1 4 Cout $end
$var reg 2 5 Gblk [1:0] $end
$var reg 2 6 Pblk [1:0] $end
$var reg 3 7 Cblk [2:0] $end

$scope begin BLK[1] $end

$scope module u4 $end
$var reg 1 8 cout $end
$var reg 1 9 Pblk $end
$var reg 1 : Gblk $end
$var reg 4 ; sum [3:0] $end
$var reg 4 < g [3:0] $end
$var reg 4 = p [3:0] $end
$var reg 1 > c1 $end
$var reg 1 ? c2 $end
$var reg 1 @ c3 $end
$upscope $end
$upscope $end

$scope begin BLK[0] $end

$scope module u4 $end
$var reg 1 A cout $end
$var reg 1 B Pblk $end
$var reg 1 C Gblk $end
$var reg 4 D sum [3:0] $end
$var reg 4 E g [3:0] $end
$var reg 4 F p [3:0] $end
$var reg 1 G c1 $end
$var reg 1 H c2 $end
$var reg 1 I c3 $end
$upscope $end
$upscope $end
$upscope $end
$upscope $end
$upscope $end
$enddefinitions $end
#0
$dumpvars
b0 !
b0 "
0#
0$
0%
b0 &
0'
b0 -
0.
b11111111 /
00
b0 1
b0 2
b0 3
04
b0 5
b0 6
b0 7
0A
0B
0C
b0 D
b0 E
b0 F
0G
0H
0I
08
09
0:
b0 ;
b0 <
b0 =
0>
0?
0@
b0 (
b0 )
b0 *
b0 +
b0 ,
$end
#1000
b1 (
b1 *
b1 +
1%
b1 7
b1 D
b1 3
b1 -
b1 &
#2000
b10 (
b10 *
b10 +
1$
0%
b0 7
b0 D
b0 3
b0 -
b0 &
#3000
b11 (
b11 *
b11 +
1%
b1 7
b1 D
b1 3
b1 -
b1 &
#4000
b100 (
b100 *
b100 +
1#
0$
0%
b0 7
10
b0 D
b1 1
b11 1
b111 1
b1111 1
b11111 1
b111111 1
b1111111 1
b11111111 1
b1111 F
b1111 =
b0 3
b0 -
19
b1000 ;
b1100 ;
b1110 ;
b1111 ;
1B
b1000 D
b1100 D
b1110 D
b1111 D
b1111 3
b1 6
b11111111 3
b11 6
b0 &
b11111111 -
b11111111 &
#5000
b101 (
b101 *
b101 +
1%
b1 7
1G
1H
1I
1A
b1110 D
b11 7
1>
1?
1@
18
b1110 ;
b111 7
14
b11101111 3
b110 ;
b10 ;
b0 ;
b11101110 3
b110 D
b10 D
b0 D
b11100000 3
b0 3
b0 -
1.
1'
b0 &
#6000
b110 (
b110 *
b110 +
1$
0%
b110 7
00
0G
0H
0I
0A
b1 D
b100 7
0>
0?
0@
08
b1 ;
b0 7
b11111110 1
b11111100 1
b11111000 1
b11110000 1
b11100000 1
b11000000 1
b10000000 1
b0 1
b0 F
b0 =
04
b10000 3
b10001 3
b10001 -
0.
09
b0 ;
0B
b0 D
b10000 3
b10 6
b0 3
b0 6
0'
b10001 &
b0 -
b0 &
b11111111 2
b1111 F
b1111 =
19
b1000 ;
b1100 ;
b1110 ;
b1111 ;
1B
b1000 D
b1100 D
b1110 D
b1111 D
b1111 3
b1 6
b11111111 3
b11 6
b11111111 -
b11111111 &
#7000
b111 (
b111 *
b111 +
1%
b1 7
1G
1H
1I
1A
b1110 D
b11 7
1>
1?
1@
18
b1110 ;
b111 7
14
b11101111 3
b110 ;
b10 ;
b0 ;
b11101110 3
b110 D
b10 D
b0 D
b11100000 3
b0 3
b0 -
1.
1'
b0 &
#8000
b1000 (
b1000 *
b1000 +
b11111111 !
b11111111 "
0#
0$
0%
b110 7
b0 /
b10000000 1
b11000000 1
b11100000 1
b11110000 1
b11111000 1
b11111100 1
b11111110 1
b11111111 1
0G
0H
0I
0A
b1 D
b100 7
0>
0?
0@
08
b1 ;
b0 7
b1111 E
b0 F
b1111 <
b0 =
09
b0 ;
1?
1@
18
1:
1>
0B
b0 D
1H
1I
1A
1C
1G
04
b1000 ;
b1100 ;
b1110 ;
b1000 D
b1100 D
b1110 D
b1110 3
b11101110 3
0.
b1 5
b10 6
b11 5
b0 6
b10 7
b110 7
0'
b11101110 -
b1111 ;
b11101110 &
14
1.
b11111110 3
b11111110 -
1'
b11111110 &
#9000
b1001 (
b1001 *
b1001 +
1%
b111 7
b1111 D
b11111111 3
b11111111 -
b11111111 &
#10000
b1010 (
b1010 *
b1010 +
1$
0%
b110 7
b1110 D
b11111110 3
b11111110 -
b11111110 &
b0 2
b0 E
b1111 F
b0 <
b1111 =
19
b111 ;
b11 ;
b1 ;
b0 ;
0:
1B
b110 D
b10 D
b0 D
b1 D
0H
0I
0A
0C
0G
b11 D
b10 5
b1011 D
b1111 D
b11111111 3
b1 6
b0 5
b1111 3
b11 6
b1111 -
b100 7
b0 7
0>
0?
0@
08
b1 ;
04
b1111 &
0.
b11111 3
b1001 ;
b1101 ;
b1111 ;
b11111111 3
b11111111 -
0'
b11111111 &
#11000
b1011 (
b1011 *
b1011 +
1%
b1 7
1G
1H
1I
1A
b1110 D
b11 7
1>
1?
1@
18
b1110 ;
b111 7
14
b11101111 3
b110 ;
b10 ;
b0 ;
b11101110 3
b110 D
b10 D
b0 D
b11100000 3
b0 3
b0 -
1.
1'
b0 &
#12000
b1100 (
b1100 *
b1100 +
1#
0$
0%
b110 7
10
0G
0H
0I
0A
b1 D
b100 7
0>
0?
0@
08
b1 ;
b0 7
b11111110 1
b11111100 1
b11111000 1
b11110000 1
b11100000 1
b11000000 1
b10000000 1
b0 1
b0 F
b0 =
04
b10000 3
b10001 3
b10001 -
0.
09
b0 ;
0B
b0 D
b10000 3
b10 6
b0 3
b0 6
0'
b10001 &
b0 -
b0 &
#13000
b1101 (
b1101 *
b1101 +
1%
b1 7
b1 D
b1 3
b1 -
b1 &
#14000
b1110 (
b1110 *
b1110 +
1$
0%
b0 7
00
b0 D
b1 1
b11 1
b111 1
b1111 1
b11111 1
b111111 1
b1111111 1
b11111111 1
b1111 F
b1111 =
b0 3
b0 -
19
b1000 ;
b1100 ;
b1110 ;
b1111 ;
1B
b1000 D
b1100 D
b1110 D
b1111 D
b1111 3
b1 6
b11111111 3
b11 6
b0 &
b11111111 -
b11111111 &
#15000
b1111 (
b1111 *
b1111 +
1%
b1 7
1G
1H
1I
1A
b1110 D
b11 7
1>
1?
1@
18
b1110 ;
b111 7
14
b11101111 3
b110 ;
b10 ;
b0 ;
b11101110 3
b110 D
b10 D
b0 D
b11100000 3
b0 3
b0 -
1.
1'
b0 &
#16000
b10000 (
b10000 *
b10000 +
b1 "
0#
0$
0%
b110 7
b11111110 /
0G
0H
0I
0A
b1 D
b100 7
0>
0?
0@
08
b1 ;
b0 7
04
b10000 3
b1001 ;
b1101 ;
b1111 ;
b10001 3
b1001 D
b1101 D
b1111 D
b11111 3
b11111111 3
b11111111 -
0.
0'
b11111111 &
b1 2
b1 E
b1110 F
0B
b1110 D
1H
1I
1A
1C
1G
b1100 D
b1 5
b100 D
b0 D
b11110000 3
b10 6
b11110000 -
b10 7
b110 7
1>
1?
1@
18
b1110 ;
14
b11110000 &
1.
b11100000 3
b110 ;
b10 ;
b0 ;
b0 3
b0 -
1'
b0 &
#17000
b10001 (
b10001 *
b10001 +
1%
b111 7
b1 D
b1 3
b1 -
b1 &
#18000
b10010 (
b10010 *
b10010 +
1$
0%
b110 7
b0 D
b0 3
b0 -
b0 &
b0 2
b0 E
b1111 F
1B
b1 D
0H
0I
0A
0C
0G
b11 D
b0 5
b1011 D
b1111 D
b1111 3
b11 6
b1111 -
b100 7
b0 7
0>
0?
0@
08
b1 ;
04
b1111 &
0.
b11111 3
b1001 ;
b1101 ;
b1111 ;
b11111111 3
b11111111 -
0'
b11111111 &
#19000
b10011 (
b10011 *
b10011 +
1%
b1 7
1G
1H
1I
1A
b1110 D
b11 7
1>
1?
1@
18
b1110 ;
b111 7
14
b11101111 3
b110 ;
b10 ;
b0 ;
b11101110 3
b110 D
b10 D
b0 D
b11100000 3
b0 3
b0 -
1.
1'
b0 &
#20000
b10100 (
b10100 *
b10100 +
1#
0$
0%
b110 7
10
0G
0H
0I
0A
b1 D
b100 7
0>
0?
0@
08
b1 ;
b0 7
b11111110 1
b1110 F
04
b10000 3
b1001 ;
b1101 ;
b1111 ;
b10001 3
b1001 D
b1101 D
b1111 D
b11111 3
b11111111 3
b11111111 -
0.
0B
b1110 D
b11111110 3
b10 6
0'
b11111111 &
b11111110 -
b11111110 &
#21000
b10101 (
b10101 *
b10101 +
1%
b1 7
b1111 D
b11111111 3
b11111111 -
b11111111 &
#22000
b10110 (
b10110 *
b10110 +
1$
0%
b0 7
00
b1110 D
b11111111 1
b1111 F
b11111110 3
b11111110 -
1B
b1111 D
b11111111 3
b11 6
b11111110 &
b11111111 -
b11111111 &
b11111110 2
b1110 E
b1 F
b1111 <
b0 =
09
b111 ;
b11 ;
b1 ;
b0 ;
1?
1@
18
1:
1>
0B
b111 D
b11 D
b1 D
1H
1I
1A
1C
b1 5
b1001 D
b1101 D
b11111101 3
b10 6
b10 ;
b11 5
b1010 ;
b1110 ;
b11101101 3
b0 6
b11101101 -
b10 7
b110 7
b1111 ;
14
b11101101 &
1.
b11111101 3
b11111101 -
1'
b11111101 &
#23000
b10111 (
b10111 *
b10111 +
1%
b111 7
1G
b1100 D
b11111100 3
b1110 D
b11111110 3
b11111110 -
b11111110 &
#24000
b11000 (
b11000 *
b11000 +
b10000000 !
b10000000 "
0#
0$
0%
b110 7
b1111111 /
b10111111 1
b10011111 1
b10001111 1
b10000111 1
b10000011 1
b10000001 1
b10000000 1
0G
b1111 D
b0 E
b1110 F
b1000 <
b111 =
b1011 ;
b1001 ;
b1000 ;
b111 D
b11 D
b10 D
0H
0I
0A
0C
b11110010 3
b11110010 -
b10 5
b1010 D
b1110 D
b10000010 3
b10000010 -
b10001110 3
b100 7
b10000010 &
0>
0?
0@
b1001 ;
b10001110 -
b10001110 &
b10011110 3
b1 ;
b101 ;
b111 ;
b1111110 3
b1111110 -
b1111110 &
b10000000 2
b0 F
b0 =
b11 ;
b1 ;
b0 ;
b110 D
b10 D
b0 D
b1110000 3
b0 3
b0 -
b0 &
#25000
b11001 (
b11001 *
b11001 +
1%
b101 7
b1 D
b1 3
b1 -
b1 &
#26000
b11010 (
b11010 *
b11010 +
1$
0%
b100 7
b0 D
b0 3
b0 -
b0 &
b0 2
b0 <
b1000 =
b1000 ;
08
0:
b0 5
b10000000 3
b10000000 -
b0 7
04
b10000000 &
0.
0'
#27000
b11011 (
b11011 *
b11011 +
1%
b1 7
b1 D
b10000001 3
b10000001 -
b10000001 &
#28000
b11100 (
b11100 *
b11100 +
1#
0$
0%
b0 7
10
b0 D
b10000001 1
b10000011 1
b10000111 1
b10001111 1
b10011111 1
b10111111 1
b11111111 1
b1111111 1
b1111 F
b111 =
b10000000 3
b10000000 -
b0 ;
b100 ;
b110 ;
b111 ;
1B
b1000 D
b1100 D
b1110 D
b1111 D
b10001111 3
b1 6
b1111111 3
b10000000 &
b1111111 -
b1111111 &
#29000
b11101 (
b11101 *
b11101 +
1%
b1 7
1G
1H
1I
1A
b1110 D
b11 7
1>
1?
1@
b110 ;
b1101111 3
b1110 ;
b1010 ;
b1000 ;
b1101110 3
b110 D
b10 D
b0 D
b1100000 3
b10000000 3
b10000000 -
b10000000 &
#30000
b11110 (
b11110 *
b11110 +
1$
0%
b10 7
00
0G
0H
0I
0A
b1 D
b0 7
0>
0?
0@
b1001 ;
b1111110 1
b1111100 1
b1111000 1
b1110000 1
b1100000 1
b1000000 1
b0 1
b10000000 1
b0 F
b1000 =
b10010000 3
b10010001 3
b10010001 -
b1000 ;
0B
b0 D
b10010000 3
b0 6
b10000000 3
b10010001 &
b10000000 -
b10000000 &
b1111111 2
b1111 F
b1111 =
19
b1100 ;
b1110 ;
b1111 ;
1B
b1000 D
b1100 D
b1110 D
b1111 D
b10001111 3
b1 6
b11111111 3
b11 6
b11111111 -
b11111111 &
#31000
b11111 (
b11111 *
b11111 +
1%
b1 7
1G
1H
1I
1A
b1110 D
b11 7
1>
1?
1@
18
b1110 ;
b111 7
14
b11101111 3
b110 ;
b10 ;
b0 ;
b11101110 3
b110 D
b10 D
b0 D
b11100000 3
b0 3
b0 -
1.
1'
b0 &
#32000
b100000 (
b100000 *
b100000 +
b10101010 !
b1010101 "
0#
0$
0%
b110 7
b10101010 /
b10100000 1
b10101000 1
b10101010 1
0G
0H
0I
0A
b1 D
b100 7
0>
0?
0@
08
b1 ;
b0 7
b1010 E
b101 F
b10 <
b1101 =
09
1?
1@
18
1:
0B
1H
1I
1A
1C
04
b10000 3
b10001 3
b1001 D
b11001 3
b11001 -
0.
b1 5
b10 6
b11 5
b0 6
b10 7
b110 7
0'
b11001 &
1>
b0 ;
14
1.
b1001 3
b10 ;
b101001 3
b101001 -
1'
b101001 &
b1010101 2
b0 E
b1111 F
b0 <
b1111 =
19
b0 ;
0:
1B
b1 D
b11 D
0H
0I
0A
0C
b10 5
b1011 D
b1111 D
b101111 3
b1 6
b0 5
b1111 3
b11 6
b1111 -
b100 7
b0 7
0>
0?
0@
08
b1 ;
04
b1111 &
0.
b11111 3
b1001 ;
b1101 ;
b1111 ;
b11111111 3
b11111111 -
0'
b11111111 &
#33000
b100001 (
b100001 *
b100001 +
1%
b1 7
1G
1H
1I
1A
b1110 D
b11 7
1>
1?
1@
18
b1110 ;
b111 7
14
b11101111 3
b110 ;
b10 ;
b0 ;
b11101110 3
b110 D
b10 D
b0 D
b11100000 3
b0 3
b0 -
1.
1'
b0 &
#34000
b100010 (
b100010 *
b100010 +
1$
0%
b110 7
0G
0H
0I
0A
b1 D
b100 7
0>
0?
0@
08
b1 ;
b0 7
04
b10000 3
b1001 ;
b1101 ;
b1111 ;
b10001 3
b1001 D
b1101 D
b1111 D
b11111 3
b11111111 3
b11111111 -
0.
0'
b11111111 &
b0 2
b1010 F
b1010 =
09
b1011 ;
b1010 ;
0B
b1011 D
b1010 D
b11111010 3
b10 6
b10101010 3
b0 6
b10101010 -
b10101010 &
#35000
b100011 (
b100011 *
b100011 +
1%
b1 7
b1011 D
b10101011 3
b10101011 -
b10101011 &
#36000
b100100 (
b100100 *
b100100 +
1#
0$
0%
b0 7
10
b1010 D
b10101010 3
b10101010 -
b10101010 &
#37000
b100101 (
b100101 *
b100101 +
1%
b1 7
b1011 D
b10101011 3
b10101011 -
b10101011 &
#38000
b100110 (
b100110 *
b100110 +
1$
0%
b0 7
00
b1010 D
b10101010 3
b10101010 -
b10101010 &
b10101010 2
b1010 E
b0 F
b1010 <
b0 =
b10 ;
b0 ;
1?
18
1:
b10 D
b0 D
1H
1A
1C
b1 5
b100 D
b10100100 3
b11 5
b100 ;
b1000100 3
b1000100 -
b10 7
b110 7
b101 ;
14
b1000100 &
1.
b1010100 3
b1010100 -
1'
b1010100 &
#39000
b100111 (
b100111 *
b100111 +
1%
b111 7
b101 D
b1010101 3
b1010101 -
b1010101 &
#40000
b101000 (
b101000 *
b101000 +
b1010101 !
b10101010 "
0#
0$
0%
b110 7
b1010101 /
b101010 1
b1101010 1
b1001010 1
b1011010 1
b1010010 1
b1010110 1
b1010100 1
b1010101 1
b100 D
b0 E
b1111 F
b0 <
b1111 =
19
b1101 ;
b1001 ;
b1011 ;
1>
b1010 ;
1@
0:
1B
b1100 D
b1000 D
b1010 D
b1011 D
0H
0A
0C
b1011011 3
b1011011 -
b10 5
b1111 D
b1 6
b0 5
b10 ;
b0 ;
b1011 3
b11 6
b1011 -
b1111 3
b100 7
b0 7
b1011 &
0>
0?
0@
08
b1 ;
04
b1111 -
b1111 &
0.
b11111 3
b1001 ;
b1101 ;
b1111 ;
b11111111 3
b11111111 -
0'
b11111111 &
#41000
b101001 (
b101001 *
b101001 +
1%
b1 7
1G
1H
1I
1A
b1110 D
b11 7
1>
1?
1@
18
b1110 ;
b111 7
14
b11101111 3
b110 ;
b10 ;
b0 ;
b11101110 3
b110 D
b10 D
b0 D
b11100000 3
b0 3
b0 -
1.
1'
b0 &
#42000
b101010 (
b101010 *
b101010 +
1$
0%
b110 7
0G
0H
0I
0A
b1 D
b100 7
0>
0?
0@
08
b1 ;
b0 7
04
b10000 3
b1001 ;
b1101 ;
b1111 ;
b10001 3
b1001 D
b1101 D
b1111 D
b11111 3
b11111111 3
b11111111 -
0.
0'
b11111111 &
b0 2
b101 F
b101 =
09
b111 ;
b101 ;
0B
b111 D
b101 D
b11110101 3
b10 6
b1010101 3
b0 6
b1010101 -
b1010101 &
#43000
b101011 (
b101011 *
b101011 +
1%
b1 7
1G
b100 D
b1010100 3
b110 D
b1010110 3
b1010110 -
b1010110 &
#44000
b101100 (
b101100 *
b101100 +
1#
0$
0%
b0 7
10
0G
b111 D
b1010111 3
b101 D
b1010101 3
b1010101 -
b1010101 &
#45000
b101101 (
b101101 *
b101101 +
1%
b1 7
1G
b100 D
b1010100 3
b110 D
b1010110 3
b1010110 -
b1010110 &
#46000
b101110 (
b101110 *
b101110 +
1$
0%
b0 7
00
0G
b111 D
b1010111 3
b101 D
b1010101 3
b1010101 -
b1010101 &
b1010101 2
b101 E
b0 F
b101 <
b0 =
b1 ;
b0 ;
1@
1>
b1 D
b0 D
1I
1G
b10 D
b1010 D
b1011010 3
b10 ;
b1010 ;
b10101010 3
b10101010 -
b10101010 &
#47000
b101111 (
b101111 *
b101111 +
1%
b1 7
b1011 D
b10101011 3
b10101011 -
b10101011 &
#48000
b110000 (
b110000 *
b110000 +
b1111 !
b11110000 "
0#
0$
0%
b0 7
b1111 /
b10101 1
b101 1
b1101 1
b1111 1
b1010 D
b1010 F
b0 <
b101 =
b1110 ;
b1111 ;
0@
0>
1H
1A
1C
b10 D
b0 D
b10100000 3
b10100000 -
b1 5
b100 D
b1101 ;
b101 ;
b1010000 3
b1010000 -
b1010100 3
b10 7
b1010000 &
1>
b100 ;
b1010100 -
b1010100 &
b1000100 3
b110 ;
b1100100 3
b1100100 -
b1100100 &
b11110000 2
b0 E
b1111 F
b1111 =
1?
1@
18
19
b100 ;
1B
b0 D
b1 D
0H
0I
0A
0C
0G
b11 D
b0 5
b1011 D
b1111 D
b1101111 3
b1 6
b1001111 3
b11 6
b0 ;
b1111 3
b1111 -
b0 7
0>
0?
0@
08
b1 ;
b1111 &
b11111 3
b1001 ;
b1101 ;
b1111 ;
b11111111 3
b11111111 -
b11111111 &
#49000
b110001 (
b110001 *
b110001 +
1%
b1 7
1G
1H
1I
1A
b1110 D
b11 7
1>
1?
1@
18
b1110 ;
b111 7
14
b11101111 3
b110 ;
b10 ;
b0 ;
b11101110 3
b110 D
b10 D
b0 D
b11100000 3
b0 3
b0 -
1.
1'
b0 &
#50000
b110010 (
b110010 *
b110010 +
1$
0%
b110 7
0G
0H
0I
0A
b1 D
b100 7
0>
0?
0@
08
b1 ;
b0 7
04
b10000 3
b1001 ;
b1101 ;
b1111 ;
b10001 3
b1001 D
b1101 D
b1111 D
b11111 3
b11111111 3
b11111111 -
0.
0'
b11111111 &
b0 2
b0 =
09
b111 ;
b11 ;
b1 ;
b0 ;
b1111 3
b1 6
b1111 -
b1111 &
#51000
b110011 (
b110011 *
b110011 +
1%
b1 7
1G
1H
1I
1A
b1110 D
b11 7
b1 ;
b11111 3
b11110 3
b110 D
b10 D
b0 D
b10000 3
b10000 -
b10000 &
#52000
b110100 (
b110100 *
b110100 +
1#
0$
0%
b10 7
10
0G
0H
0I
0A
b1 D
b0 7
b0 ;
b0 3
b1 3
b1001 D
b1101 D
b1111 D
b1111 3
b1111 -
b1111 &
#53000
b110101 (
b110101 *
b110101 +
1%
b1 7
1G
1H
1I
1A
b1110 D
b11 7
b1 ;
b11111 3
b11110 3
b110 D
b10 D
b0 D
b10000 3
b10000 -
b10000 &
#54000
b110110 (
b110110 *
b110110 +
1$
0%
b10 7
00
0G
0H
0I
0A
b1 D
b0 7
b0 ;
b0 3
b1 3
b1001 D
b1101 D
b1111 D
b1111 3
b1111 -
b1111 &
b1111 2
b1111 E
b0 F
0B
b111 D
b11 D
b1 D
b0 D
1H
1I
1A
1C
1G
b10 D
b1 5
b1010 D
b1110 D
b1110 3
b0 6
b1110 -
b10 7
b1 ;
b1110 &
b11110 3
b11110 -
b11110 &
#55000
b110111 (
b110111 *
b110111 +
1%
b11 7
b1111 D
b11111 3
b11111 -
b11111 &
#56000
b111000 (
b111000 *
b111000 +
b0 !
b0 "
0#
0$
0%
b10 7
b11111111 /
b111 1
b11 1
b1 1
b0 1
b1110 D
b0 E
b1111 F
1B
b110 D
b10 D
b0 D
b1 D
0H
0I
0A
0C
0G
b10001 3
b10001 -
b11 D
b0 5
b1011 D
b1111 D
b1 6
b0 7
b11111 3
b10001 &
b0 ;
b11111 -
b11111 &
b1111 3
b1111 -
b1111 &
b0 2
b0 F
0B
b111 D
b11 D
b1 D
b0 D
b0 3
b0 6
b0 -
b0 &
#57000
b111001 (
b111001 *
b111001 +
b11001010111111101011101010111110 ,
b111 !
b1011011 "
1#
1$
1%
b1 7
b10100100 /
b100 1
b110 1
b111 1
b1 D
b111 F
1H
1I
b11 D
1G
b10 D
b10 3
b10 -
b0 D
b1000 D
b1000 3
b10 &
b1000 -
b1000 &
b10100100 2
b100 E
b11 F
b1010 =
b1000 ;
b1010 ;
b1100 D
b1100 3
b10101100 3
b10101100 -
b10101100 &
#59000
b111010 (
b111010 *
b111010 +
b11001010111111101110101011110111 ,
b1000110 !
b1100011 "
0#
0$
b10011100 /
b1000111 1
b1000110 1
b10 F
b1110 =
b1110 ;
0H
0G
b1101 D
b10101101 3
b1111 D
b1011 D
b11101101 3
b11101011 3
b11101011 -
b11101011 &
b1100011 2
b10 E
b101 F
b100 <
b10 =
b110 ;
b10 ;
1@
b1111 D
b1101 D
1G
b1100 D
1H
b1000 D
b1010 D
b11101010 3
b1010 ;
b10101010 3
b10101010 -
b10101010 &
#61000
b111011 (
b111011 *
b111011 +
b11001010111111110001101100110000 ,
b111 !
b10100000 "
0%
b0 7
b1011111 /
b110 1
b111 1
0G
b1011 D
b11 E
b100 F
b0 <
b110 =
b1110 ;
0@
b1010 D
1G
b110 ;
b1101010 3
b1101010 -
b1101010 &
b10100000 2
b0 E
b111 F
b1010 =
b1110 ;
b1010 ;
b1000 D
b1001 D
0H
0I
0G
b1011 D
b11 D
b111 D
b1100111 3
b10100111 3
b10100111 -
b10100111 &
#63000
b111100 (
b111100 *
b111100 +
b11001010111111110100101101101001 ,
b11110010 !
b11111111 "
b0 /
b10000111 1
b11000111 1
b11100111 1
b11110111 1
b11110011 1
b11110010 1
b10 F
b1010 <
b101 =
b10 ;
b110 ;
b100 ;
b101 ;
1?
1@
18
1:
b11 D
b10 D
b10100010 3
b10 5
b1101 ;
b1001 ;
b10010010 3
b100 7
b10010010 -
b10010010 &
14
1.
1'
b11111111 2
b10 E
b1101 F
b1111 <
b0 =
b1101 ;
b1100 ;
1>
b1010 D
b1110 D
b1100 D
b1101 D
1H
1I
1A
1C
b11 5
b101 D
b1 D
b10010001 3
b1110 ;
b11100001 3
b11100001 -
b110 7
b1111 ;
b11100001 &
b11110001 3
b11110001 -
b11110001 &
#65000
b111101 (
b111101 *
b111101 +
b11001010111111110111101110100010 ,
b11010011 !
b110000 "
1#
1$
b11001111 /
b11010010 1
b11010011 1
b11 E
b1100 F
b1101 <
b10 =
b1101 ;
b0 D
1G
b10 D
b11110010 3
b11010010 3
b11010010 -
b11010010 &
b11001111 2
b1100 <
b1 =
b1111 ;
b1110 ;
0?
b1010 ;
b10100010 3
b10100010 -
b10100010 &
#67000
b111110 (
b111110 *
b111110 +
b11001010111111111010101111011011 ,
b10110000 !
b100100 "
0#
0$
1%
b111 7
b11011011 /
b10010011 1
b10110011 1
b10110001 1
b10110000 1
b11 D
b0 E
b1111 F
b1000 <
b111 =
b1110 ;
b1100 ;
1?
1B
b1 D
b0 D
0C
b10100000 3
b10100000 -
b10 5
b1 6
b1000 ;
b10000000 3
b10000000 -
b10000000 &
b100100 2
b100 F
b10 <
b1001 =
b0 ;
b100 ;
b110 ;
0@
08
0:
0H
0I
0A
0B
b10 D
0G
b11 D
b1 D
b10000001 3
b0 6
b101 D
b0 5
b1110 ;
b11100001 3
b11100101 3
b101 7
b1 7
b11100101 -
0>
b1111 ;
b11100101 &
04
0.
b11110101 3
b1101 ;
b11010101 3
b11010101 -
0'
b11010101 &
#69000
b111111 (
b111111 *
b111111 +
b11001010111111111101110000010100 ,
b1101010 !
b10000010 "
1#
10
b1111101 /
b110000 1
b1110000 1
b1111000 1
b1100 F
b101 =
b1111001 1
b1111101 1
b100 E
b1001 F
1@
b1001 ;
1I
1A
1C
b1 5
b10010101 3
b1 D
1G
b0 D
b10 D
b10010010 3
b10010010 -
b11 7
1>
b1000 ;
b10010010 &
b10000010 3
b1010 ;
b10100010 3
b10100010 -
b10100010 &
b0 2
b0 E
b1101 F
b0 <
b111 =
b1000 ;
b110 D
0I
0A
0C
b0 5
b1110 D
b10101110 3
b10001110 3
b10001110 -
b1 7
0>
0?
0@
b1001 ;
b10001110 &
b10011110 3
b1 ;
b101 ;
b111 ;
b1111110 3
b1111110 -
b1111110 &
#71000
b1000000 (
b1000000 *
b1000000 +
b11001011000000000000110001001101 ,
b1001000 !
b11011110 "
1$
0%
b0 7
00
b100001 /
b1011101 1
0G
b1111 D
b101 =
b1011100 1
b1011000 1
b1001000 1
b1000 F
b100 =
b101 ;
b1111111 3
b1101 D
b1111101 3
b1111101 -
b1011101 3
b100 ;
b1001 D
b1000 D
b1011000 3
b1001000 3
b1001000 -
b1001000 &
b100001 2
b1001 F
b110 =
b110 ;
b1001 D
b1001001 3
b1101001 3
b1101001 -
b1101001 &
#73000
b1000001 (
b1000001 *
b1000001 +
b11001011000000000011110010000110 ,
b1001011 !
b10101011 "
0#
0$
1%
b1 7
b1010100 /
b1001010 1
b1001011 1
1G
b1000 D
b1 E
b1010 F
b1001 D
1H
b1101 D
b1101101 3
b1101101 -
b1101101 &
b10101011 2
b1011 E
b0 F
b1110 =
b1110 ;
b101 D
b111 D
1A
1C
b1 5
b1100111 3
b11100111 3
b11100111 -
b11 7
b1111 ;
b11100111 &
b11110111 3
b11110111 -
b11110111 &
#75000
b1000010 (
b1000010 *
b1000010 +
b11001011000000000110110010111111 ,
b10100100 !
b10000001 "
b1111110 /
b11001011 1
b10001011 1
b10101011 1
b10100011 1
b10100111 1
b10100101 1
b10100100 1
b0 E
b1111 F
b1010 <
b0 =
b111 ;
b11 ;
b1 ;
1?
18
1:
1B
b1111 D
b1011 D
b1001 D
b1000 D
1I
0C
b0 5
b0 D
b11110000 3
b1 6
b10 5
b101 ;
b1010000 3
b1010000 -
b111 7
14
b1010000 &
1.
1'
b10000001 2
b101 F
b1000 <
b10 =
b111 ;
0?
0H
0I
0A
0B
b10 D
b1010010 3
b0 6
b110 D
b11 ;
b110010 3
b110110 3
b101 7
b110110 -
b10 ;
b110110 &
b100110 3
b100110 -
b100110 &
#77000
b1000011 (
b1000011 *
b1000011 +
b11001011000000001001110011111000 ,
b10010110 !
b100001 "
0%
b100 7
b11011110 /
b10000100 1
b10010100 1
b10010110 1
0G
b111 D
b111 F
b1 =
b0 ;
b1 ;
b100111 3
b100111 -
b10111 3
b10111 -
b10111 &
b100001 2
b0 <
b1011 =
b1001 ;
b1011 ;
08
0:
b0 5
b10110111 3
b10110111 -
b0 7
04
b10110111 &
0.
0'
#79000
b1000100 (
b1000100 *
b1000100 +
b11001011000000001100110100110001 ,
b10111 !
b11011100 "
1$
1%
b1 7
b100011 /
b10110 1
b10111 1
1G
1H
1I
b110 D
b1 E
b110 F
b11 =
b11 ;
b111 D
b1111 D
b1011 D
b1001 D
b10111001 3
b111001 3
b111001 -
b111001 &
b0 2
b0 E
b111 F
b1 =
b1 ;
b1000 D
b111000 3
b11000 3
b11000 -
b11000 &
#81000
b1000101 (
b1000101 *
b1000101 +
b11001011000000001111110101101010 ,
b11111110 !
b11101100 "
0$
b10011 /
b10010111 1
b11010111 1
b11110111 1
b11111111 1
b11111110 1
b1110 F
b1111 =
19
b1001 ;
b1101 ;
b1111 ;
0H
0I
0G
b1001 D
b11001 3
b1011 D
b1111 D
b11111001 3
b10 6
b11111111 3
b11111111 -
b11111111 &
b11101100 2
b1100 E
b10 F
b1110 <
b1 =
09
b111 ;
b11 ;
b1 ;
1?
1@
18
1:
b111 D
b11 D
1I
1A
1C
b1 5
b1011 D
b11111011 3
b11 5
b1001 ;
b1101 ;
b11011011 3
b0 6
b11011011 -
b11 7
b111 7
1>
b1100 ;
14
b11011011 &
1.
b11001011 3
b1110 ;
b11101011 3
b11101011 -
1'
b11101011 &
