03_test/Question5/tb_Question3.vcd
$date
	Fri Oct 24 23:32:33 2025
$end
$version
	Questa Intel Starter FPGA Edition Version 2024.3
$end
$timescale
	1ps
$end

$scope module tb_Question3 $end
$var reg 1 ! clk $end
$var reg 1 " rst_n $end
$var reg 32 # A_tb [31:0] $end
$var reg 32 $ B_tb [31:0] $end
$var reg 1 % Cin_tb $end
$var reg 32 & Sum_tb [31:0] $end
$var reg 1 ' Cout_tb $end
$var integer 32 ( pass_count $end
$var integer 32 ) fail_count $end

$scope task run_test $end
$var integer 32 * idx $end
$var reg 32 + tv_a [31:0] $end
$var reg 32 , tv_b [31:0] $end
$var reg 1 - tv_cin $end
$var reg 33 . expected [32:0] $end
$var reg 33 / got [32:0] $end
$upscope $end

$scope module DUT $end
$var reg 32 0 Sum [31:0] $end
$var reg 1 1 Cout $end
$var reg 32 2 A_r [31:0] $end
$var reg 32 3 B_r [31:0] $end
$var reg 1 4 Cin_r $end
$var reg 8 5 Pblk [7:0] $end
$var reg 8 6 Gblk [7:0] $end
$var reg 9 7 Cblk [8:0] $end
$var reg 32 8 Sum_c [31:0] $end
$var reg 1 9 Cout_c $end

$scope begin BLK[7] $end

$scope module u4 $end
$var reg 1 : Gblk $end
$var reg 1 ; Pblk $end
$var reg 4 < S [3:0] $end
$var reg 1 = Cout $end
$var reg 4 > p [3:0] $end
$var reg 4 ? g [3:0] $end
$var reg 1 @ c1 $end
$var reg 1 A c2 $end
$var reg 1 B c3 $end
$var reg 1 C and4 $end
$var reg 1 D or3 $end
$upscope $end
$upscope $end

$scope begin BLK[6] $end

$scope module u4 $end
$var reg 1 E Gblk $end
$var reg 1 F Pblk $end
$var reg 4 G S [3:0] $end
$var reg 1 H Cout $end
$var reg 4 I p [3:0] $end
$var reg 4 J g [3:0] $end
$var reg 1 K c1 $end
$var reg 1 L c2 $end
$var reg 1 M c3 $end
$var reg 1 N and4 $end
$var reg 1 O or3 $end
$upscope $end
$upscope $end

$scope begin BLK[5] $end

$scope module u4 $end
$var reg 1 P Gblk $end
$var reg 1 Q Pblk $end
$var reg 4 R S [3:0] $end
$var reg 1 S Cout $end
$var reg 4 T p [3:0] $end
$var reg 4 U g [3:0] $end
$var reg 1 V c1 $end
$var reg 1 W c2 $end
$var reg 1 X c3 $end
$var reg 1 Y and4 $end
$var reg 1 Z or3 $end
$upscope $end
$upscope $end

$scope begin BLK[4] $end

$scope module u4 $end
$var reg 1 [ Gblk $end
$var reg 1 \ Pblk $end
$var reg 4 ] S [3:0] $end
$var reg 1 ^ Cout $end
$var reg 4 _ p [3:0] $end
$var reg 4 ` g [3:0] $end
$var reg 1 a c1 $end
$var reg 1 b c2 $end
$var reg 1 c c3 $end
$var reg 1 d and4 $end
$var reg 1 e or3 $end
$upscope $end
$upscope $end

$scope begin BLK[3] $end

$scope module u4 $end
$var reg 1 f Gblk $end
$var reg 1 g Pblk $end
$var reg 4 h S [3:0] $end
$var reg 1 i Cout $end
$var reg 4 j p [3:0] $end
$var reg 4 k g [3:0] $end
$var reg 1 l c1 $end
$var reg 1 m c2 $end
$var reg 1 n c3 $end
$var reg 1 o and4 $end
$var reg 1 p or3 $end
$upscope $end
$upscope $end

$scope begin BLK[2] $end

$scope module u4 $end
$var reg 1 q Gblk $end
$var reg 1 r Pblk $end
$var reg 4 s S [3:0] $end
$var reg 1 t Cout $end
$var reg 4 u p [3:0] $end
$var reg 4 v g [3:0] $end
$var reg 1 w c1 $end
$var reg 1 x c2 $end
$var reg 1 y c3 $end
$var reg 1 z and4 $end
$var reg 1 { or3 $end
$upscope $end
$upscope $end

$scope begin BLK[1] $end

$scope module u4 $end
$var reg 1 | Gblk $end
$var reg 1 } Pblk $end
$var reg 4 ~ S [3:0] $end
$var reg 1 !! Cout $end
$var reg 4 "! p [3:0] $end
$var reg 4 #! g [3:0] $end
$var reg 1 $! c1 $end
$var reg 1 %! c2 $end
$var reg 1 &! c3 $end
$var reg 1 '! and4 $end
$var reg 1 (! or3 $end
$upscope $end
$upscope $end

$scope begin BLK[0] $end

$scope module u4 $end
$var reg 1 )! Gblk $end
$var reg 1 *! Pblk $end
$var reg 4 +! S [3:0] $end
$var reg 1 ,! Cout $end
$var reg 4 -! p [3:0] $end
$var reg 4 .! g [3:0] $end
$var reg 1 /! c1 $end
$var reg 1 0! c2 $end
$var reg 1 1! c3 $end
$var reg 1 2! and4 $end
$var reg 1 3! or3 $end
$upscope $end
$upscope $end
$upscope $end
$upscope $end
$enddefinitions $end
#0
$dumpvars
0!
0"
b0 #
b0 $
0%
b0 &
0'
b0 0
01
b0 2
b0 3
04
b0 5
b0 6
b0 7
b0 8
09
0)!
0*!
b0 +!
0,!
b0 -!
b0 .!
0/!
00!
01!
02!
03!
0|
0}
b0 ~
0!!
b0 "!
b0 #!
0$!
0%!
0&!
0'!
0(!
0q
0r
b0 s
0t
b0 u
b0 v
0w
0x
0y
0z
0{
0f
0g
b0 h
0i
b0 j
b0 k
0l
0m
0n
0o
0p
0[
0\
b0 ]
0^
b0 _
b0 `
0a
0b
0c
0d
0e
0P
0Q
b0 R
0S
b0 T
b0 U
0V
0W
0X
0Y
0Z
0E
0F
b0 G
0H
b0 I
b0 J
0K
0L
0M
0N
0O
0:
0;
b0 <
0=
b0 >
b0 ?
0@
0A
0B
0C
0D
bx +
bx ,
x-
bx .
bx /
b0 (
b0 )
b0 *
$end
#5000
1!
#10000
0!
#15000
1!
#20000
1"
0!
#25000
1!
b101110000101101100011000000011 +
b110010101101100010010001100000 ,
0-
b101110000101101100011000000011 #
b110010101101100010010001100000 $
#30000
0!
#35000
1!
b101110000101101100011000000011 2
b110010101101100010010001100000 3
b110 "!
b1 >
b10 ?
b1100 I
b10 J
b1010 T
b1 U
b110 `
b1110 j
b10 u
b100 v
b11 -!
b10 +!
b11 +!
1y
b10 s
b1000 h
b1100 h
b1110 h
1b
1c
1V
1W
b1000 R
1L
1M
1O
1A
b1 <
b100 ~
b110 ~
b1100000 8
b10000000000000000000001100000 8
b101 <
1H
1E
b10000100000000000000001100000 8
b1100 R
b1000 ]
b1100 ]
b10000100000001110000001100000 8
b10000100000001110001001100000 8
b1010 s
b10000100000001110001001100011 8
b10000100000001110101001100011 8
b10000100011001110101001100011 8
b10000110011001110101001100011 8
b1000000 6
b1010000110011001110101001100011 8
b10000000 7
1@
b100 <
b1000000110011001110101001100011 8
b110 <
b1100000110011001110101001100011 8
#40000
0!
#45000
1!
b1100000110011001110101001100011 0
b1100000110011001110101001100011 &
#46000
b1100000110011001110101001100011 .
b1100000110011001110101001100011 /
b1 (
b1 *
b10000001001110001100000000111111 +
b1001000001001111000111011001 ,
1-
b10000001001110001100000000111111 #
b1001000001001111000111011001 $
1%
#50000
0!
#55000
1!
b10000001001110001100000000111111 2
b1001000001001111000111011001 3
14
b10000001 7
b11 j
b1100 k
b1000 >
b0 ?
b1000 I
b1 J
b11 T
b0 U
b1100 _
b0 `
b1 u
b0 v
b1110 "!
b1 #!
b110 -!
b1001 .!
1)!
b111 +!
1$!
1%!
1&!
1(!
0y
b1000 s
b1001 s
0b
0c
0W
b100 R
0V
b101 R
1K
0L
0M
0O
0A
b1110 <
0@
b1111 <
1i
1f
1n
b1010 h
b1011 h
1/!
10!
11!
1,!
b1111 +!
b1011 +!
b1001 +!
b1100000110011001011101001100011 8
b1001000 6
b1101 <
b11010000110011001011101001100011 8
b1001 <
0H
0E
b1000 G
b1010 G
b111 R
b11010000011111001011101001100011 8
b11 R
b11010000011111001011100101100011 8
b1 s
1!!
1|
b10 ~
b0 ~
b11010000011111001011100101101001 8
b1001001 6
b10000011 7
b11010000011111001011100100001001 8
b1001011 6
b11010000011111001011000100001001 8
b11010000001111001011000100001001 8
b11011010001111001011000100001001 8
b1011 6
b10011010001111001011000100001001 8
b10010011 7
b1101 ]
b10011 7
b1 ~
b10111 7
1w
b0 s
b10011010001111001011000100011001 8
b1000 <
b10011010001111011011000100011001 8
b10001010001111011011000100011001 8
b10001010001111011011000000011001 8
b10 s
b10001010001111011011001000011001 8
#60000
0!
#65000
1!
b10001010001111011011001000011001 0
b10001010001111011011001000011001 &
#66000
b10001010001111011011001000011001 .
b10001010001111011011001000011001 /
b10 (
b10 *
b1011110011001110001000001111 +
b1010001101101100111100111001010 ,
0-
b1011110011001110001000001111 #
b1010001101101100111100111001010 $
0%
#70000
0!
#75000
1!
b1011110011001110001000001111 2
b1010001101101100111100111001010 3
04
b10110 7
b101 -!
b1010 .!
b101 >
b1010 I
b111 T
b1000 U
b1010 _
b100 `
b1001 j
b110 k
b1011 u
b1100 "!
b0 #!
0$!
0%!
0&!
0(!
1x
b1010 s
b1000 s
0i
0f
1m
1p
b11 h
b1 h
1c
1e
b1001 ]
b1011 ]
1S
1P
b111 R
1L
b1000 G
b0 <
b100 <
b101 <
b1011 +!
0/!
b1001 +!
b1011010001111011011001000011001 8
b1011000001111011011001000011001 8
b1100 G
b1011000011111011011001000011001 8
b101011 6
b1011000011110111011001000011001 8
1^
1[
b11 ]
b1011000011110110001001000011001 8
1i
1f
b101 h
b1011000011110110001100000011001 8
b1100 s
0!!
0|
b1001 ~
b1101 ~
b1011000011110110001100011011001 8
b101001 6
b1011000011110110001110011011001 8
b1011000011110110101110011011001 8
b1011000011100110101110011011001 8
b111001 6
b1010110 7
b1011100011100110101110011011001 8
b1101 G
b1110110 7
b1110010 7
0w
0x
b1101 s
1V
1W
1X
b110 R
b1011101011100110101110011011001 8
b1011101011000110101110011011001 8
b1110 R
b1010 R
b1000 R
b1011101011000110101110111011001 8
b1001 s
b1011 s
b1011101011000110101101111011001 8
b1011101100000110101101111011001 8
#80000
0!
#85000
1!
b1011101100000110101101111011001 0
b1011101100000110101101111011001 &
#86000
b1011101100000110101101111011001 .
b1011101100000110101101111011001 /
b11 (
b11 *
b10111011100010100011111101110001 +
b1001111110000100000100010011011 ,
b10111011100010100011111101110001 #
b1001111110000100000100010011011 $
#90000
0!
#95000
1!
b10111011100010100011111101110001 2
b1001111110000100000100010011011 3
b100 I
b1011 J
b1111 >
b100 T
b1000 _
b10 `
b11 j
b0 k
b111 u
b1000 v
b1110 "!
b1 #!
b1010 -!
b1 .!
0,!
0)!
01!
b1101 +!
b1111 +!
1/!
b1110 +!
1$!
1%!
1&!
1(!
1t
1q
b11 s
b111 s
0m
0n
0p
b111 h
1b
0c
0e
b1 ]
0W
0X
b1010 R
0V
b1011 R
1C
b1101 <
b1111 <
1H
1E
1M
b1001 G
b1011 G
b1011011100000110101101111011001 8
b1111001 6
b11111011100000110101101111011001 8
1;
b1001 R
b11111011100100110101101111011001 8
b1 R
b101 R
b11111011100100010101101111011001 8
0^
0[
b1001 ]
b1101 ]
b11111011100100010111101111011001 8
0i
0f
b11 h
b11111011100100010111011111011001 8
b1111101 6
1!!
1|
b101 ~
b1 ~
b1100 +!
b11111011100100010111011111011100 8
b1111100 6
b1110000 7
b11111011100100010111011100011100 8
b1111110 6
b1111000 7
b11111011100100010011011100011100 8
b1110110 6
b11111011100111010011011100011100 8
b1100110 6
b11111011010111010011011100011100 8
b10000000 5
b11111000 7
1@
1A
1B
1=
b1110 <
b111111000 7
b111011000 7
1l
1m
b10 h
b111001000 7
b0 ~
b111001100 7
1w
1x
1y
b110 s
b11111011010111010011011100001100 8
b1100 ]
b11111011010111010010011100001100 8
b110 h
b100 h
b100 R
19
b11101011010111010010011100001100 8
b110 <
b10 <
b0 <
b1011010111010010011100001100 8
b1011010011010010011100001100 8
b1011010011010100011100001100 8
b1011010011000100011100001100 8
b1011010011000100011000001100 8
b1110 s
b1010 s
b1000 s
b1011010011000100100000001100 8
#100000
0!
#105000
1!
b1011010011000100100000001100 0
11
1'
b1011010011000100100000001100 &
#106000
b100001011010011000100100000001100 .
b100001011010011000100100000001100 /
b100 (
b100 *
b101001001110001001011000111000 +
b1010111111011010000110000110 ,
b101001001110001001011000111000 #
b1010111111011010000110000110 $
#110000
0!
#115000
1!
b101001001110001001011000111000 2
b1010111111011010000110000110 3
b10 >
b11 I
b1000 J
b1100 T
b11 U
b101 _
b1000 `
b1000 k
b0 v
b1011 "!
b0 #!
b1110 -!
b0 .!
0/!
00!
0%!
0&!
0(!
0$!
b1 ~
0t
0q
1i
1f
1^
1[
0b
b100 ]
b101 ]
0S
0P
1V
1W
1X
1Z
0M
b1111 G
b1101 G
b1100 G
0A
0B
0C
0@
b1 <
b11011010011000100100000001100 8
b11 <
0;
0=
b11100010011000100100000001100 8
b100 G
1S
1P
b0 R
b10 R
b11100010001010100100000001100 8
b1110110 6
b1111110 6
b1111010 6
b11100010001010100100000011100 8
b11 ~
0!!
0|
b1011 ~
b1110 +!
b11100010001010100100000011110 8
b1111000 6
b11100010001010100100010111110 8
b111000100 7
b111010100 7
b111110100 7
b11100001001010100100010111110 8
b10100001001010100100010111110 8
b0 5
b110100001001010100100010111110 8
b11110100 7
b11 R
1a
b100 ]
0l
0m
b101 h
b11110000 7
0w
0x
0y
b1001 s
b110100001001010101100010111110 8
b1 h
b11 h
b110100001001000101100010111110 8
b110 ]
b110100001101000101100010111110 8
09
b110100001101100101100010111110 8
b110100001101100011100010111110 8
b110100001101100011100110111110 8
b1 s
b101 s
b111 s
b110100001101100011011110111110 8
#120000
0!
#125000
1!
b110100001101100011011110111110 0
01
0'
b110100001101100011011110111110 &
#126000
b110100001101100011011110111110 .
b110100001101100011011110111110 /
b101 (
b101 *
b11110000010011001011111101011100 +
b10111000010011101100110111011111 ,
b11110000010011001011111101011100 #
b10111000010011101100110111011111 $
#130000
0!
#135000
1!
b11110000010011001011111101011100 2
b10111000010011101100110111011111 3
b100 >
b1011 ?
b1000 I
b0 J
b0 T
b100 U
b10 _
b1100 `
b111 j
b10 u
b1101 v
b1000 "!
b101 #!
b11 -!
b1100 .!
1,!
1)!
11!
b1010 +!
b1011 +!
1&!
1(!
b1001 ~
1$!
b1000 ~
1t
1q
1x
1y
1w
b110 s
b111 h
1c
b10 ]
b0 ]
0a
b1 ]
0V
0W
0Z
b1011 R
0H
0E
0L
b1100 G
b1110 G
0K
b1111 G
1=
1:
1@
1A
1B
b1011 <
b11111000 6
b1101 G
b111101001101100011011110111110 8
b1001 G
b10111000 6
b111101101101100011011110111110 8
0S
0P
b1001 R
b11 ]
b111101101100110011011110111110 8
b1011 ]
b111101101100110111011110111110 8
b111101101100110111011010111110 8
b100 s
b1100 s
b10111100 6
b1010 ~
b111101101100110111011010101110 8
1!!
1|
b10 ~
b111101101100110111011010101011 8
b10111101 6
b11110010 7
b111101101100110111011000101011 8
b10111111 6
b11111010 7
b111101101100110111110000101011 8
b111101101110110111110000101011 8
b111101100110110111110000101011 8
b10011111 6
b1111010 7
b111001100110110111110000101011 8
b101111010 7
b10111001100110110111110000101011 8
19
b1010 <
b100111010 7
1l
1m
1n
b110 h
b11 ~
b100111110 7
b1101 s
b10111001100110110111110000111011 8
b10111001100110110110110000111011 8
b1110 h
b1010 h
b1000 h
b1000 G
b10101001100110110110110000111011 8
b10101000100110110110110000111011 8
b10101000100110111000110000111011 8
b10101000100110111000110100111011 8
#140000
0!
#145000
1!
b10101000100110111000110100111011 0
11
1'
b10101000100110111000110100111011 &
#146000
b110101000100110111000110100111011 .
b110101000100110111000110100111011 /
b110 (
b110 *
b10000011100101110100110011101010 +
b1011010101111100000110001000000 ,
1-
b10000011100101110100110011101010 #
b1011010101111100000110001000000 $
1%
#150000
0!
#155000
1!
b10000011100101110100110011101010 2
b1011010101111100000110001000000 3
14
b100111111 7
b1101 >
b0 ?
b1001 I
b10 J
b10 T
b1001 U
b1001 _
b110 `
b100 j
b0 k
b0 u
b1100 v
b1010 "!
b100 #!
b1010 -!
b0 .!
0)!
b11 +!
0$!
0w
0x
0i
0f
0m
0n
b1010 h
0l
b1011 h
0^
0[
1b
1e
b11 ]
b1 ]
1a
b0 ]
1S
1P
1V
1W
0X
1L
b1001 G
0=
0:
0A
0B
0@
b1011 <
01!
0,!
b1011 +!
b10111000100110111000110100111011 8
b1001 <
b1101 <
b11111 6
b10111001100110111000110100111011 8
b1101 G
b1 R
b101 R
b111111 6
b10 ]
b10111001100100101000110100111011 8
1^
1[
b110 ]
b1001 h
b10111001100100101001110100111011 8
b1 h
b101 h
b110111 6
b1001 s
b110110 6
b100111101 7
b10111001100100101001100100111011 8
b100101101 7
b10111001100100100101100100111011 8
b10111001100101100101100100111011 8
b101101101 7
b10111001010101100101100100111011 8
b10111101010101100101100100111011 8
b1101101 7
b11011101010101100101100100111011 8
09
1K
b1100 G
0a
b111 ]
b10 ~
b11011101010101100101100100101011 8
b11011101010101110101100100101011 8
b101 ]
b11011100010101110101100100101011 8
b1110 G
b11011110010101110101100100101011 8
b11011110010101010101100100101011 8
#160000
0!
#165000
1!
b11011110010101010101100100101011 0
01
0'
b11011110010101010101100100101011 &
#166000
b11011110010101010101100100101011 .
b11011110010101010101100100101011 /
b111 (
b111 *
b101111001010101010010101100111 +
b10001110001110010010000101100010 ,
b101111001010101010010101100111 #
b10001110001110010010000101100010 $
#170000
0!
#175000
1!
b101111001010101010010101100111 2
b10001110001110010010000101100010 3
b1010 >
b1 I
b1110 J
b1 T
b10 U
b11 _
b1000 `
b1000 j
b10 k
b100 u
b1 v
b0 "!
b110 #!
b101 -!
b10 .!
10!
11!
b1001 +!
1/!
b1000 +!
1%!
0(!
b1010 ~
b1000 ~
0t
0q
1w
0y
b1101 s
1m
b1101 h
0b
0c
0e
b111 ]
0S
0P
b111 R
b110 R
1H
1E
1M
b1001 <
b1011 <
b1010 <
b10101110010101010101100100101011 8
b1110110 6
b10101110011001010101100100101011 8
b1010110 6
b10101110011001110101100100101011 8
b11 ]
b10101110011001111101100100101011 8
b10101110011001111101110100101011 8
b101 s
b111 s
b1010010 6
b10101110011001111101110110001011 8
0!!
0|
b1100 ~
b1010 +!
b10101110011001111101110110001010 8
b10101110011001111101110111001010 8
b1010000 6
b1100101 7
b10101110011001111101011111001010 8
b10101110011000111101011111001010 8
b100101 7
b10100101 7
b1011 <
0K
b1111 G
b1100 h
b10100001 7
b110 s
b10101110011000111100011111001010 8
b10101111011000111100011111001010 8
b1101 G
b10111111011000111100011111001010 8
b10111101011000111100011111001010 8
b10111101011000111100011011001010 8
#180000
0!
#185000
1!
b10111101011000111100011011001010 0
b10111101011000111100011011001010 &
#186000
b10111101011000111100011011001010 .
b10111101011000111100011011001010 /
b1000 (
b1000 *
b111100101110111010010111111011 +
b11001111010111101011000001000000 ,
0-
b111100101110111010010111111011 #
b11001111010111101011000001000000 $
0%
#190000
0!
#195000
1!
b111100101110111010010111111011 2
b11001111010111101011000001000000 3
04
b10100000 7
b1 j
b1010 k
b101 u
b0 v
b1111 >
b11 I
b1100 J
b1110 T
b1 U
b101 _
b1010 `
b1011 "!
b100 #!
b1011 -!
b0 .!
b10 +!
b110 +!
b100 +!
0%!
1(!
b100 ~
b110 ~
b111 ~
1b
1c
b1 ]
1X
1Z
b10 R
b0 R
b1 R
0L
b1111 G
1A
1B
1C
1@
b1010 <
0w
b111 s
1i
1f
b100 h
b101 h
0/!
00!
01!
b101 +!
b1101 +!
b1001 +!
b1011 +!
b10111101011000110101011011001010 8
b1011000 6
b10111101011000110101011111001010 8
b101 s
b10101101011000110101011111001010 8
b1000 <
1;
1=
b0 <
b10101111011000110101011111001010 8
b1011 G
b10101111000100110101011111001010 8
1S
1P
b10101111000100010101011111001010 8
b1001 ]
b10101111000100010101011101111010 8
1!!
1|
b11 ~
b10101111000100010101011101111011 8
b10101111000100010101011100111011 8
b1011010 6
b10101111000110010101011100111011 8
b1111010 6
b10101011000110010101011100111011 8
b10000000 5
b1011000110010101011100111011 8
b1011000110010101010100111011 8
b10110000 7
1a
b1000 ]
b110110000 7
b111110000 7
b111110100 7
1w
b100 s
1K
1L
b1010 G
19
b1011000110000101010100111011 8
b1010 ]
b1011000110100101010100111011 8
b1010000110100101010100111011 8
b1110 G
b1100 G
b1010000110100101010000111011 8
b110 s
b1010000110100101011000111011 8
b1100000110100101011000111011 8
#200000
0!
#205000
1!
b1100000110100101011000111011 0
11
1'
b1100000110100101011000111011 &
#206000
b100001100000110100101011000111011 .
b100001100000110100101011000111011 /
b1001 (
b1001 *
b11010010000111100111011100000 +
b11111011011010101001111010000101 ,
1-
b11010010000111100111011100000 #
b11111011011010101001111010000101 $
1%
#210000
0!
#215000
1!
b11010010000111100111011100000 2
b11111011011010101001111010000101 3
14
b111110101 7
b1110 >
b1 ?
b1 I
b1010 J
b10 T
b100 U
b1001 _
b10 `
b101 j
b1000 k
b0 u
b1110 v
b110 "!
b1000 #!
b101 -!
b11 +!
b111 +!
b101 +!
0&!
0(!
b111 ~
b110 ~
1t
1q
1x
1y
0w
b111 s
0m
0^
0[
0c
b1110 ]
0V
0W
0Z
b1001 R
0M
b1110 G
0C
1D
b1 <
1/!
b100 +!
b110 +!
b11100000110100101011000111011 8
1:
0;
b11110000110100101011000111011 8
b110 G
b11110100110100101011000111011 8
0S
0P
b1011 R
b11110100111100101011000111011 8
b1101010 6
b11110100111100101011100111011 8
b101 s
b1101 s
b1101110 6
b11110100111100101011101101011 8
b11110100111100101011101100110 8
b111111101 7
b11110100111100101110101100110 8
b111011101 7
b11110101111100101110101100110 8
b1001110 6
b10110101111100101110101100110 8
b0 5
b11001110 6
b1010 R
b110011101 7
1l
b100 h
b10110101111100100110101100110 8
b110 h
0K
b111 G
b10110101011100100110101100110 8
b10111101011100100110101100110 8
b101 G
b10111101011100110110101100110 8
b10101101011100110110101100110 8
#220000
0!
#225000
1!
b10101101011100110110101100110 0
b10101101011100110110101100110 &
#226000
b100010101101011100110110101100110 .
b100010101101011100110110101100110 /
b1010 (
b1010 *
b11011101010000000001110011010 +
b10011001111011100010110011110001 ,
0-
b11011101010000000001110011010 #
b10011001111011100010110011110001 $
0%
#230000
0!
#235000
1!
b11011101010000000001110011010 2
b10011001111011100010110011110001 3
04
b110011100 7
b1000 >
b10 I
b1001 J
b100 T
b1010 U
b110 _
b1000 `
b10 j
b0 k
b1111 u
b0 v
b1001 #!
b1011 -!
b1110 +!
b1010 +!
b1000 +!
1%!
1&!
1$!
0t
0q
1z
b101 s
b1 s
b11 s
1w
b10 s
0i
0f
b10 h
b0 h
0l
b1 h
1^
1[
0b
b110 ]
b100 ]
0a
b101 ]
1S
1P
1W
b1000 R
b111 G
1K
b110 G
0A
0B
0D
b11 <
0/!
b1001 +!
b1011 +!
b110101101011100110110101100110 8
0=
0:
b1011 <
b100 G
b110100101011100110110101100110 8
b110100100011100110110101100110 8
b11101110 6
b111 ]
b110100100001110110110101100110 8
b11111110 6
b11 h
b110100100001110011110101100110 8
b11110110 6
b0 s
b110100100001110011000001100110 8
1r
1t
b11110010 6
b100 ~
b1100 ~
b1000 ~
b110100100001110011000001101011 8
b110100100001110011000010001011 8
b110010100 7
b100 5
b110000100 7
b110100100 7
b111100100 7
b10110100100001110011000010001011 8
b1110010 6
b11100100 7
b101 G
b1001 R
b110 ]
b11101100 7
b10110100100001100011000010001011 8
b10110100100101100011000010001011 8
b10110101100101100011000010001011 8
09
#240000
0!
#245000
1!
b10110101100101100011000010001011 0
01
0'
b10110101100101100011000010001011 &
#246000
b10110101100101100011000010001011 .
b10110101100101100011000010001011 /
b1011 (
b1011 *
b11001000001110101000100100110 +
b11000110100111100101000111111111 ,
b11001000001110101000100100110 #
b11000110100111100101000111111111 $
#250000
0!
#255000
1!
b11001000001110101000100100110 2
b11000110100111100101000111111111 3
b1101 >
b0 ?
b1111 I
b0 J
b1001 T
b0 U
b1001 _
b110 `
b0 j
b101 k
b0 u
b1 v
b1101 "!
b10 #!
b1001 -!
b110 .!
10!
11!
13!
b1001 +!
0!!
0|
1(!
b0 ~
b10 ~
0$!
b11 ~
0x
0y
0z
b10 s
b11 s
1l
1n
0^
0[
1b
1c
1e
b100 ]
b101 ]
0S
0P
0W
0X
1V
b1000 R
0H
0E
1M
1N
b1 G
b0 G
b1111 <
b1110 <
b11100101100101100011000010001011 8
b11100000100101100011000010001011 8
1F
1H
b110010 6
b11100000100001100011000010001011 8
b1010 R
b10010 6
b11100000100001010011000010001011 8
1^
1[
b1011 h
b11100000100001010011001110001011 8
0r
0t
b1 ~
b11100000100001010011001100011011 8
1!!
1|
b11100000100001010011001100011001 8
1,!
1)!
b1 +!
b101 +!
b11100000100001010011001100010101 8
b10011 6
b0 5
b11100000100001011011001100010101 8
b10101100 7
b11100000101001011011001100010101 8
b101100 7
b1000000 5
0@
b1111 <
0K
0L
0M
0H
b1 G
b100100 7
b100110 7
1$!
b0 ~
b1010 h
b11100001101001011011001100010101 8
b1001 G
b1101 G
b1111 G
b11110001101001011011001100010101 8
b1101 <
b11010001101001011011001100010101 8
b11011111101001011011001100010101 8
b11011111101001011010001100010101 8
b11011111101001011010001100000101 8
b10 ~
b11011111101001011010001100100101 8
#260000
0!
#265000
1!
b11011111101001011010001100100101 0
b11011111101001011010001100100101 &
#266000
b11011111101001011010001100100101 .
b11011111101001011010001100100101 /
b1100 (
b1100 *
b1000111111000111000101111000110 +
b110100110101001100101001110011 ,
b1000111111000111000101111000110 #
b110100110101001100101001110011 $
#270000
0!
#275000
1!
b1000111111000111000101111000110 2
b110100110101001100101001110011 3
b101 -!
b10 .!
b111 >
b11 I
b100 J
b11 T
b1100 U
b111 _
b0 `
b100 j
b1000 k
b1 u
b1010 v
b1011 "!
b100 #!
b110 ~
b100 ~
1t
1q
1x
b10 s
1i
1f
0l
0n
b1110 h
0b
0c
0e
b111 ]
1S
1P
1W
1X
b1000 R
1M
0N
b1011 G
b101 <
b111 <
03!
b1101 +!
b1001 +!
b11011111101001011010001100101001 8
0,!
0)!
b1111111101001011010001100101001 8
b1111011101001011010001100101001 8
0F
b1111011100001011010001100101001 8
b1100 R
b110011 6
b1111011100001111010001100101001 8
0^
0[
b1111011100001111110001100101001 8
b110 h
b100 h
b111011 6
b1111011100001111110001000101001 8
b110 s
b111111 6
b1111011100001111110001001001001 8
b101110 7
b1111011100001111110011001001001 8
b111110 7
b1111011100001110100011001001001 8
b101111 6
b1111110 7
b1111011110001110100011001001001 8
b0 5
b101110 6
b1111100 7
1K
1L
b1010 G
1a
1b
1c
b110 ]
b1011100 7
b101 h
b1111011110001110101011001001001 8
0V
0W
b1101 R
b1111011110001100101011001001001 8
b1110 ]
b1010 ]
b1000 ]
b1111010110001100101011001001001 8
b1110 G
b1100 G
0$!
0%!
b101 ~
b1111010110001100101011001011001 8
b1 ~
b11 ~
b1111100110001100101011001011001 8
b1111100110010000101011001011001 8
b1111100110110000101011001011001 8
b1001 R
b1011 R
b1111100101110000101011001011001 8
b1111100101110000101011000111001 8
#280000
0!
#285000
1!
b1111100101110000101011000111001 0
b1111100101110000101011000111001 &
#286000
b1111100101110000101011000111001 .
b1111100101110000101011000111001 /
b1101 (
b1101 *
b1101000101010110111000000101001 +
b1010010011100001001011000011010 ,
1-
b1101000101010110111000000101001 #
b1010010011100001001011000011010 $
1%
#290000
0!
#295000
1!
b1101000101010110111000000101001 2
b1010010011100001001011000011010 3
14
b1011101 7
b11 >
b100 ?
b1010 I
b0 J
b1101 T
b10 U
b1011 _
b1110 j
b1 k
b110 u
b0 v
b11 "!
b0 #!
b11 -!
b1000 .!
1)!
b1101 +!
b1111 +!
0&!
0(!
0t
0q
0x
b100 s
0w
b101 s
0i
0f
1l
1m
1n
1p
0c
b1100 ]
0S
0P
1W
1Z
b11 R
b1 R
0L
0M
0K
b1101 G
1B
b11 <
1/!
01!
1,!
b1110 +!
b110 +!
b100 +!
b111100101110000101011000111001 8
b1011 <
b111101101110000101011000111001 8
b1111 G
b1011 G
b111101000110000101011000111001 8
1S
1P
b111101000111000101011000111001 8
1i
1f
b1 h
b111 s
b111101000111000101011100111001 8
b101010 6
0!!
0|
b111101000111000101011100110100 8
b101011 6
b1011111 7
b101001 6
b1010111 7
b111101000111000001011100110100 8
b111011000111000001011100110100 8
b10111011000111000001011100110100 8
b0 h
1$!
1%!
b10 ~
b1010011 7
b110 s
b10111011000111000001011100100100 8
b110 ~
b100 ~
b10111011000111000000011100100100 8
b10111011000111000000011101000100 8
b10111011000111000000011001000100 8
#300000
0!
#305000
1!
b10111011000111000000011001000100 0
b10111011000111000000011001000100 &
#306000
b10111011000111000000011001000100 .
b10111011000111000000011001000100 /
b1110 (
b1110 *
b1111100111001011010000010110101 +
b10011000001110001111100000001000 ,
b1111100111001011010000010110101 #
b10011000001110001111100000001000 $
#310000
0!
#315000
1!
b1111100111001011010000010110101 2
b10011000001110001111100000001000 3
b1000 u
b1110 >
b1 ?
b100 I
b1000 J
b1101 _
b101 j
b1010 k
b1011 "!
b1101 -!
b0 .!
0,!
0)!
00!
b1100 +!
b1110 +!
b1100 ~
0p
b1000 h
b1010 h
0l
b1011 h
0b
b1110 ]
1H
1E
b11 G
b111 G
b101 G
1A
1D
b11 <
1@
b10 <
b1110 s
b1010 s
b1000 s
b10111011000111000000100001000100 8
b0 <
b1011000111000000100001000100 8
1=
1:
b101000111000000100001000100 8
b1101001 6
b101000111100000100001000100 8
b1001 h
b101000111101001100001000100 8
b101000111101001100011000100 8
b101000111101001100011001110 8
b1101000 6
b1010001 7
b11010001 7
b11101000 6
b1 <
b111010001 7
0$!
0%!
b1101 ~
b101000111101001100011011110 8
b1001 ~
b1011 ~
19
b10101000111101001100011011110 8
b10101000111101001100010111110 8
#320000
0!
#325000
1!
b10101000111101001100010111110 0
11
1'
b10101000111101001100010111110 &
#326000
b100010101000111101001100010111110 .
b100010101000111101001100010111110 /
b1111 (
b1111 *
b11110110101010000100010111110001 +
b10101110110110011010000111101001 ,
b11110110101010000100010111110001 #
b10101110110110011010000111101001 $
#330000
0!
