03_test/Question3/Verilator/tb_Question3.vcd
$version Generated by VerilatedVcd $end
$timescale 1ps $end
 $scope module TOP $end
  $scope module tb_Question3 $end
   $var wire 1 A! clk $end
   $var wire 1 B! rst_n $end
   $var wire 32 C! A_tb [31:0] $end
   $var wire 32 D! B_tb [31:0] $end
   $var wire 1 E! Cin_tb $end
   $var wire 32 ` Sum_tb [31:0] $end
   $var wire 1 a Cout_tb $end
   $var wire 32 # pass_count [31:0] $end
   $var wire 32 $ fail_count [31:0] $end
   $var wire 32 % run_test__Vstatic__idx [31:0] $end
   $var wire 32 & run_test__Vstatic__tv_a [31:0] $end
   $var wire 32 ' run_test__Vstatic__tv_b [31:0] $end
   $var wire 1 ( run_test__Vstatic__tv_cin $end
   $var wire 33 ) run_test__Vstatic__expected [32:0] $end
   $var wire 33 + run_test__Vstatic__got [32:0] $end
   $scope module DUT $end
    $var wire 1 A! clk $end
    $var wire 1 B! rst_n $end
    $var wire 32 C! A [31:0] $end
    $var wire 32 D! B [31:0] $end
    $var wire 1 E! Cin $end
    $var wire 32 ` Sum [31:0] $end
    $var wire 1 a Cout $end
    $var wire 32 b A_r [31:0] $end
    $var wire 32 c B_r [31:0] $end
    $var wire 1 d Cin_r $end
    $var wire 8 e Pblk [7:0] $end
    $var wire 8 f Gblk [7:0] $end
    $var wire 9 5 Cblk [8:0] $end
    $var wire 32 6 Sum_c [31:0] $end
    $var wire 1 7 Cout_c $end
    $scope module BLK[0] $end
     $scope module u4 $end
      $var wire 4 g A [3:0] $end
      $var wire 4 h B [3:0] $end
      $var wire 1 8 Cin $end
      $var wire 1 i Gblk $end
      $var wire 1 j Pblk $end
      $var wire 4 9 S [3:0] $end
      $var wire 1 - Cout $end
      $var wire 4 k p [3:0] $end
      $var wire 4 l g [3:0] $end
      $var wire 1 : c1 $end
      $var wire 1 ; c2 $end
      $var wire 1 < c3 $end
      $var wire 1 j and4 $end
      $var wire 1 m or3 $end
     $upscope $end
    $upscope $end
    $scope module BLK[1] $end
     $scope module u4 $end
      $var wire 4 n A [3:0] $end
      $var wire 4 o B [3:0] $end
      $var wire 1 = Cin $end
      $var wire 1 p Gblk $end
      $var wire 1 q Pblk $end
      $var wire 4 > S [3:0] $end
      $var wire 1 . Cout $end
      $var wire 4 r p [3:0] $end
      $var wire 4 s g [3:0] $end
      $var wire 1 ? c1 $end
      $var wire 1 @ c2 $end
      $var wire 1 A c3 $end
      $var wire 1 q and4 $end
      $var wire 1 t or3 $end
     $upscope $end
    $upscope $end
    $scope module BLK[2] $end
     $scope module u4 $end
      $var wire 4 u A [3:0] $end
      $var wire 4 v B [3:0] $end
      $var wire 1 B Cin $end
      $var wire 1 w Gblk $end
      $var wire 1 x Pblk $end
      $var wire 4 C S [3:0] $end
      $var wire 1 / Cout $end
      $var wire 4 y p [3:0] $end
      $var wire 4 z g [3:0] $end
      $var wire 1 D c1 $end
      $var wire 1 E c2 $end
      $var wire 1 F c3 $end
      $var wire 1 x and4 $end
      $var wire 1 { or3 $end
     $upscope $end
    $upscope $end
    $scope module BLK[3] $end
     $scope module u4 $end
      $var wire 4 | A [3:0] $end
      $var wire 4 } B [3:0] $end
      $var wire 1 G Cin $end
      $var wire 1 ~ Gblk $end
      $var wire 1 !! Pblk $end
      $var wire 4 H S [3:0] $end
      $var wire 1 0 Cout $end
      $var wire 4 "! p [3:0] $end
      $var wire 4 #! g [3:0] $end
      $var wire 1 I c1 $end
      $var wire 1 J c2 $end
      $var wire 1 K c3 $end
      $var wire 1 !! and4 $end
      $var wire 1 $! or3 $end
     $upscope $end
    $upscope $end
    $scope module BLK[4] $end
     $scope module u4 $end
      $var wire 4 %! A [3:0] $end
      $var wire 4 &! B [3:0] $end
      $var wire 1 L Cin $end
      $var wire 1 '! Gblk $end
      $var wire 1 (! Pblk $end
      $var wire 4 M S [3:0] $end
      $var wire 1 1 Cout $end
      $var wire 4 )! p [3:0] $end
      $var wire 4 *! g [3:0] $end
      $var wire 1 N c1 $end
      $var wire 1 O c2 $end
      $var wire 1 P c3 $end
      $var wire 1 (! and4 $end
      $var wire 1 +! or3 $end
     $upscope $end
    $upscope $end
    $scope module BLK[5] $end
     $scope module u4 $end
      $var wire 4 ,! A [3:0] $end
      $var wire 4 -! B [3:0] $end
      $var wire 1 Q Cin $end
      $var wire 1 .! Gblk $end
      $var wire 1 /! Pblk $end
      $var wire 4 R S [3:0] $end
      $var wire 1 2 Cout $end
      $var wire 4 0! p [3:0] $end
      $var wire 4 1! g [3:0] $end
      $var wire 1 S c1 $end
      $var wire 1 T c2 $end
      $var wire 1 U c3 $end
      $var wire 1 /! and4 $end
      $var wire 1 2! or3 $end
     $upscope $end
    $upscope $end
    $scope module BLK[6] $end
     $scope module u4 $end
      $var wire 4 3! A [3:0] $end
      $var wire 4 4! B [3:0] $end
      $var wire 1 V Cin $end
      $var wire 1 5! Gblk $end
      $var wire 1 6! Pblk $end
      $var wire 4 W S [3:0] $end
      $var wire 1 3 Cout $end
      $var wire 4 7! p [3:0] $end
      $var wire 4 8! g [3:0] $end
      $var wire 1 X c1 $end
      $var wire 1 Y c2 $end
      $var wire 1 Z c3 $end
      $var wire 1 6! and4 $end
      $var wire 1 9! or3 $end
     $upscope $end
    $upscope $end
    $scope module BLK[7] $end
     $scope module u4 $end
      $var wire 4 :! A [3:0] $end
      $var wire 4 ;! B [3:0] $end
      $var wire 1 [ Cin $end
      $var wire 1 <! Gblk $end
      $var wire 1 =! Pblk $end
      $var wire 4 \ S [3:0] $end
      $var wire 1 4 Cout $end
      $var wire 4 >! p [3:0] $end
      $var wire 4 ?! g [3:0] $end
      $var wire 1 ] c1 $end
      $var wire 1 ^ c2 $end
      $var wire 1 _ c3 $end
      $var wire 1 =! and4 $end
      $var wire 1 @! or3 $end
     $upscope $end
    $upscope $end
   $upscope $end
  $upscope $end
 $upscope $end
$enddefinitions $end


#0
b00000000000000000000000000000000 #
b00000000000000000000000000000000 $
b00000000000000000000000000000000 %
b00000000000000000000000000000000 &
b00000000000000000000000000000000 '
0(
b000000000000000000000000000000000 )
b000000000000000000000000000000000 +
0-
0.
0/
00
01
02
03
04
b000000000 5
b00000000000000000000000000000000 6
07
08
b0000 9
0:
0;
0<
0=
b0000 >
0?
0@
0A
0B
b0000 C
0D
0E
0F
0G
b0000 H
0I
0J
0K
0L
b0000 M
0N
0O
0P
0Q
b0000 R
0S
0T
0U
0V
b0000 W
0X
0Y
0Z
0[
b0000 \
0]
0^
0_
b00000000000000000000000000000000 `
0a
b00000000000000000000000000000000 b
b00000000000000000000000000000000 c
0d
b00000000 e
b00000000 f
b0000 g
b0000 h
0i
0j
b0000 k
b0000 l
0m
b0000 n
b0000 o
0p
0q
b0000 r
b0000 s
0t
b0000 u
b0000 v
0w
0x
b0000 y
b0000 z
0{
b0000 |
b0000 }
0~
0!!
b0000 "!
b0000 #!
0$!
b0000 %!
b0000 &!
0'!
0(!
b0000 )!
b0000 *!
0+!
b0000 ,!
b0000 -!
0.!
0/!
b0000 0!
b0000 1!
02!
b0000 3!
b0000 4!
05!
06!
b0000 7!
b0000 8!
09!
b0000 :!
b0000 ;!
0<!
0=!
b0000 >!
b0000 ?!
0@!
0A!
0B!
b00000000000000000000000000000000 C!
b00000000000000000000000000000000 D!
0E!
#5000
1A!
#10000
0A!
#15000
1A!
#20000
0A!
1B!
#25000
b01111001011101100111001111000100 &
b00001011000111100101110110011100 '
1-
1.
1/
11
13
b010101110 5
b10000100100101001101000101100000 6
1<
1=
b0110 >
1?
1B
b0001 C
1D
1E
1F
1G
b1101 H
1I
1J
1K
b0100 M
1O
1P
1Q
b1001 R
1S
1T
1U
b0100 W
1X
1Y
1[
b1000 \
1]
1^
1_
b01111001011101100111001111000100 b
b00001011000111100101110110011100 c
b01010111 f
b0100 g
b1100 h
1i
b1000 k
b0100 l
1m
b1100 n
b1001 o
1p
b0101 r
b1000 s
b0011 u
b1101 v
1w
b1110 y
b0001 z
1{
b0111 |
b0101 }
b0010 "!
b0101 #!
b0110 %!
b1110 &!
1'!
b1000 )!
b0110 *!
1+!
b0111 ,!
b0001 -!
b0110 0!
b0001 1!
b1001 3!
b1011 4!
15!
b0010 7!
b1001 8!
b0111 :!
b0111 >!
1A!
b01111001011101100111001111000100 C!
b00001011000111100101110110011100 D!
#30000
0A!
#35000
b10000100100101001101000101100000 `
1A!
#40000
0A!
#45000
1A!
#46000
b00000000000000000000000000000001 #
b00000000000000000000000000000001 %
b01001000110000101110000011100100 &
b10010010000101111000001101111000 '
b010000100100101001101000101100000 )
b010000100100101001101000101100000 +
b01001000110000101110000011100100 C!
b10010010000101111000001101111000 D!
#50000
0A!
#55000
0-
0/
10
01
03
b000010100 5
b11011010110110100110010001011100 6
b1100 9
0<
0=
b0101 >
0?
1@
1A
b0100 C
0F
0G
b0110 H
0I
0J
0K
1L
b1010 M
1N
0Q
b1101 R
0S
0T
0U
b1010 W
0X
0Y
0[
b1101 \
0]
0^
0_
b01001000110000101110000011100100 b
b10010010000101111000001101111000 c
b00001010 f
b1000 h
0i
b1100 k
b0000 l
0m
b1110 n
b0111 o
b1001 r
b0110 s
1t
b0000 u
b0011 v
0w
b0011 y
b0000 z
0{
b1110 |
b1000 }
1~
b0110 "!
b1000 #!
b0010 %!
b0111 &!
0'!
b0101 )!
b0010 *!
0+!
b1100 ,!
b1101 0!
b0000 1!
b1000 3!
b0010 4!
05!
b1010 7!
b0000 8!
b0100 :!
b1001 ;!
b1101 >!
1A!
#60000
0A!
#65000
b11011010110110100110010001011100 `
1A!
#66000
b00000000000000000000000000000010 #
b00000000000000000000000000000010 %
b11001010101001001001111010110110 &
b00101010000101001111111111100100 '
1(
b011011010110110100110010001011100 )
b011011010110110100110010001011100 +
b11001010101001001001111010110110 C!
b00101010000101001111111111100100 D!
1E!
#70000
0A!
#75000
1/
13
b010011101 5
b11110100101110011001111010011011 6
18
b1011 9
1<
b1001 >
b1110 C
1F
1G
b1001 H
1I
1J
1K
b1001 M
0N
0O
b1011 R
b0100 W
1Y
1[
b1111 \
b11001010101001001001111010110110 b
b00101010000101001111111111100100 c
1d
b01001110 f
b0110 g
b0100 h
b0010 k
b0100 l
b1011 n
b1110 o
b0101 r
b1010 s
0t
b1110 u
b1111 v
1w
b0001 y
b1110 z
b1001 |
b1111 }
b1001 #!
b0100 %!
b0100 &!
b0000 )!
b0100 *!
b1010 ,!
b1011 0!
b1010 3!
b1010 4!
15!
b0000 7!
b1010 8!
b1100 :!
b0010 ;!
b1110 >!
1A!
#80000
0A!
#85000
b11110100101110011001111010011011 `
1A!
#86000
b00000000000000000000000000000011 #
b00000000000000000000000000000011 %
b11111100110001000111000101010011 &
b01101111100111100001011100100001 '
b011110100101110011001111010011011 )
b011110100101110011001111010011011 +
b11111100110001000111000101010011 C!
b01101111100111100001011100100001 D!
#90000
0A!
#95000
0.
0/
00
11
12
14
b111100001 5
b01101100011000101000100001110101 6
17
b0101 9
1:
1;
0<
b0111 >
0@
0A
0B
b1000 C
0G
b1000 H
0L
b0010 M
1Q
b0110 R
1S
1V
b1100 W
1X
1Z
b0110 \
1]
1^
1_
b11111100110001000111000101010011 b
b01101111100111100001011100100001 c
b11110000 f
b0011 g
b0001 h
b0001 l
b0101 n
b0010 o
0p
b0111 r
b0000 s
b0001 u
b0111 v
0w
b0110 y
b0001 z
b0111 |
b0001 }
0~
b0001 #!
b1110 &!
1'!
b1010 )!
1+!
b1100 ,!
b1001 -!
1.!
b0101 0!
b1000 1!
b1100 3!
b1111 4!
b0011 7!
b1100 8!
b1111 :!
b0110 ;!
1<!
b1001 >!
b0110 ?!
1@!
1A!
#100000
0A!
#105000
b01101100011000101000100001110101 `
1a
1A!
#106000
b00000000000000000000000000000100 #
b00000000000000000000000000000100 %
b11011111100011001010111111000101 &
b00010010010100111111001110000010 '
0(
b101101100011000101000100001110101 )
b101101100011000101000100001110101 +
b11011111100011001010111111000101 C!
b00010010010100111111001110000010 D!
0E!
#110000
0A!
#115000
1.
1/
10
02
04
b010111100 5
b11110001111000001010001101000111 6
07
08
b0111 9
0:
0;
b0100 >
1B
b0011 C
1G
b1010 H
1L
b0000 M
1N
1O
b1110 R
0V
b0001 W
0X
b1111 \
0^
0_
b11011111100011001010111111000101 b
b00010010010100111111001110000010 c
0d
b00010000 e
b01001110 f
b0101 g
b0010 h
b0111 k
b0000 l
b1100 n
b1000 o
1p
b0100 r
b1000 s
b1111 u
b0011 v
1w
b1100 y
b0011 z
1{
b1010 |
b1111 }
1~
b0101 "!
b1010 #!
b1100 %!
b0011 &!
0'!
1(!
b1111 )!
b0000 *!
0+!
b1000 ,!
b0101 -!
0.!
b1101 0!
b0000 1!
b1111 3!
b0010 4!
b1101 7!
b0010 8!
19!
b1101 :!
b0001 ;!
0<!
b1100 >!
b0001 ?!
0@!
1A!
#120000
0A!
#125000
b11110001111000001010001101000111 `
0a
1A!
#126000
b00000000000000000000000000000101 #
b00000000000000000000000000000101 %
b01110011010110000001011000110101 &
b10101101111110111100100100010010 '
b011110001111000001010001101000111 )
b011110001111000001010001101000111 +
b01110011010110000001011000110101 C!
b10101101111110111100100100010010 D!
#130000
0A!
#135000
0.
0/
00
12
14
b111100000 5
b00100001010100111101111101000111 6
17
1?
1@
0B
b1111 C
0D
0E
0F
0G
b1101 H
0I
0J
0K
0L
b0011 M
0N
0O
0P
b0101 R
1T
1U
1V
1X
b0010 \
1^
1_
b01110011010110000001011000110101 b
b10101101111110111100100100010010 c
b00000100 e
b11110000 f
b0011 n
b0001 o
0p
b0010 r
b0001 s
b0110 u
b1001 v
0w
1x
b1111 y
b0000 z
0{
b0001 |
b1100 }
0~
b1101 "!
b0000 #!
b1000 %!
b1011 &!
1'!
0(!
b0011 )!
b1000 *!
b0101 ,!
b1111 -!
1.!
b1010 0!
b0101 1!
12!
b0011 3!
b1101 4!
b1110 7!
b0001 8!
b0111 :!
b1010 ;!
1<!
b1101 >!
b0010 ?!
1@!
1A!
#140000
0A!
#145000
b00100001010100111101111101000111 `
1a
1A!
#146000
b00000000000000000000000000000110 #
b00000000000000000000000000000110 %
b10110100001100100011101111111101 &
b11011100011010110100000111110100 '
1(
b100100001010100111101111101000111 )
b100100001010100111101111101000111 +
b10110100001100100011101111111101 C!
b11011100011010110100000111110100 D!
1E!
#150000
0A!
#155000
1-
1.
01
02
b110000111 5
b10010000100111010111110111110010 6
18
b0010 9
1:
1<
1=
b1111 >
1A
1B
b1101 C
1D
1E
b0111 H
b1101 M
1O
0Q
b1001 R
0S
0V
b0000 W
0X
0Y
b1001 \
b10110100001100100011101111111101 b
b11011100011010110100000111110100 c
1d
b00000000 e
b11000011 f
b1101 g
b0100 h
1i
b1001 k
b0100 l
1m
b1111 n
b1111 o
1p
b0000 r
b1111 s
b1011 u
b0001 v
0x
b1010 y
b0001 z
b0011 |
b0100 }
b0111 "!
b0010 %!
0'!
b1001 )!
b0010 *!
b0011 ,!
b0110 -!
0.!
b0101 0!
b0010 1!
02!
b0100 3!
b1100 4!
b1000 7!
b0100 8!
b1011 :!
b1101 ;!
b0110 >!
b1001 ?!
0@!
1A!
#160000
0A!
#165000
b10010000100111010111110111110010 `
1A!
#166000
b00000000000000000000000000000111 #
b00000000000000000000000000000111 %
b11000110011011010100110101011000 &
b11101001110011110000010010110010 '
0(
b110010000100111010111110111110010 )
b110010000100111010111110111110010 +
b11000110011011010100110101011000 C!
b11101001110011110000010010110010 D!
0E!
#170000
0A!
#175000
0-
1/
11
12
b111101100 5
b10110000001111000101001000001010 6
08
b1010 9
0:
0<
0=
b0000 >
b0010 C
0E
1F
1G
b0101 H
b1100 M
1N
1P
1Q
b0011 R
0T
1V
1X
1Y
b1011 \
0]
0^
b11000110011011010100110101011000 b
b11101001110011110000010010110010 c
0d
b01000000 e
b10110110 f
b1000 g
b0010 h
0i
b1010 k
b0000 l
0m
b0101 n
b1011 o
b1110 r
b0001 s
1t
b1101 u
b0100 v
1w
b1001 y
b0100 z
1{
b0100 |
b0000 }
b0100 "!
b1101 %!
b1111 &!
1'!
b0010 )!
b1101 *!
b0110 ,!
b1100 -!
1.!
b1010 0!
b0100 1!
12!
b0110 3!
b1001 4!
05!
16!
b1111 7!
b0000 8!
09!
b1100 :!
b1110 ;!
b0010 >!
b1100 ?!
1A!
#180000
0A!
#185000
b10110000001111000101001000001010 `
1A!
#186000
b00000000000000000000000000001000 #
b00000000000000000000000000001000 %
b01011010000110111000010100011110 &
b10101101000111110100010110011110 '
b110110000001111000101001000001010 )
b110110000001111000101001000001010 +
b01011010000110111000010100011110 C!
b10101101000111110100010110011110 D!
#190000
0A!
#195000
1-
0.
0/
02
b110100010 5
b00000111001110101100101010111100 6
b1100 9
1;
1<
1=
b1011 >
0@
0A
0B
b1010 C
0G
b1100 H
b1010 M
1S
0U
0V
b0111 W
0X
0Y
0Z
b0000 \
1]
1^
b01011010000110111000010100011110 b
b10101101000111110100010110011110 c
b10000000 e
b01010001 f
b1110 g
b1110 h
1i
b0000 k
b1110 l
b0001 n
b1001 o
0p
b1000 r
0t
b0101 u
b0101 v
0w
b0000 y
b0101 z
0{
b1000 |
b0100 }
b1100 "!
b1011 %!
b0100 )!
b1011 *!
b0001 ,!
b0001 -!
0.!
b0000 0!
b0001 1!
02!
b1010 3!
b1101 4!
15!
06!
b0111 7!
b1000 8!
b0101 :!
b1010 ;!
0<!
1=!
b1111 >!
b0000 ?!
1A!
#200000
0A!
#205000
b00000111001110101100101010111100 `
1A!
#206000
b00000000000000000000000000001001 #
b00000000000000000000000000001001 %
b01111011001100110001110011101110 &
b10011000001110110110101100010000 '
b100000111001110101100101010111100 )
b100000111001110101100101010111100 +
b01111011001100110001110011101110 C!
b10011000001110110110101100010000 D!
#210000
0A!
#215000
0-
1/
01
b110001000 5
b00010011011011101000011111111110 6
b1110 9
0;
0<
0=
b1111 >
0?
b0111 C
0D
0F
1G
b1000 H
1I
1J
1K
b1110 M
0P
0Q
b0110 R
1T
b0011 W
b0001 \
b01111011001100110001110011101110 b
b10011000001110110110101100010000 c
b00000010 e
b11000100 f
b0000 h
0i
b1110 k
b0000 l
b1110 n
b0001 o
1q
b1111 r
b0000 s
b1100 u
b1011 v
1w
b0111 y
b1000 z
b0001 |
b0110 }
b0111 "!
b0011 %!
b1011 &!
0'!
b1000 )!
b0011 *!
b0011 ,!
b0011 -!
b0011 1!
b1011 3!
b1000 4!
b0011 7!
b0111 :!
b1001 ;!
1<!
0=!
b1110 >!
b0001 ?!
1@!
1A!
#220000
0A!
#225000
b00010011011011101000011111111110 `
1A!
#226000
b00000000000000000000000000001010 #
b00000000000000000000000000001010 %
b01011010010100001110110101100011 &
b01011001100111111010001011000000 '
1(
b100010011011011101000011111111110 )
b100010011011011101000011111111110 +
b01011010010100001110110101100011 C!
b01011001100111111010001011000000 D!
1E!
#230000
0A!
#235000
1.
10
11
04
b010111101 5
b10110011111100001001000000100100 6
07
18
b0100 9
1:
1;
b0010 >
1A
1B
b0000 C
1D
1E
1F
b1001 H
0I
1L
b0000 M
1P
1Q
b1111 R
0T
b1011 \
0^
b01011010010100001110110101100011 b
b01011001100111111010001011000000 c
1d
b00010100 e
b01001010 f
b0011 g
b0011 k
b0110 n
b1100 o
1p
0q
b1010 r
b0100 s
1t
b1101 u
b0010 v
0w
1x
b1111 y
b0000 z
b1110 |
b1010 }
1~
b0100 "!
b1010 #!
b0000 %!
b1111 &!
1(!
b1111 )!
b0000 *!
b0101 ,!
b1001 -!
b1100 0!
b0001 1!
b1010 3!
b1001 4!
b0101 :!
b0101 ;!
0<!
b0000 >!
b0101 ?!
0@!
1A!
#240000
0A!
#245000
b10110011111100001001000000100100 `
0a
1A!
#246000
b00000000000000000000000000001011 #
b00000000000000000000000000001011 %
b11000001000110110000111100100010 &
b11101111100100111000111100000110 '
b010110011111100001001000000100100 )
b010110011111100001001000000100100 +
b11000001000110110000111100100010 C!
b11101111100100111000111100000110 D!
#250000
0A!
#255000
0.
00
01
14
b110001001 5
b10110000101011101001111000101001 6
17
b1001 9
0:
1<
0A
0B
b1110 C
0J
0K
0L
b1110 M
0P
0Q
b1010 R
b0000 W
1X
1Y
1Z
0]
b11000001000110110000111100100010 b
b11101111100100111000111100000110 c
b00000000 e
b11000100 f
b0010 g
b0110 h
b0100 k
b0010 l
b0010 n
b0000 o
0p
b0010 r
b0000 s
0t
b1111 u
b1111 v
1w
0x
b0000 y
b1111 z
b0000 |
b1000 }
0~
b1000 "!
b0000 #!
b1011 %!
b0011 &!
0(!
b1000 )!
b0011 *!
b0001 ,!
b1000 0!
b0001 3!
b1111 4!
b1110 7!
b0001 8!
19!
b1100 :!
b1110 ;!
1<!
b0010 >!
b1100 ?!
1A!
#260000
0A!
#265000
b10110000101011101001111000101001 `
1a
1A!
#266000
b00000000000000000000000000001100 #
b00000000000000000000000000001100 %
b01111001001011010011001001100011 &
b11000100010101001100001001111000 '
b110110000101011101001111000101001 )
b110110000101011101001111000101001 +
b01111001001011010011001001100011 C!
b11000100010101001100001001111000 D!
#270000
0A!
#275000
0/
11
03
b100100001 5
b00111101100000011111010011011100 6
b1100 9
1:
0<
b1101 >
1@
1A
b0100 C
0D
0F
0G
b1111 H
b0001 M
0N
0O
1P
1Q
b1000 R
1T
1U
b1101 W
0X
0Y
0Z
0[
b0011 \
b01111001001011010011001001100011 b
b11000100010101001100001001111000 c
b00001000 e
b10010000 f
b0011 g
b1000 h
b1011 k
b0000 l
b0110 n
b0111 o
b0001 r
b0110 s
b0010 u
b0010 v
0w
b0010 z
b0011 |
b1100 }
1!!
b1111 "!
b1101 %!
b0100 &!
1'!
b1001 )!
b0100 *!
1+!
b0010 ,!
b0101 -!
b0111 0!
b0000 1!
b1001 3!
b0100 4!
05!
b1101 7!
b0000 8!
09!
b0111 :!
b1100 ;!
b1011 >!
b0100 ?!
1@!
1A!
#280000
0A!
#285000
b00111101100000011111010011011100 `
1A!
#286000
b00000000000000000000000000001101 #
b00000000000000000000000000001101 %
b01100011010101001101101011001110 &
b10010011100000111111111011110111 '
b100111101100000011111010011011100 )
b100111101100000011111010011011100 +
b01100011010101001101101011001110 C!
b10010011100000111111111011110111 D!
#290000
0A!
#295000
1-
1.
1/
10
01
04
b000011111 5
b11110110110110001101100111000110 6
07
b0110 9
1<
1=
b1100 >
1?
1B
b1001 C
1F
1G
b1101 H
1I
1J
1K
1L
b1000 M
1N
1O
0Q
b1101 R
0S
0T
0U
b0110 W
1X
1Y
b1111 \
0_
b01100011010101001101101011001110 b
b10010011100000111111111011110111 c
b10000000 e
b00001111 f
b1110 g
b0111 h
1i
b1001 k
b0110 l
1m
b1100 n
b1111 o
1p
b0011 r
b1100 s
b1010 u
b1110 v
1w
b0100 y
b1010 z
b1101 |
b1111 }
1~
0!!
b0010 "!
b1101 #!
b0100 %!
b0011 &!
0'!
b0111 )!
b0000 *!
0+!
b0101 ,!
b1000 -!
b1101 0!
b0011 3!
b0011 4!
b0000 7!
b0011 8!
b0110 :!
b1001 ;!
0<!
1=!
b1111 >!
b0000 ?!
0@!
1A!
#300000
0A!
#305000
b11110110110110001101100111000110 `
0a
1A!
#306000
b00000000000000000000000000001110 #
b00000000000000000000000000001110 %
b00111100110110011011001110011110 &
b10011100010000111101100001110111 '
0(
b011110110110110001101100111000110 )
b011110110110110001101100111000110 +
b00111100110110011011001110011110 C!
b10011100010000111101100001110111 D!
0E!
#310000
0A!
#315000
0/
12
13
b011010110 5
b11011001000111011000110000010101 6
08
b0101 9
0:
b0001 >
b1100 C
1D
0F
0G
b1000 H
b1101 M
0P
b0001 R
1U
1V
b1001 W
0X
0Y
1Z
1[
b1101 \
1]
1^
b00111100110110011011001110011110 b
b10011100010000111101100001110111 c
0d
b00000000 e
b01101011 f
b1001 n
b0111 o
b1110 r
b0001 s
1t
b0011 u
b1000 v
0w
b1011 y
b0000 z
b1011 |
b1101 }
b0110 "!
b1001 #!
b1001 %!
b1010 )!
b0001 *!
b1101 ,!
b0100 -!
1.!
b1001 0!
b0100 1!
12!
b1100 3!
b1100 4!
15!
b1100 8!
b0011 :!
0=!
b1010 >!
b0001 ?!
1A!
#320000
0A!
#325000
b11011001000111011000110000010101 `
1A!
#326000
b00000000000000000000000000001111 #
b00000000000000000000000000001111 %
b11110001101010000000110010101000 &
b10100100101110001110001101001111 '
1(
b011011001000111011000110000010101 )
b011011001000111011000110000010101 +
b11110001101010000000110010101000 C!
b10100100101110001110001101001111 D!
1E!
#330000
0A!
#335000
0.
00
11
03
14
b101100011 5
b10010110011000001110111111111000 6
17
18
b1000 9
1:
b1111 >
0?
0@
0A
0B
b1111 C
0D
0E
b1110 H
0I
0J
0K
0L
b0000 M
0N
0O
1Q
b0110 R
1S
1T
0U
b0110 W
1X
0Z
0[
b1001 \
0]
1_
b11110001101010000000110010101000 b
b10100100101110001110001101001111 c
1d
b00000100 e
b10110001 f
b1000 g
b1111 h
b0111 k
b1000 l
0m
b1010 n
b0100 o
0p
b0000 s
0t
b1100 u
b0011 v
1x
b1111 y
b0000 |
b1110 }
0~
b1110 "!
b0000 #!
b1000 %!
b1000 &!
1'!
b0000 )!
b1000 *!
b1010 ,!
b1011 -!
b0001 0!
b1010 1!
02!
b0001 3!
b0100 4!
05!
b0101 7!
b0000 8!
b1111 :!
b1010 ;!
1<!
b0101 >!
b1010 ?!
1A!
#340000
0A!
#345000
b10010110011000001110111111111000 `
1a
1A!
#346000
b00000000000000000000000000010000 #
b00000000000000000000000000010000 %
b00011001101100101000100110010100 &
b10111101000010110010111011100010 '
0(
b110010110011000001110111111111000 )
b110010110011000001110111111111000 +
b00011001101100101000100110010100 C!
b10111101000010110010111011100010 D!
0E!
#350000
0A!
#355000
0-
1.
1/
01
02
13
04
b010001100 5
b11010110101111011011100001110110 6
07
08
b0110 9
0:
0;
0<
0=
b0111 >
1B
b1000 C
1D
1E
1F
1G
b1011 H
b1101 M
1O
0Q
b1011 R
0S
0T
0V
1[
b1101 \
1]
0_
b00011001101100101000100110010100 b
b10111101000010110010111011100010 c
0d
b00000000 e
b01000110 f
b0100 g
b0010 h
0i
b0110 k
b0000 l
b1001 n
b1110 o
1p
b0111 r
b1000 s
b1001 u
b1110 v
1w
0x
b0111 y
b1000 z
b1000 |
b0010 }
b1010 "!
b0010 %!
b1011 &!
0'!
b1001 )!
b0010 *!
b1011 ,!
b0000 -!
0.!
b1011 0!
b0000 1!
b1001 3!
b1101 4!
15!
b0100 7!
b1001 8!
b0001 :!
b1011 ;!
0<!
b1010 >!
b0001 ?!
1A!
#360000
0A!
#365000
b11010110101111011011100001110110 `
0a
1A!
#366000
b00000000000000000000000000010001 #
b00000000000000000000000000010001 %
b11101111111111000001101100011111 &
b10111101010101001011001100001001 '
1(
b011010110101111011011100001110110 )
b011010110101111011011100001110110 +
b11101111111111000001101100011111 C!
b10111101010101001011001100001001 D!
1E!
#370000
0A!
#375000
1-
0.
0/
11
12
14
b111100011 5
b10101101010100001100111000101001 6
17
18
b1001 9
1:
1;
1<
1=
b0010 >
1?
0B
b1110 C
0F
0G
b1100 H
1I
1J
b0000 M
0O
1P
1Q
b0101 R
1S
1T
1U
1V
b1101 W
1Y
1Z
b1010 \
1_
b11101111111111000001101100011111 b
b10111101010101001011001100001001 c
1d
b11110001 f
b1111 g
b1001 h
1i
b1001 l
b0001 n
b0000 o
0p
b0001 r
b0000 s
b1011 u
b0011 v
0w
b1000 y
b0011 z
b0001 |
b1011 }
b0001 #!
b1100 %!
b0100 &!
1'!
b1000 )!
b0100 *!
1+!
b1111 ,!
b0101 -!
1.!
b1010 0!
b0101 1!
12!
b1111 3!
b0010 7!
b1101 8!
b1110 :!
1<!
b0101 >!
b1010 ?!
1A!
#380000
0A!
#385000
b10101101010100001100111000101001 `
1a
1A!
#386000
b00000000000000000000000000010010 #
b00000000000000000000000000010010 %
b01010111101100001111011000011111 &
b10000001101011011010111110000100 '
b110101101010100001100111000101001 )
b110101101010100001100111000101001 +
b01010111101100001111011000011111 C!
b10000001101011011010111110000100 D!
#390000
0A!
#395000
1/
10
01
03
04
b001011011 5
b11011001010111101010010110100100 6
07
b0100 9
b1010 >
b0101 C
0D
1F
1G
b1010 H
1K
1L
b1110 M
1N
0P
0Q
0S
0U
b1001 W
0[
b1101 \
0]
0^
0_
b01010111101100001111011000011111 b
b10000001101011011010111110000100 c
b00101101 f
b0100 h
b1011 k
b0100 l
1m
b1000 o
b1001 r
b0110 u
b1111 v
1w
b1001 y
b0110 z
1{
b1111 |
b1010 }
1~
b0101 "!
b1010 #!
b0000 %!
b1101 &!
0'!
b1101 )!
b0000 *!
0+!
b1011 ,!
b1010 -!
b0001 0!
b1010 1!
02!
b0111 3!
b0001 4!
05!
b0110 7!
b0001 8!
b0101 :!
b1000 ;!
0<!
b1101 >!
b0000 ?!
1A!
#400000
0A!
#405000
b11011001010111101010010110100100 `
0a
1A!
#406000
b00000000000000000000000000010011 #
b00000000000000000000000000010011 %
b01111001001000011010011000110011 &
b11011111011100101110101001001011 '
0(
b011011001010111101010010110100100 )
b011011001010111101010010110100100 +
b01111001001000011010011000110011 C!
b11011111011100101110101001001011 D!
0E!
#410000
0A!
