03_test/Question5/Verilator/simulation.log
=== TB ALU8 start ===

========== STARTING DIRECTED TESTS ==========

[TIME:   1000] [Direct] A=00 B=00 S1S0=00 Cin=0 | F=00 Cout=0
=> PASS: Expect: 00 (0), DUT: 00 (0)
------------------------------------------------------------
[TIME:   2000] [Direct] A=00 B=00 S1S0=00 Cin=1 | F=01 Cout=0
=> PASS: Expect: 01 (1), DUT: 01 (1)
------------------------------------------------------------
[TIME:   3000] [Direct] A=00 B=00 S1S0=01 Cin=0 | F=00 Cout=0
=> PASS: Expect: 00 (0), DUT: 00 (0)
------------------------------------------------------------
[TIME:   4000] [Direct] A=00 B=00 S1S0=01 Cin=1 | F=01 Cout=0
=> PASS: Expect: 01 (1), DUT: 01 (1)
------------------------------------------------------------
[TIME:   5000] [Direct] A=00 B=00 S1S0=10 Cin=0 | F=ff Cout=0
=> PASS: Expect: ff (255), DUT: ff (255)
------------------------------------------------------------
[TIME:   6000] [Direct] A=00 B=00 S1S0=10 Cin=1 | F=00 Cout=1
=> PASS: Expect: 00 (0), DUT: 00 (0)
------------------------------------------------------------
[TIME:   7000] [Direct] A=00 B=00 S1S0=11 Cin=0 | F=ff Cout=0
=> PASS: Expect: ff (255), DUT: ff (255)
------------------------------------------------------------
[TIME:   8000] [Direct] A=00 B=00 S1S0=11 Cin=1 | F=00 Cout=1
=> PASS: Expect: 00 (0), DUT: 00 (0)
------------------------------------------------------------
[TIME:   9000] [Direct] A=ff B=ff S1S0=00 Cin=0 | F=fe Cout=1
=> PASS: Expect: fe (254), DUT: fe (254)
------------------------------------------------------------
[TIME:  10000] [Direct] A=ff B=ff S1S0=00 Cin=1 | F=ff Cout=1
=> PASS: Expect: ff (255), DUT: ff (255)
------------------------------------------------------------
[TIME:  11000] [Direct] A=ff B=ff S1S0=01 Cin=0 | F=ff Cout=0
=> PASS: Expect: ff (255), DUT: ff (255)
------------------------------------------------------------
[TIME:  12000] [Direct] A=ff B=ff S1S0=01 Cin=1 | F=00 Cout=1
=> PASS: Expect: 00 (0), DUT: 00 (0)
------------------------------------------------------------
[TIME:  13000] [Direct] A=ff B=ff S1S0=10 Cin=0 | F=00 Cout=0
=> PASS: Expect: 00 (0), DUT: 00 (0)
------------------------------------------------------------
[TIME:  14000] [Direct] A=ff B=ff S1S0=10 Cin=1 | F=01 Cout=0
=> PASS: Expect: 01 (1), DUT: 01 (1)
------------------------------------------------------------
[TIME:  15000] [Direct] A=ff B=ff S1S0=11 Cin=0 | F=ff Cout=0
=> PASS: Expect: ff (255), DUT: ff (255)
------------------------------------------------------------
[TIME:  16000] [Direct] A=ff B=ff S1S0=11 Cin=1 | F=00 Cout=1
=> PASS: Expect: 00 (0), DUT: 00 (0)
------------------------------------------------------------
[TIME:  17000] [Direct] A=ff B=01 S1S0=00 Cin=0 | F=00 Cout=1
=> PASS: Expect: 00 (0), DUT: 00 (0)
------------------------------------------------------------
[TIME:  18000] [Direct] A=ff B=01 S1S0=00 Cin=1 | F=01 Cout=1
=> PASS: Expect: 01 (1), DUT: 01 (1)
------------------------------------------------------------
[TIME:  19000] [Direct] A=ff B=01 S1S0=01 Cin=0 | F=ff Cout=0
=> PASS: Expect: ff (255), DUT: ff (255)
------------------------------------------------------------
[TIME:  20000] [Direct] A=ff B=01 S1S0=01 Cin=1 | F=00 Cout=1
=> PASS: Expect: 00 (0), DUT: 00 (0)
------------------------------------------------------------
[TIME:  21000] [Direct] A=ff B=01 S1S0=10 Cin=0 | F=fe Cout=0
=> PASS: Expect: fe (254), DUT: fe (254)
------------------------------------------------------------
[TIME:  22000] [Direct] A=ff B=01 S1S0=10 Cin=1 | F=ff Cout=0
=> PASS: Expect: ff (255), DUT: ff (255)
------------------------------------------------------------
[TIME:  23000] [Direct] A=ff B=01 S1S0=11 Cin=0 | F=fd Cout=1
=> PASS: Expect: fd (253), DUT: fd (253)
------------------------------------------------------------
[TIME:  24000] [Direct] A=ff B=01 S1S0=11 Cin=1 | F=fe Cout=1
=> PASS: Expect: fe (254), DUT: fe (254)
------------------------------------------------------------
[TIME:  25000] [Direct] A=80 B=80 S1S0=00 Cin=0 | F=00 Cout=1
=> PASS: Expect: 00 (0), DUT: 00 (0)
------------------------------------------------------------
[TIME:  26000] [Direct] A=80 B=80 S1S0=00 Cin=1 | F=01 Cout=1
=> PASS: Expect: 01 (1), DUT: 01 (1)
------------------------------------------------------------
[TIME:  27000] [Direct] A=80 B=80 S1S0=01 Cin=0 | F=80 Cout=0
=> PASS: Expect: 80 (128), DUT: 80 (128)
------------------------------------------------------------
[TIME:  28000] [Direct] A=80 B=80 S1S0=01 Cin=1 | F=81 Cout=0
=> PASS: Expect: 81 (129), DUT: 81 (129)
------------------------------------------------------------
[TIME:  29000] [Direct] A=80 B=80 S1S0=10 Cin=0 | F=7f Cout=0
=> PASS: Expect: 7f (127), DUT: 7f (127)
------------------------------------------------------------
[TIME:  30000] [Direct] A=80 B=80 S1S0=10 Cin=1 | F=80 Cout=0
=> PASS: Expect: 80 (128), DUT: 80 (128)
------------------------------------------------------------
[TIME:  31000] [Direct] A=80 B=80 S1S0=11 Cin=0 | F=ff Cout=0
=> PASS: Expect: ff (255), DUT: ff (255)
------------------------------------------------------------
[TIME:  32000] [Direct] A=80 B=80 S1S0=11 Cin=1 | F=00 Cout=1
=> PASS: Expect: 00 (0), DUT: 00 (0)
------------------------------------------------------------
[TIME:  33000] [Direct] A=aa B=55 S1S0=00 Cin=0 | F=ff Cout=0
=> PASS: Expect: ff (255), DUT: ff (255)
------------------------------------------------------------
[TIME:  34000] [Direct] A=aa B=55 S1S0=00 Cin=1 | F=00 Cout=1
=> PASS: Expect: 00 (0), DUT: 00 (0)
------------------------------------------------------------
[TIME:  35000] [Direct] A=aa B=55 S1S0=01 Cin=0 | F=aa Cout=0
=> PASS: Expect: aa (170), DUT: aa (170)
------------------------------------------------------------
[TIME:  36000] [Direct] A=aa B=55 S1S0=01 Cin=1 | F=ab Cout=0
=> PASS: Expect: ab (171), DUT: ab (171)
------------------------------------------------------------
[TIME:  37000] [Direct] A=aa B=55 S1S0=10 Cin=0 | F=aa Cout=0
=> PASS: Expect: aa (170), DUT: aa (170)
------------------------------------------------------------
[TIME:  38000] [Direct] A=aa B=55 S1S0=10 Cin=1 | F=ab Cout=0
=> PASS: Expect: ab (171), DUT: ab (171)
------------------------------------------------------------
[TIME:  39000] [Direct] A=aa B=55 S1S0=11 Cin=0 | F=54 Cout=1
=> PASS: Expect: 54 (84), DUT: 54 (84)
------------------------------------------------------------
[TIME:  40000] [Direct] A=aa B=55 S1S0=11 Cin=1 | F=55 Cout=1
=> PASS: Expect: 55 (85), DUT: 55 (85)
------------------------------------------------------------
[TIME:  41000] [Direct] A=55 B=aa S1S0=00 Cin=0 | F=ff Cout=0
=> PASS: Expect: ff (255), DUT: ff (255)
------------------------------------------------------------
[TIME:  42000] [Direct] A=55 B=aa S1S0=00 Cin=1 | F=00 Cout=1
=> PASS: Expect: 00 (0), DUT: 00 (0)
------------------------------------------------------------
[TIME:  43000] [Direct] A=55 B=aa S1S0=01 Cin=0 | F=55 Cout=0
=> PASS: Expect: 55 (85), DUT: 55 (85)
------------------------------------------------------------
[TIME:  44000] [Direct] A=55 B=aa S1S0=01 Cin=1 | F=56 Cout=0
=> PASS: Expect: 56 (86), DUT: 56 (86)
------------------------------------------------------------
[TIME:  45000] [Direct] A=55 B=aa S1S0=10 Cin=0 | F=55 Cout=0
=> PASS: Expect: 55 (85), DUT: 55 (85)
------------------------------------------------------------
[TIME:  46000] [Direct] A=55 B=aa S1S0=10 Cin=1 | F=56 Cout=0
=> PASS: Expect: 56 (86), DUT: 56 (86)
------------------------------------------------------------
[TIME:  47000] [Direct] A=55 B=aa S1S0=11 Cin=0 | F=aa Cout=0
=> PASS: Expect: aa (170), DUT: aa (170)
------------------------------------------------------------
[TIME:  48000] [Direct] A=55 B=aa S1S0=11 Cin=1 | F=ab Cout=0
=> PASS: Expect: ab (171), DUT: ab (171)
------------------------------------------------------------
[TIME:  49000] [Direct] A=0f B=f0 S1S0=00 Cin=0 | F=ff Cout=0
=> PASS: Expect: ff (255), DUT: ff (255)
------------------------------------------------------------
[TIME:  50000] [Direct] A=0f B=f0 S1S0=00 Cin=1 | F=00 Cout=1
=> PASS: Expect: 00 (0), DUT: 00 (0)
------------------------------------------------------------
[TIME:  51000] [Direct] A=0f B=f0 S1S0=01 Cin=0 | F=0f Cout=0
=> PASS: Expect: 0f (15), DUT: 0f (15)
------------------------------------------------------------
[TIME:  52000] [Direct] A=0f B=f0 S1S0=01 Cin=1 | F=10 Cout=0
=> PASS: Expect: 10 (16), DUT: 10 (16)
------------------------------------------------------------
[TIME:  53000] [Direct] A=0f B=f0 S1S0=10 Cin=0 | F=0f Cout=0
=> PASS: Expect: 0f (15), DUT: 0f (15)
------------------------------------------------------------
[TIME:  54000] [Direct] A=0f B=f0 S1S0=10 Cin=1 | F=10 Cout=0
=> PASS: Expect: 10 (16), DUT: 10 (16)
------------------------------------------------------------
[TIME:  55000] [Direct] A=0f B=f0 S1S0=11 Cin=0 | F=1e Cout=0
=> PASS: Expect: 1e (30), DUT: 1e (30)
------------------------------------------------------------
[TIME:  56000] [Direct] A=0f B=f0 S1S0=11 Cin=1 | F=1f Cout=0
=> PASS: Expect: 1f (31), DUT: 1f (31)
------------------------------------------------------------

========== ZERO CASE TEST ==========

[TIME:  57000] [Zero] A=00 B=00 S1S0=00 Cin=0 | F=00 Cout=0
=> PASS: Expect: 00 (0), DUT: 00 (0)
------------------------------------------------------------

========== STARTING RANDOM TESTS ==========

[TIME:  59000] [Random] A=7c B=7e S1S0=00 Cin=0 | F=fa Cout=0
=> PASS: Expect: fa (250), DUT: fa (250)
------------------------------------------------------------
[TIME:  61000] [Random] A=ee B=f0 S1S0=01 Cin=0 | F=ee Cout=0
=> PASS: Expect: ee (238), DUT: ee (238)
------------------------------------------------------------
[TIME:  63000] [Random] A=60 B=62 S1S0=10 Cin=0 | F=9d Cout=0
=> PASS: Expect: 9d (157), DUT: 9d (157)
------------------------------------------------------------
[TIME:  65000] [Random] A=d2 B=d4 S1S0=11 Cin=0 | F=fd Cout=0
=> PASS: Expect: fd (253), DUT: fd (253)
------------------------------------------------------------
[TIME:  67000] [Random] A=44 B=46 S1S0=00 Cin=0 | F=8a Cout=0
=> PASS: Expect: 8a (138), DUT: 8a (138)
------------------------------------------------------------
[TIME:  69000] [Random] A=b6 B=b8 S1S0=01 Cin=0 | F=b6 Cout=0
=> PASS: Expect: b6 (182), DUT: b6 (182)
------------------------------------------------------------
[TIME:  71000] [Random] A=28 B=2a S1S0=10 Cin=0 | F=d5 Cout=0
=> PASS: Expect: d5 (213), DUT: d5 (213)
------------------------------------------------------------
[TIME:  73000] [Random] A=9a B=9c S1S0=11 Cin=0 | F=fd Cout=0
=> PASS: Expect: fd (253), DUT: fd (253)
------------------------------------------------------------
[TIME:  75000] [Random] A=0c B=0e S1S0=00 Cin=0 | F=1a Cout=0
=> PASS: Expect: 1a (26), DUT: 1a (26)
------------------------------------------------------------
[TIME:  77000] [Random] A=7e B=80 S1S0=01 Cin=0 | F=7e Cout=0
=> PASS: Expect: 7e (126), DUT: 7e (126)
------------------------------------------------------------
[TIME:  79000] [Random] A=f0 B=f2 S1S0=10 Cin=0 | F=0d Cout=0
=> PASS: Expect: 0d (13), DUT: 0d (13)
------------------------------------------------------------
[TIME:  81000] [Random] A=62 B=64 S1S0=11 Cin=0 | F=fd Cout=0
=> PASS: Expect: fd (253), DUT: fd (253)
------------------------------------------------------------
[TIME:  83000] [Random] A=d4 B=d6 S1S0=00 Cin=0 | F=aa Cout=1
=> PASS: Expect: aa (170), DUT: aa (170)
------------------------------------------------------------
[TIME:  85000] [Random] A=46 B=48 S1S0=01 Cin=0 | F=46 Cout=0
=> PASS: Expect: 46 (70), DUT: 46 (70)
------------------------------------------------------------
[TIME:  87000] [Random] A=b8 B=ba S1S0=10 Cin=0 | F=45 Cout=0
=> PASS: Expect: 45 (69), DUT: 45 (69)
------------------------------------------------------------
[TIME:  89000] [Random] A=2a B=2c S1S0=11 Cin=0 | F=fd Cout=0
=> PASS: Expect: fd (253), DUT: fd (253)
------------------------------------------------------------
[TIME:  91000] [Random] A=9c B=9e S1S0=00 Cin=0 | F=3a Cout=1
=> PASS: Expect: 3a (58), DUT: 3a (58)
------------------------------------------------------------
[TIME:  93000] [Random] A=0e B=10 S1S0=01 Cin=0 | F=0e Cout=0
=> PASS: Expect: 0e (14), DUT: 0e (14)
------------------------------------------------------------
[TIME:  95000] [Random] A=80 B=82 S1S0=10 Cin=0 | F=7d Cout=0
=> PASS: Expect: 7d (125), DUT: 7d (125)
------------------------------------------------------------
[TIME:  97000] [Random] A=f2 B=f4 S1S0=11 Cin=0 | F=fd Cout=0
=> PASS: Expect: fd (253), DUT: fd (253)
------------------------------------------------------------
[TIME:  99000] [Random] A=64 B=66 S1S0=00 Cin=0 | F=ca Cout=0
=> PASS: Expect: ca (202), DUT: ca (202)
------------------------------------------------------------
[TIME: 101000] [Random] A=d6 B=d8 S1S0=01 Cin=0 | F=d6 Cout=0
=> PASS: Expect: d6 (214), DUT: d6 (214)
------------------------------------------------------------
[TIME: 103000] [Random] A=48 B=4a S1S0=10 Cin=0 | F=b5 Cout=0
=> PASS: Expect: b5 (181), DUT: b5 (181)
------------------------------------------------------------
[TIME: 105000] [Random] A=ba B=bc S1S0=11 Cin=0 | F=fd Cout=0
=> PASS: Expect: fd (253), DUT: fd (253)
------------------------------------------------------------
[TIME: 107000] [Random] A=2c B=2e S1S0=00 Cin=0 | F=5a Cout=0
=> PASS: Expect: 5a (90), DUT: 5a (90)
------------------------------------------------------------
[TIME: 109000] [Random] A=9e B=a0 S1S0=01 Cin=0 | F=9e Cout=0
=> PASS: Expect: 9e (158), DUT: 9e (158)
------------------------------------------------------------
[TIME: 111000] [Random] A=10 B=12 S1S0=10 Cin=0 | F=ed Cout=0
=> PASS: Expect: ed (237), DUT: ed (237)
------------------------------------------------------------
[TIME: 113000] [Random] A=82 B=84 S1S0=11 Cin=0 | F=fd Cout=0
=> PASS: Expect: fd (253), DUT: fd (253)
------------------------------------------------------------
[TIME: 115000] [Random] A=f4 B=f6 S1S0=00 Cin=0 | F=ea Cout=1
=> PASS: Expect: ea (234), DUT: ea (234)
------------------------------------------------------------
[TIME: 117000] [Random] A=66 B=68 S1S0=01 Cin=0 | F=66 Cout=0
=> PASS: Expect: 66 (102), DUT: 66 (102)
------------------------------------------------------------
[TIME: 119000] [Random] A=d8 B=da S1S0=10 Cin=0 | F=25 Cout=0
=> PASS: Expect: 25 (37), DUT: 25 (37)
------------------------------------------------------------
[TIME: 121000] [Random] A=4a B=4c S1S0=11 Cin=0 | F=fd Cout=0
=> PASS: Expect: fd (253), DUT: fd (253)
------------------------------------------------------------
[TIME: 123000] [Random] A=bc B=be S1S0=00 Cin=0 | F=7a Cout=1
=> PASS: Expect: 7a (122), DUT: 7a (122)
------------------------------------------------------------
[TIME: 125000] [Random] A=2e B=30 S1S0=01 Cin=0 | F=2e Cout=0
=> PASS: Expect: 2e (46), DUT: 2e (46)
------------------------------------------------------------
[TIME: 127000] [Random] A=a0 B=a2 S1S0=10 Cin=0 | F=5d Cout=0
=> PASS: Expect: 5d (93), DUT: 5d (93)
------------------------------------------------------------
[TIME: 129000] [Random] A=12 B=14 S1S0=11 Cin=0 | F=fd Cout=0
=> PASS: Expect: fd (253), DUT: fd (253)
------------------------------------------------------------
[TIME: 131000] [Random] A=84 B=86 S1S0=00 Cin=0 | F=0a Cout=1
=> PASS: Expect: 0a (10), DUT: 0a (10)
------------------------------------------------------------
[TIME: 133000] [Random] A=f6 B=f8 S1S0=01 Cin=0 | F=f6 Cout=0
=> PASS: Expect: f6 (246), DUT: f6 (246)
------------------------------------------------------------
[TIME: 135000] [Random] A=68 B=6a S1S0=10 Cin=0 | F=95 Cout=0
=> PASS: Expect: 95 (149), DUT: 95 (149)
------------------------------------------------------------
[TIME: 137000] [Random] A=da B=dc S1S0=11 Cin=0 | F=fd Cout=0
=> PASS: Expect: fd (253), DUT: fd (253)
------------------------------------------------------------
[TIME: 139000] [Random] A=4c B=4e S1S0=00 Cin=0 | F=9a Cout=0
=> PASS: Expect: 9a (154), DUT: 9a (154)
------------------------------------------------------------
[TIME: 141000] [Random] A=be B=c0 S1S0=01 Cin=0 | F=be Cout=0
=> PASS: Expect: be (190), DUT: be (190)
------------------------------------------------------------
[TIME: 143000] [Random] A=30 B=32 S1S0=10 Cin=0 | F=cd Cout=0
=> PASS: Expect: cd (205), DUT: cd (205)
------------------------------------------------------------

============================================
=============== TEST SUMMARY ===============
Total test cases : 100
Passed            : 100
Failed            : 0
Pass rate         : 100.00 %
============================================

PASS: All tests succeeded.
- /home/noname/Documents/project_tiny/Ex3/03_test/Question5/tb_Question5.sv:211: Verilog $finish
- S i m u l a t i o n   R e p o r t: Verilator 5.024 2024-04-05
- Verilator: $finish at 143ns; walltime 0.002 s; speed 0.000 s/s
- Verilator: cpu 0.000 s on 1 threads; alloced 57 MB
