03_test/Question2/QuestaSim/tb_Question2.log
# vsim -lib ./../Question2/QuestaSim/work -debugDB -l ./../Question2/QuestaSim/tb_Question2.log -voptargs="+acc" -assertdebug -c tb_Question2 -wlf ./../Question2/QuestaSim/tb_Question2.wlf -do "cd ./../Question2/QuestaSim; log -r /*; run -all;" 
# Start time: 23:18:40 on Oct 24,2025
# ** Note: (vsim-8009) Loading existing optimized design _opt
# //  Questa Intel Starter FPGA Edition-64
# //  Version 2024.3 linux_x86_64 Sep 10 2024
# //
# // Unpublished work. Copyright 2024 Siemens
# //
# // This material contains trade secrets or otherwise confidential information
# // owned by Siemens Industry Software Inc. or its affiliates (collectively,
# // "SISW"), or its licensors. Access to and use of this information is strictly
# // limited as set forth in the Customer's applicable agreements with SISW.
# //
# // This material may not be copied, distributed, or otherwise disclosed outside
# // of the Customer's facilities without the express written permission of SISW,
# // and may not be used in any way not expressly authorized by SISW.
# //
# Loading sv_std.std
# Loading work.tb_Question2(fast)
# Loading work.Question2(fast)
# Loading work.LOPD_16bit(fast)
# Loading work.LOPD_8bit(fast)
# Loading work.LOPD_4bit(fast)
# ** Note: (vsim-8716) Reusing existing debug database ./../Question2/QuestaSim/tb_Question2.dbg.
# cd ./../Question2/QuestaSim
# Cannot change directory while a simulation is in progress.
# Use the "quit -sim" command to unload the design first.
#  log -r /*
#  run -all
# [TIME: 41000] [Zero] i_data = 000000000000000000000000 (       0) 	| o_one_position = 00000 ( 0) 	| o_zero_flag = 1
# => PASS: Expect: 00000000, DUT: 00000000 
# [TIME: 51000] [Direcly] i_data = 000000000000000000000001 (       1) 	| o_one_position = 00000 ( 0) 	| o_zero_flag = 0
# => PASS: Expect: 00000000, DUT: 00000000 
# [TIME: 61000] [Direcly] i_data = 000000000000000000000010 (       2) 	| o_one_position = 00001 ( 1) 	| o_zero_flag = 0
# => PASS: Expect: 00000001, DUT: 00000001 
# [TIME: 71000] [Direcly] i_data = 000000000000000000000100 (       4) 	| o_one_position = 00010 ( 2) 	| o_zero_flag = 0
# => PASS: Expect: 00000002, DUT: 00000002 
# [TIME: 81000] [Direcly] i_data = 000000000000000000001000 (       8) 	| o_one_position = 00011 ( 3) 	| o_zero_flag = 0
# => PASS: Expect: 00000003, DUT: 00000003 
# [TIME: 91000] [Direcly] i_data = 000000000000000000010000 (      16) 	| o_one_position = 00100 ( 4) 	| o_zero_flag = 0
# => PASS: Expect: 00000004, DUT: 00000004 
# [TIME: 101000] [Direcly] i_data = 000000000000000000100000 (      32) 	| o_one_position = 00101 ( 5) 	| o_zero_flag = 0
# => PASS: Expect: 00000005, DUT: 00000005 
# [TIME: 111000] [Direcly] i_data = 000000000000000001000000 (      64) 	| o_one_position = 00110 ( 6) 	| o_zero_flag = 0
# => PASS: Expect: 00000006, DUT: 00000006 
# [TIME: 121000] [Direcly] i_data = 000000000000000010000000 (     128) 	| o_one_position = 00111 ( 7) 	| o_zero_flag = 0
# => PASS: Expect: 00000007, DUT: 00000007 
# [TIME: 131000] [Direcly] i_data = 000000000000000100000000 (     256) 	| o_one_position = 01000 ( 8) 	| o_zero_flag = 0
# => PASS: Expect: 00000008, DUT: 00000008 
# [TIME: 141000] [Direcly] i_data = 000000000000001000000000 (     512) 	| o_one_position = 01001 ( 9) 	| o_zero_flag = 0
# => PASS: Expect: 00000009, DUT: 00000009 
# [TIME: 151000] [Direcly] i_data = 000000000000010000000000 (    1024) 	| o_one_position = 01010 (10) 	| o_zero_flag = 0
# => PASS: Expect: 0000000a, DUT: 0000000a 
# [TIME: 161000] [Direcly] i_data = 000000000000100000000000 (    2048) 	| o_one_position = 01011 (11) 	| o_zero_flag = 0
# => PASS: Expect: 0000000b, DUT: 0000000b 
# [TIME: 171000] [Direcly] i_data = 000000000001000000000000 (    4096) 	| o_one_position = 01100 (12) 	| o_zero_flag = 0
# => PASS: Expect: 0000000c, DUT: 0000000c 
# [TIME: 181000] [Direcly] i_data = 000000000010000000000000 (    8192) 	| o_one_position = 01101 (13) 	| o_zero_flag = 0
# => PASS: Expect: 0000000d, DUT: 0000000d 
# [TIME: 191000] [Direcly] i_data = 000000000100000000000000 (   16384) 	| o_one_position = 01110 (14) 	| o_zero_flag = 0
# => PASS: Expect: 0000000e, DUT: 0000000e 
# [TIME: 201000] [Direcly] i_data = 000000001000000000000000 (   32768) 	| o_one_position = 01111 (15) 	| o_zero_flag = 0
# => PASS: Expect: 0000000f, DUT: 0000000f 
# [TIME: 211000] [Direcly] i_data = 000000010000000000000000 (   65536) 	| o_one_position = 10000 (16) 	| o_zero_flag = 0
# => PASS: Expect: 00000010, DUT: 00000010 
# [TIME: 221000] [Direcly] i_data = 000000100000000000000000 (  131072) 	| o_one_position = 10001 (17) 	| o_zero_flag = 0
# => PASS: Expect: 00000011, DUT: 00000011 
# [TIME: 231000] [Direcly] i_data = 000001000000000000000000 (  262144) 	| o_one_position = 10010 (18) 	| o_zero_flag = 0
# => PASS: Expect: 00000012, DUT: 00000012 
# [TIME: 241000] [Direcly] i_data = 000010000000000000000000 (  524288) 	| o_one_position = 10011 (19) 	| o_zero_flag = 0
# => PASS: Expect: 00000013, DUT: 00000013 
# [TIME: 251000] [Direcly] i_data = 000100000000000000000000 ( 1048576) 	| o_one_position = 10100 (20) 	| o_zero_flag = 0
# => PASS: Expect: 00000014, DUT: 00000014 
# [TIME: 261000] [Direcly] i_data = 001000000000000000000000 ( 2097152) 	| o_one_position = 10101 (21) 	| o_zero_flag = 0
# => PASS: Expect: 00000015, DUT: 00000015 
# [TIME: 271000] [Direcly] i_data = 010000000000000000000000 ( 4194304) 	| o_one_position = 10110 (22) 	| o_zero_flag = 0
# => PASS: Expect: 00000016, DUT: 00000016 
# [TIME: 281000] [Direcly] i_data = 100000000000000000000000 ( 8388608) 	| o_one_position = 10111 (23) 	| o_zero_flag = 0
# => PASS: Expect: 00000017, DUT: 00000017 
# [TIME: 291000] [Random] i_data = 000000000001000000000000 (    4096) 	| o_one_position = 01100 (12) 	| o_zero_flag = 0
# => PASS: Expect: 0000000c, DUT: 0000000c 
# [TIME: 301000] [Random] i_data = 010000000000000000000000 ( 4194304) 	| o_one_position = 10110 (22) 	| o_zero_flag = 0
# => PASS: Expect: 00000016, DUT: 00000016 
# [TIME: 311000] [Random] i_data = 110011011110011110110001 (13494193) 	| o_one_position = 10111 (23) 	| o_zero_flag = 0
# => PASS: Expect: 00000017, DUT: 00000017 
# [TIME: 321000] [Random] i_data = 000000000000001000000000 (     512) 	| o_one_position = 01001 ( 9) 	| o_zero_flag = 0
# => PASS: Expect: 00000009, DUT: 00000009 
# [TIME: 331000] [Random] i_data = 000010000000000000000000 (  524288) 	| o_one_position = 10011 (19) 	| o_zero_flag = 0
# => PASS: Expect: 00000013, DUT: 00000013 
# [TIME: 341000] [Random] i_data = 000000000000000000001000 (       8) 	| o_one_position = 00011 ( 3) 	| o_zero_flag = 0
# => PASS: Expect: 00000003, DUT: 00000003 
# [TIME: 351000] [Random] i_data = 000000001000000000000000 (   32768) 	| o_one_position = 01111 (15) 	| o_zero_flag = 0
# => PASS: Expect: 0000000f, DUT: 0000000f 
# [TIME: 361000] [Random] i_data = 011000011001001111110111 ( 6394871) 	| o_one_position = 10110 (22) 	| o_zero_flag = 0
# => PASS: Expect: 00000016, DUT: 00000016 
# [TIME: 371000] [Random] i_data = 000011111100011011101001 ( 1033961) 	| o_one_position = 10011 (19) 	| o_zero_flag = 0
# => PASS: Expect: 00000013, DUT: 00000013 
# [TIME: 381000] [Random] i_data = 000000100000000000000000 (  131072) 	| o_one_position = 10001 (17) 	| o_zero_flag = 0
# => PASS: Expect: 00000011, DUT: 00000011 
# [TIME: 391000] [Random] i_data = 001110011011110001010111 ( 3783767) 	| o_one_position = 10101 (21) 	| o_zero_flag = 0
# => PASS: Expect: 00000015, DUT: 00000015 
# [TIME: 401000] [Random] i_data = 000100000000000000000000 ( 1048576) 	| o_one_position = 10100 (20) 	| o_zero_flag = 0
# => PASS: Expect: 00000014, DUT: 00000014 
# [TIME: 411000] [Random] i_data = 110100101011001110101110 (13808558) 	| o_one_position = 10111 (23) 	| o_zero_flag = 0
# => PASS: Expect: 00000017, DUT: 00000017 
# [TIME: 421000] [Random] i_data = 000000000100000000000000 (   16384) 	| o_one_position = 01110 (14) 	| o_zero_flag = 0
# => PASS: Expect: 0000000e, DUT: 0000000e 
# [TIME: 431000] [Random] i_data = 110101000011101111101010 (13908970) 	| o_one_position = 10111 (23) 	| o_zero_flag = 0
# => PASS: Expect: 00000017, DUT: 00000017 
# [TIME: 441000] [Random] i_data = 000000000000000100000000 (     256) 	| o_one_position = 01000 ( 8) 	| o_zero_flag = 0
# => PASS: Expect: 00000008, DUT: 00000008 
# [TIME: 451000] [Random] i_data = 010000111001001011011001 ( 4428505) 	| o_one_position = 10110 (22) 	| o_zero_flag = 0
# => PASS: Expect: 00000016, DUT: 00000016 
# [TIME: 461000] [Random] i_data = 100000000000000000000000 ( 8388608) 	| o_one_position = 10111 (23) 	| o_zero_flag = 0
# => PASS: Expect: 00000017, DUT: 00000017 
# [TIME: 471000] [Random] i_data = 111010110000000100001111 (15401231) 	| o_one_position = 10111 (23) 	| o_zero_flag = 0
# => PASS: Expect: 00000017, DUT: 00000017 
# [TIME: 481000] [Random] i_data = 001000000000000000000000 ( 2097152) 	| o_one_position = 10101 (21) 	| o_zero_flag = 0
# => PASS: Expect: 00000015, DUT: 00000015 
# [TIME: 491000] [Random] i_data = 010000000000000000000000 ( 4194304) 	| o_one_position = 10110 (22) 	| o_zero_flag = 0
# => PASS: Expect: 00000016, DUT: 00000016 
# [TIME: 501000] [Random] i_data = 001100010100111011100110 ( 3231462) 	| o_one_position = 10101 (21) 	| o_zero_flag = 0
# => PASS: Expect: 00000015, DUT: 00000015 
# [TIME: 511000] [Random] i_data = 000010000000000000000000 (  524288) 	| o_one_position = 10011 (19) 	| o_zero_flag = 0
# => PASS: Expect: 00000013, DUT: 00000013 
# [TIME: 521000] [Random] i_data = 000000010000000000000000 (   65536) 	| o_one_position = 10000 (16) 	| o_zero_flag = 0
# => PASS: Expect: 00000010, DUT: 00000010 
# [TIME: 531000] [Random] i_data = 001000110111110101110000 ( 2325872) 	| o_one_position = 10101 (21) 	| o_zero_flag = 0
# => PASS: Expect: 00000015, DUT: 00000015 
# [TIME: 541000] [Random] i_data = 101110100111000101001001 (12218697) 	| o_one_position = 10111 (23) 	| o_zero_flag = 0
# => PASS: Expect: 00000017, DUT: 00000017 
# [TIME: 551000] [Random] i_data = 110010111101000101101101 (13357421) 	| o_one_position = 10111 (23) 	| o_zero_flag = 0
# => PASS: Expect: 00000017, DUT: 00000017 
# [TIME: 561000] [Random] i_data = 000000000000000010000000 (     128) 	| o_one_position = 00111 ( 7) 	| o_zero_flag = 0
# => PASS: Expect: 00000007, DUT: 00000007 
# [TIME: 571000] [Random] i_data = 000000000100000000000000 (   16384) 	| o_one_position = 01110 (14) 	| o_zero_flag = 0
# => PASS: Expect: 0000000e, DUT: 0000000e 
# [TIME: 581000] [Random] i_data = 000000001000000000000000 (   32768) 	| o_one_position = 01111 (15) 	| o_zero_flag = 0
# => PASS: Expect: 0000000f, DUT: 0000000f 
# [TIME: 591000] [Random] i_data = 000000000000001000000000 (     512) 	| o_one_position = 01001 ( 9) 	| o_zero_flag = 0
# => PASS: Expect: 00000009, DUT: 00000009 
# [TIME: 601000] [Random] i_data = 100110111000011101110111 (10192759) 	| o_one_position = 10111 (23) 	| o_zero_flag = 0
# => PASS: Expect: 00000017, DUT: 00000017 
# [TIME: 611000] [Random] i_data = 000000000000100000000000 (    2048) 	| o_one_position = 01011 (11) 	| o_zero_flag = 0
# => PASS: Expect: 0000000b, DUT: 0000000b 
# [TIME: 621000] [Random] i_data = 000000000000000000100000 (      32) 	| o_one_position = 00101 ( 5) 	| o_zero_flag = 0
# => PASS: Expect: 00000005, DUT: 00000005 
# [TIME: 631000] [Random] i_data = 101111010111011010100111 (12416679) 	| o_one_position = 10111 (23) 	| o_zero_flag = 0
# => PASS: Expect: 00000017, DUT: 00000017 
# [TIME: 641000] [Random] i_data = 000000000000000000000010 (       2) 	| o_one_position = 00001 ( 1) 	| o_zero_flag = 0
# => PASS: Expect: 00000001, DUT: 00000001 
# [TIME: 651000] [Random] i_data = 000101000111010011011110 ( 1340638) 	| o_one_position = 10100 (20) 	| o_zero_flag = 0
# => PASS: Expect: 00000014, DUT: 00000014 
# [TIME: 661000] [Random] i_data = 101011001111011010110110 (11335350) 	| o_one_position = 10111 (23) 	| o_zero_flag = 0
# => PASS: Expect: 00000017, DUT: 00000017 
# [TIME: 671000] [Random] i_data = 100111101111011001011111 (10417759) 	| o_one_position = 10111 (23) 	| o_zero_flag = 0
# => PASS: Expect: 00000017, DUT: 00000017 
# [TIME: 681000] [Random] i_data = 000000000000000000010000 (      16) 	| o_one_position = 00100 ( 4) 	| o_zero_flag = 0
# => PASS: Expect: 00000004, DUT: 00000004 
# [TIME: 691000] [Random] i_data = 111001001110001101010011 (15000403) 	| o_one_position = 10111 (23) 	| o_zero_flag = 0
# => PASS: Expect: 00000017, DUT: 00000017 
# [TIME: 701000] [Random] i_data = 000000000100000000000000 (   16384) 	| o_one_position = 01110 (14) 	| o_zero_flag = 0
# => PASS: Expect: 0000000e, DUT: 0000000e 
# [TIME: 711000] [Random] i_data = 000000000000000000000001 (       1) 	| o_one_position = 00000 ( 0) 	| o_zero_flag = 0
# => PASS: Expect: 00000000, DUT: 00000000 
# [TIME: 721000] [Random] i_data = 111101000110001000001001 (16015881) 	| o_one_position = 10111 (23) 	| o_zero_flag = 0
# => PASS: Expect: 00000017, DUT: 00000017 
# [TIME: 731000] [Random] i_data = 111111110111001111011101 (16741341) 	| o_one_position = 10111 (23) 	| o_zero_flag = 0
# => PASS: Expect: 00000017, DUT: 00000017 
# [TIME: 741000] [Random] i_data = 111111101101010010011101 (16700573) 	| o_one_position = 10111 (23) 	| o_zero_flag = 0
# => PASS: Expect: 00000017, DUT: 00000017 
# [TIME: 751000] [Random] i_data = 000000000100000000000000 (   16384) 	| o_one_position = 01110 (14) 	| o_zero_flag = 0
# => PASS: Expect: 0000000e, DUT: 0000000e 
# [TIME: 761000] [Random] i_data = 000010000000000000000000 (  524288) 	| o_one_position = 10011 (19) 	| o_zero_flag = 0
# => PASS: Expect: 00000013, DUT: 00000013 
# [TIME: 771000] [Random] i_data = 001000000000000000000000 ( 2097152) 	| o_one_position = 10101 (21) 	| o_zero_flag = 0
# => PASS: Expect: 00000015, DUT: 00000015 
# [TIME: 781000] [Random] i_data = 000010000000000000000000 (  524288) 	| o_one_position = 10011 (19) 	| o_zero_flag = 0
# => PASS: Expect: 00000013, DUT: 00000013 
# [TIME: 791000] [Random] i_data = 101111001110001010000000 (12378752) 	| o_one_position = 10111 (23) 	| o_zero_flag = 0
# => PASS: Expect: 00000017, DUT: 00000017 
# [TIME: 801000] [Random] i_data = 010010101101010000111100 ( 4903996) 	| o_one_position = 10110 (22) 	| o_zero_flag = 0
# => PASS: Expect: 00000016, DUT: 00000016 
# [TIME: 811000] [Random] i_data = 000000010000000000000000 (   65536) 	| o_one_position = 10000 (16) 	| o_zero_flag = 0
# => PASS: Expect: 00000010, DUT: 00000010 
# [TIME: 821000] [Random] i_data = 101010100110110000100011 (11168803) 	| o_one_position = 10111 (23) 	| o_zero_flag = 0
# => PASS: Expect: 00000017, DUT: 00000017 
# [TIME: 831000] [Random] i_data = 100011011110000001000101 ( 9297989) 	| o_one_position = 10111 (23) 	| o_zero_flag = 0
# => PASS: Expect: 00000017, DUT: 00000017 
# [TIME: 841000] [Random] i_data = 000010000000000000000000 (  524288) 	| o_one_position = 10011 (19) 	| o_zero_flag = 0
# => PASS: Expect: 00000013, DUT: 00000013 
# [TIME: 851000] [Random] i_data = 011100111010010100100000 ( 7578912) 	| o_one_position = 10110 (22) 	| o_zero_flag = 0
# => PASS: Expect: 00000016, DUT: 00000016 
# [TIME: 861000] [Random] i_data = 101011011111010001110011 (11400307) 	| o_one_position = 10111 (23) 	| o_zero_flag = 0
# => PASS: Expect: 00000017, DUT: 00000017 
# [TIME: 871000] [Random] i_data = 010100010011001111111100 ( 5321724) 	| o_one_position = 10110 (22) 	| o_zero_flag = 0
# => PASS: Expect: 00000016, DUT: 00000016 
# [TIME: 881000] [Random] i_data = 010000110111100101110101 ( 4422005) 	| o_one_position = 10110 (22) 	| o_zero_flag = 0
# => PASS: Expect: 00000016, DUT: 00000016 
# [TIME: 891000] [Random] i_data = 000000000000010000000000 (    1024) 	| o_one_position = 01010 (10) 	| o_zero_flag = 0
# => PASS: Expect: 0000000a, DUT: 0000000a 
# [TIME: 901000] [Random] i_data = 000011110010001111111010 (  992250) 	| o_one_position = 10011 (19) 	| o_zero_flag = 0
# => PASS: Expect: 00000013, DUT: 00000013 
# [TIME: 911000] [Random] i_data = 000100000000000000000000 ( 1048576) 	| o_one_position = 10100 (20) 	| o_zero_flag = 0
# => PASS: Expect: 00000014, DUT: 00000014 
# [TIME: 921000] [Random] i_data = 001000000000000000000000 ( 2097152) 	| o_one_position = 10101 (21) 	| o_zero_flag = 0
# => PASS: Expect: 00000015, DUT: 00000015 
# [TIME: 931000] [Random] i_data = 100001111110011111000110 ( 8906694) 	| o_one_position = 10111 (23) 	| o_zero_flag = 0
# => PASS: Expect: 00000017, DUT: 00000017 
# [TIME: 941000] [Random] i_data = 110100101101101001011101 (13818461) 	| o_one_position = 10111 (23) 	| o_zero_flag = 0
# => PASS: Expect: 00000017, DUT: 00000017 
# [TIME: 951000] [Random] i_data = 000000000000000000000100 (       4) 	| o_one_position = 00010 ( 2) 	| o_zero_flag = 0
# => PASS: Expect: 00000002, DUT: 00000002 
# [TIME: 961000] [Random] i_data = 000000000010000000000000 (    8192) 	| o_one_position = 01101 (13) 	| o_zero_flag = 0
# => PASS: Expect: 0000000d, DUT: 0000000d 
# [TIME: 971000] [Random] i_data = 101010000111111011111110 (11042558) 	| o_one_position = 10111 (23) 	| o_zero_flag = 0
# => PASS: Expect: 00000017, DUT: 00000017 
# [TIME: 981000] [Random] i_data = 100100000101011100000111 ( 9459463) 	| o_one_position = 10111 (23) 	| o_zero_flag = 0
# => PASS: Expect: 00000017, DUT: 00000017 
# [TIME: 991000] [Random] i_data = 110101000011111100000100 (13909764) 	| o_one_position = 10111 (23) 	| o_zero_flag = 0
# => PASS: Expect: 00000017, DUT: 00000017 
# [TIME: 1001000] [Random] i_data = 000000000000000100000000 (     256) 	| o_one_position = 01000 ( 8) 	| o_zero_flag = 0
# => PASS: Expect: 00000008, DUT: 00000008 
# [TIME: 1011000] [Random] i_data = 000000000000000000000100 (       4) 	| o_one_position = 00010 ( 2) 	| o_zero_flag = 0
# => PASS: Expect: 00000002, DUT: 00000002 
# [TIME: 1021000] [Random] i_data = 101001110110100111010110 (10971606) 	| o_one_position = 10111 (23) 	| o_zero_flag = 0
# => PASS: Expect: 00000017, DUT: 00000017 
# [TIME: 1031000] [Random] i_data = 110011101000100010100011 (13535395) 	| o_one_position = 10111 (23) 	| o_zero_flag = 0
# => PASS: Expect: 00000017, DUT: 00000017 
# [TIME: 1041000] [Random] i_data = 011101111011111001010000 ( 7847504) 	| o_one_position = 10110 (22) 	| o_zero_flag = 0
# => PASS: Expect: 00000016, DUT: 00000016 
# [TIME: 1051000] [Random] i_data = 100000000000000000000000 ( 8388608) 	| o_one_position = 10111 (23) 	| o_zero_flag = 0
# => PASS: Expect: 00000017, DUT: 00000017 
# [TIME: 1061000] [Random] i_data = 000000000000000000010000 (      16) 	| o_one_position = 00100 ( 4) 	| o_zero_flag = 0
# => PASS: Expect: 00000004, DUT: 00000004 
# [TIME: 1071000] [Random] i_data = 000000000000000010000000 (     128) 	| o_one_position = 00111 ( 7) 	| o_zero_flag = 0
# => PASS: Expect: 00000007, DUT: 00000007 
# [TIME: 1081000] [Random] i_data = 000000000000010000000000 (    1024) 	| o_one_position = 01010 (10) 	| o_zero_flag = 0
# => PASS: Expect: 0000000a, DUT: 0000000a 
# [TIME: 1091000] [Random] i_data = 000010000000000000000000 (  524288) 	| o_one_position = 10011 (19) 	| o_zero_flag = 0
# => PASS: Expect: 00000013, DUT: 00000013 
# [TIME: 1101000] [Random] i_data = 000000000100000000000000 (   16384) 	| o_one_position = 01110 (14) 	| o_zero_flag = 0
# => PASS: Expect: 0000000e, DUT: 0000000e 
# [TIME: 1111000] [Random] i_data = 000000000000000000000001 (       1) 	| o_one_position = 00000 ( 0) 	| o_zero_flag = 0
# => PASS: Expect: 00000000, DUT: 00000000 
# [TIME: 1121000] [Random] i_data = 000000000000000000001000 (       8) 	| o_one_position = 00011 ( 3) 	| o_zero_flag = 0
# => PASS: Expect: 00000003, DUT: 00000003 
# [TIME: 1131000] [Random] i_data = 111101101011110001000110 (16170054) 	| o_one_position = 10111 (23) 	| o_zero_flag = 0
# => PASS: Expect: 00000017, DUT: 00000017 
# [TIME: 1141000] [Random] i_data = 010011000111000001100111 ( 5009511) 	| o_one_position = 10110 (22) 	| o_zero_flag = 0
# => PASS: Expect: 00000016, DUT: 00000016 
# [TIME: 1151000] [Random] i_data = 000000010010000011101100 (   73964) 	| o_one_position = 10000 (16) 	| o_zero_flag = 0
# => PASS: Expect: 00000010, DUT: 00000010 
# [TIME: 1161000] [Random] i_data = 001111001110111100011000 ( 3993368) 	| o_one_position = 10101 (21) 	| o_zero_flag = 0
# => PASS: Expect: 00000015, DUT: 00000015 
# [TIME: 1171000] [Random] i_data = 110100001010010011101101 (13673709) 	| o_one_position = 10111 (23) 	| o_zero_flag = 0
# => PASS: Expect: 00000017, DUT: 00000017 
# [TIME: 1181000] [Random] i_data = 000000000000000000000001 (       1) 	| o_one_position = 00000 ( 0) 	| o_zero_flag = 0
# => PASS: Expect: 00000000, DUT: 00000000 
# [TIME: 1191000] [Random] i_data = 000000000000000000000100 (       4) 	| o_one_position = 00010 ( 2) 	| o_zero_flag = 0
# => PASS: Expect: 00000002, DUT: 00000002 
# [TIME: 1201000] [Random] i_data = 000000000000001000000000 (     512) 	| o_one_position = 01001 ( 9) 	| o_zero_flag = 0
# => PASS: Expect: 00000009, DUT: 00000009 
# [TIME: 1211000] [Random] i_data = 001100010100011000011011 ( 3229211) 	| o_one_position = 10101 (21) 	| o_zero_flag = 0
# => PASS: Expect: 00000015, DUT: 00000015 
# [TIME: 1221000] [Random] i_data = 000000000000000000000010 (       2) 	| o_one_position = 00001 ( 1) 	| o_zero_flag = 0
# => PASS: Expect: 00000001, DUT: 00000001 
# [TIME: 1231000] [Random] i_data = 000110110110011100110110 ( 1795894) 	| o_one_position = 10100 (20) 	| o_zero_flag = 0
# => PASS: Expect: 00000014, DUT: 00000014 
# [TIME: 1241000] [Random] i_data = 111111100011011111101001 (16660457) 	| o_one_position = 10111 (23) 	| o_zero_flag = 0
# => PASS: Expect: 00000017, DUT: 00000017 
# [TIME: 1251000] [Random] i_data = 111101100100100011010010 (16140498) 	| o_one_position = 10111 (23) 	| o_zero_flag = 0
# => PASS: Expect: 00000017, DUT: 00000017 
# [TIME: 1261000] [Random] i_data = 000000000000001000000000 (     512) 	| o_one_position = 01001 ( 9) 	| o_zero_flag = 0
# => PASS: Expect: 00000009, DUT: 00000009 
# [TIME: 1271000] [Random] i_data = 001101100101110001111011 ( 3562619) 	| o_one_position = 10101 (21) 	| o_zero_flag = 0
# => PASS: Expect: 00000015, DUT: 00000015 
# [TIME: 1281000] [Random] i_data = 011110110001111000110100 ( 8068660) 	| o_one_position = 10110 (22) 	| o_zero_flag = 0
# => PASS: Expect: 00000016, DUT: 00000016 
# 
# ================================
# ==========TEST SUMMARY==========
# Total test cases:    125    
# Passed          :    125    
# Failed          :      0    
# Pass rate       : 100.00%
# ================================
# ** Note: $finish    : /home/noname/Documents/project_tiny/Ex3/03_verif/DUT/Question2/tb_Question2.sv(126)
#    Time: 1391 ns  Iteration: 0  Instance: /tb_Question2
# End time: 23:18:40 on Oct 24,2025, Elapsed time: 0:00:00
# Errors: 0, Warnings: 0
